<driver name="NULL">
  <global_def></global_def>
  <device id="/core/mproc/smd">
    <props name="smd_intr_enabled" type= DALPROP_ATTR_TYPE_BYTE_SEQ>
      0x1, 
      0x1, 
      0x1, 
      0x1, 
      0x1, 
      0x0, 
      0x1, 
      end
    </props>
  </device>
</driver>
