*libqcc.a:(*)
*(.text.sleepOS_holdoffNoMode)
*(.text.sleepOS_override)
*(.text.sleepOS_mainTask)
*(.text.qurt_mem_dcache_inv)
*(.text.qurt_mem_dcache_clean)
*(.text.diag_f3_trace_to_buffer)
*(.text.memscpy)
*(.text.Timetick_GetTimetick64)
*(.text.qurt_tls_get_specific)
*(.text.Timetick_DalTimetick_GetTimetick64)
*(.text.rflm_dm_validate_handle)
*(.text.dsmi_ref_dec)
*(.text.osal_atomic_compare_and_set)
*(.text.dsm_length_packet)
*(.text.sys_Tlsget)
*(.text.rex_leave_crit_sect)
*(.text.dsmi_free_buffer)
*(.text.rex_enter_crit_sect)
*(.text.q_lock)
*(.text.bin_deactive)
*(.text.dsmi_ref_inc)
*(.text._Getptolower)
*(.text.schdlr_arb_list_get_next_node)
*(.text.ipa_util_circ_buf_put_data)
*(.text._ZN10HandlePool15get_dtr_buf_ptrEl)
*(.text.dsmi_verify_buffer)
*(.text.q_unlock)
*(.text.sem_post)
*(.text.qurt_thread_get_id)
*(.text.qurt_mem_cache_clean)
*(.text.log_mask_enabled)
*(.text.rex_self)
*(.text.pthread_getspecific)
*(.text.qw_lo)
*(.text.rex_wait)
*(.text.dsmi_free_packet)
*(.text._ZN10HandlePool12get_meta_ptrEl)
*(.text.schdlr_event_list_tl_event_sort_cb)
*(.text.qw_hi)
*(.text.pthread_mutex_unlock)
*(.text.stm2_get_user_data)
*(.text.q_get)
*(.text._Tls_get__Tolotab)
*(.text.timetick_get)
*(.text.rflte_state_get_rf_state)
*(.text.err_f3_save_msg)
*(.text.sem_wait)
*(.text.msgr_init_hdr)
*(.text.Timetick_Get)
*(.text.memsmove)
*(.text.rflm_dm_get_dtr_buf_addr)
*(.text.memdebug_updatecallerptr)
*(.text.msgri_umid_get_client_node)
*(.text.dsmi_new_buffer)
*(.text.msgr_get_client_tech_mod)
*(.text.diagbuf_drain)
*(.text.log_get_code)
*(.text.Timetick_GetElapsed)
*(.text.a2_taskq_status_get_next_task)
*(.text.msgri_timetick_get)
*(.text.Timetick_Enable)
*(.text.ipa_util_imm_cmd_write_descs)
*(.text.rflm_dm_validate_handle_type)
*(.text.dsmi_touch_item)
*(.text._event_realign_payload_ptr)
*(.text.rex_clr_sigs)
*(.text.Timetick_DalTimetick_Get)
*(.text.Timetick_InitTimetick64)
*(.text.rflm_rw_lock_read_lock)
*(.text.msg_save_trace)
*(.text._ZN6MyListILl4EE11is_idx_usedEl__merged)
*(.text.diagcomm_sio_flow_enabled)
*(.text.mutils_circ_q_get_item)
*(.text.q_check)
*(.text.memory_barrier)
*(.text.osal_exit_crit_sect)
*(.text.ipa_dl_prdcr_status_proc)
*(.text.schdlr_arb_list_get_new_node)
*(.text.msgr_init_hdr_all)
*(.text.msgr_send)
*(.text.msgri_lookup_reg)
*(.text.rflm_lte_dm_get_data_ptr)
*(.text.memheap_copy_frd_offset_at_end)
*(.text.ipa_bam_pipe_write_descs)
*(.text.rex_set_sigs)
*(.text.rflm_dm_get_script_buf_ptr)
*(.text.dsmi_dup_packet_long)
*(.text.dsmi_split_packet)
*(.text.rex_get_sigs)
*(.text.schdlr_arb_list_add_node)
*(.text.rflte_state_get_txlm_buffer_idx)
*(.text.rex_os_wait_on_sigs)
*(.text.a2_taskq_hal_set_wr_ptr__merged)
*(.text._ZL31rflm_ccs_rf_seq_set_waiton_doneP26_rflm_ccs_rf_seq_context_sml)
*(.text.a2_common_tasks_dma_tag_write)
*(.text.a2_taskq_hal_status_set_rd_ptr)
*(.text._ZN6MyListILl110EE11is_idx_usedEl)
*(.text._ZN12rfc_lte_data12get_instanceEv)
*(.text.event_sorted_list_iter_get)
*(.text.stm2_get_state)
*(.text.Timetick_DalTimetick_Enable)
*(.text.Timetick_DalTimetick_CvtToTimetick64)
*(.text.dsmi_dequeue)
*(.text.msgri_msgq_receive)
*(.text.a2_common_tasks_dma_write_iovec_list_from_uncached_phys_src_addr)
*(.text.pthread_mutex_lock)
*(.text.rflte_util_check_tx_dev_on_band)
*(.text.ipa_dl_cnsmr_dma_task_cache_update)
*(.text.stm2_get_instance)
*(.text._ZN8DtrRxBuf18get_populated_flagEm)
*(.text.a2_timetick_get)
*(.text.sqrtf)
*(.text.timer_trace_event)
*(.text._ZN10HandlePool18get_script_buf_ptrElm)
*(.text.modem_mem_alloc)
*(.text.DALSYS_SyncEnter)
*(.text.msgri_fifo_put_buf)
*(.text._ZL38rflm_ccs_rf_seq_queue_schedule_earlierP30_rflm_ccs_rf_seq_sched_event_sS0_)
*(.text.rflte_state_get_gsm_concurrency_path_info)
*(.text._event_write_payload_sbi_rffe)
*(.text.dsmi_trim_packet_long)
*(.text.msgr_receive)
*(.text.dsmi_release_buffer)
*(.text.dsmi_wm_check_levels_dequeue)
*(.text.msgri_msgq_send)
*(.text.osal_get_sigs)
*(.text.modem_mem_calloc)
*(.text.memheap_addNodeToBin)
*(.text.msgri_lookup_next_reg)
*(.text.msgri_client_send)
*(.text._ZL36rflm_ccs_rf_seq_queue_schedule_laterP30_rflm_ccs_rf_seq_sched_event_sS0_)
*(.text.lte_rlcdl_get_ctrl_pdu_size)
*(.text.timetick_sclk64_get)
*(.text.sio_enter_crit_section)
*(.text.rflm_dm_get_handle_meta_ptr)
*(.text.msgri_fifo_get_buf)
*(.text.q_link)
*(.text._ZL30rflm_ccs_rf_seq_release_waitonP26_rflm_ccs_rf_seq_context_sm)
*(.text.msg_get_time)
*(.text.a2_task_process_tb_rcvd_signal)
*(.text.memdebug_malloc)
*(.text.approx_atan2_poly7)
*(.text.smd_sio_get_info)
*(.text.sem_trywait)
*(.text.rflm_dtr_rx_get_group_settings)
*(.text.q_put)
*(.text.rflm_lte_get_ul_dl_timing_offsets)
*(.text.rf_time_get_timetick64_snapshot)
*(.text.diag_non_hdlc_encode)
*(.text.memheap_updatestats)
*(.text.smd_sio_get_info_location)
*(.text._ZN16MyBufMgrTemplateI20rflm_dm_script_buf_sILm75EELl126EE13get_array_idxEPm__merged)
*(.text.dsmi_pull8)
*(.text.smdi_get_info)
*(.text.smd_api_version)
*(.text.smd_wm_get_info)
*(.text.osal_thread_self)
*(.text.a2_timetick_diff)
*(.text.a2_taskq_status_commit_rd_ptr)
*(.text.a2_ul_phyi_reserve_first_gather_task)
*(.text.a2_ul_phyi_write_fill_task)
*(.text._ZN4txlm21retrieve_dac_iref_lutEPKhh)
*(.text.rflm_rw_lock_read_unlock)
*(.text._ZN9ScriptBufI20rflm_dm_script_buf_sILm144EELl110EE16validate_buf_ptrEPm)
*(.text.ftm_get_rf_db_state)
*(.text.rfcommon_nv_get_tbl_ptr)
*(.text._ZN3rfanwEj)
*(.text.rf_fwrsp_task_get_dispatch_handle)
*(.text.ipa_util_bam_pipe_transfer)
*(.text.ipa_util_bam_pipe_write_descs)
*(.text.dsmi_wm_check_levels_enqueue)
*(.text.rfcommon_msm_convert_microsecs_to_ustmr_units)
*(.text.rflm_autopin_is_enabled)
*(.text.rflm_lte_dm_get_ptr)
*(.text.QURTK_tlb_read)
*(.text.abs)
*(.text.Timetick_DalTimetick_GetMinRearmSclk)
*(.text.Timetick_GetMinRearmSclk)
*(.text.timetick_attach)
*(.text.stm2_instance_process_input)
*(.text.rflte_mc_get_tx_nv_container)
*(.text.time_get_optimized_till_msec)
*(.text.timer_get_clnt_int_timers)
*(.text.stm2_process_input)
*(.text.rf_time_get_elapsed)
*(.text.log_service_outbound)
*(.text.ipa_wan_find_dl_wan_map_valid_entry)
*(.text.qurt_qdi_handle_invoke)
*(.text.timer_determine_next_timer_expiry)
*(.text.lte_pdcpul_flow_enabled)
*(.text.a2_ul_phy_notify_actual_hw_process_time)
*(.text.q_cnt)
*(.text.approx_uinvsqrt_linlut8)
*(.text.smd_memcpy_to_sm)
*(.text.a2_dl_phy_process_statusq)
*(.text.diagcomm_status)
*(.text.timer_clr_64)
*(.text.a2_ul_phyi_write_crc_task)
*(.text.rflm_lte_ccs_create_rffe_task)
*(.text.rflm_dm_get_tx_agc_ptr)
*(.text.ipa_dl_prdcr_log_stts_pkt)
*(.text._ZL30rflm_ccs_rf_seq_reserve_waitonP26_rflm_ccs_rf_seq_context_sm)
*(.text.smd_dsm_lock)
*(.text.lte_ml1_schdlr2_obj_get_state)
*(.text.lte_ml1_gm_clear_and_get_scc_idx_from_scc_mask)
*(.text.smdi_get_port_to_info_ptr)
*(.text.LogInterruptEvent)
*(.text.lte_rlcul_tx_write_a2_tasks)
*(.text.lte_mac_qos_enable_sr_request)
*(.text.lte_ml1_schdlr_req_list_get_request_priority)
*(.text.lte_ml1_gm_diag_get_up3_capture_status)
*(.text.memscpy.1.1_i32_136.3_i32_136)
*(.text._ZL27rflm_ccs_rf_seq_task_finishP26_rflm_ccs_rf_seq_context_sP30_rflm_ccs_rf_seq_sched_event_s)
*(.text._ZL24rflm_ccs_rf_seq_push_dmaP26_rflm_ccs_rf_seq_context_sP30_rflm_ccs_rf_seq_sched_event_smmm)
*(.text._ZN16rf_script_buffer25get_rffe_transaction_timeEth26rf_buffer_transaction_typeh)
*(.text.schdlr_event_list_get_priority_at_time)
/*Removed by GK to prevent overflow - first seen in TH 2.0 - 786*/
/*
*(.text.rflte_mc_get_nv_tbl_ptr)
*(.text.lte_rlculi_get_ctrl_blk_by_lc_id)
*(.text.rf_time_get_tick)
*(.text.ipa_dl_check_low_lat_traffic)
*(.text.rflm_ccs_memory_range_error)
*(.text.schdlr_arb_execute_event)
*(.text.a2_task_save_tb_dbg_info)
*(.text.memheap_find_bin)
*(.text.lte_ml1_schdlr2_systime_get_sf_now)
*(.text.lte_ml1_gm_log_status_internal)
*(.text.DOG_UNLOCK)
*(.text.rcinit_lookup_rextask)
*(.text.diagbuf_incr_dsm_count)
*(.text.mutils_circ_q_put_item)
*(.text.stm_release_lock)*/