typedef unsigned char boolean;
typedef unsigned long int uint32;
typedef unsigned short uint16;
typedef unsigned char uint8;
typedef signed long int int32;
typedef signed short int16;
typedef signed char int8;
typedef unsigned char byte;
typedef unsigned short word;
typedef unsigned long dword;
typedef unsigned char uint1;
typedef unsigned short uint2;
typedef unsigned long uint4;
typedef signed char int1;
typedef signed short int2;
typedef long int int4;
typedef signed long sint31;
typedef signed short sint15;
typedef signed char sint7;
typedef uint16 UWord16 ;
typedef uint32 UWord32 ;
typedef int32 Word32 ;
typedef int16 Word16 ;
typedef uint8 UWord8 ;
typedef int8 Word8 ;
typedef int32 Vect32 ;
      typedef long long int64;
      typedef unsigned long long uint64;
typedef unsigned long int bool32;
typedef void * addr_t;
        typedef struct __attribute__((packed))
        { uint16 x; }
        unaligned_uint16;
        typedef struct __attribute__((packed))
        { uint32 x; }
        unaligned_uint32;
        typedef struct __attribute__((packed))
        { uint64 x; }
        unaligned_uint64;
        typedef struct __attribute__((packed))
        { int16 x; }
        unaligned_int16;
        typedef struct __attribute__((packed))
        { int32 x; }
        unaligned_int32;
        typedef struct __attribute__((packed))
        { int64 x; }
        unaligned_int64;
  extern dword rex_int_lock(void);
  extern dword rex_int_free(void);
   extern void rex_task_lock( void);
   extern void rex_task_free( void);
extern unsigned int g_spmNumCores;
typedef enum
{
  SPM_MODE_CLK_GATE,
  SPM_MODE_VDD_MIN,
  SPM_MODE_APCR_PLL_ON,
  SPM_MODE_APCR_PLL_LPM,
  SPM_MODE_PWRC,
  SPM_MODE_PWRC_L2RET,
  SPM_MODE_L2_RETENTION,
  SPM_MODE_L2_GDHS,
  SPM_MODE_L2_OFF,
  SPM_NUM_LOW_POWER_MODES
} spm_low_power_mode_type;
typedef enum
{
  SPM_RPM_PERFORM_HANDSHAKE,
  SPM_RPM_BYPASS_HANDSHAKE,
} spm_rpm_bypass_type;
typedef enum
{
  SPM_CORE_NUM_0,
  SPM_CORE_NUM_1,
  SPM_CORE_NUM_2,
  SPM_CORE_NUM_L2 = SPM_CORE_NUM_2
} spm_core_num_type;
void spm_set_low_power_mode
(
  uint32 core_num,
  spm_low_power_mode_type low_power_mode
);
void spm_set_rpm_bypass(uint32 core_num,
                        spm_rpm_bypass_type rpm_bypass) ;
void spm_enable( uint32 core_num, boolean spm_enable ) ;
void spm_initialize( void );
typedef enum
{
  BSP_SPM_SAW_SECURE,
  BSP_SPM_SAW_NONSECURE
} BSP_spm_SawSecureType;
typedef struct
{
  BSP_spm_SawSecureType sawCtl;
  BSP_spm_SawSecureType pwrCtl;
  BSP_spm_SawSecureType vltCtl;
} BSP_spm_SawSecureCfgType;
typedef struct
{
  uint8 numSpmEntry;
  uint8 numPwrCntl;
  uint8 pmicDataWidth;
  uint8 numPmicData;
  BSP_spm_SawSecureType CfgNSAccess;
  bool32 pmicArbiterIntf;
  bool32 avsPresent;
  bool32 spmPresent;
} BSP_spm_SawIDType;
typedef struct
{
  bool32 frcRefClkOn;
  uint8 clkDiv;
} BSP_spm_SawCfgType;
typedef enum
{
  BSP_SPM_SAW_RPM_STATE_RUN,
  BSP_SPM_SAW_RPM_STATE_STDNACK,
  BSP_SPM_SAW_RPM_STATE_WAKEUP,
  BSP_SPM_SAW_RPM_STATE_BGUPACK
} BSP_spm_SawRpmStateType;
typedef struct
{
  bool32 shtdwnReqSpmToRpm;
  bool32 shtdwnAckRpmToSpm;
  bool32 bringUpReqSpmToRpm;
  bool32 bringUpAckRpmToSpm;
  BSP_spm_SawRpmStateType rpmState;
  uint8 spmCmdAddr;
} BSP_spm_SawStsType;
typedef enum
{
  BSP_SPM_SAW_PMIC_STATE_IDLE,
  BSP_SPM_SAW_PMIC_STATE_DONE,
  BSP_SPM_SAW_PMIC_STATE_DELAY
} BSP_spm_SawPmicStateType;
typedef struct
{
  uint8 currDelay;
  uint8 currPmicSize;
  BSP_spm_SawPmicStateType pmicState;
  uint8 currPmicData;
} BSP_pmic_SawStsType;
typedef enum
{
  BSP_SPM_SAW_PMIC_DATA_SIZE_0,
  BSP_SPM_SAW_PMIC_DATA_SIZE_1
} BSP_spm_SawPmicDataSize;
typedef struct
{
  BSP_spm_SawPmicDataSize pmicDataSize;
  uint8 adrIdx;
  uint8 pmicData;
} BSP_spm_SawVctlCfgType;
typedef enum
{
  BSP_SPM_SAW_WAKEUP_CONFIG_0,
  BSP_SPM_SAW_WAKEUP_CONFIG_1,
  BSP_SPM_SAW_WAKEUP_CONFIG_2,
  BSP_SPM_SAW_WAKEUP_CONFIG_3
} BSP_spm_SawPowerModeType;
typedef struct
{
  bool32 inhibitStartAddrReset;
  BSP_spm_SawPowerModeType wakeupConfig;
} BSP_spm_SawSpmCtlCfgType;
typedef struct
{
  uint16 delay_1;
  uint16 delay_2;
  uint16 delay_3;
} BSP_spm_SawSpmDlyType;
typedef enum
{
  BSP_SPM_SAW_PMIC_DATA_PC = 0,
  BSP_SPM_SAW_PMIC_DATA_NOMINAL = 1,
  BSP_SPM_SAW_PMIC_DATA_VDD_MIN = 2,
  BSP_SPM_SAW_PMIC_DATA_NUM
} BSP_spm_PmicModeData;
typedef struct
{
  BSP_spm_PmicModeData mode;
  uint8 pmicData;
  uint8 pmicDly;
  BSP_spm_SawPmicDataSize pmicDataSize;
  uint8 adrIdx;
} BSP_spm_SawPmicDataType;
typedef struct
{
  BSP_spm_SawSecureCfgType sawSecureCfg;
  BSP_spm_SawCfgType sawCfg;
  BSP_spm_SawSpmCtlCfgType sawSpmCtlCfg;
  BSP_spm_SawSpmDlyType sawSpmDlyCfg;
  BSP_spm_SawPmicDataType sawSpmPmicData[BSP_SPM_SAW_PMIC_DATA_NUM];
} BSP_spm_ConfigDataType;
typedef struct
{
  spm_low_power_mode_type mode;
  uint8 *sequence;
  uint8 len;
  int8 rpmModeIndex;
  int8 seqStartIndex;
} BSP_spm_CmdSequenceType;
extern BSP_spm_ConfigDataType *g_spmBspData;
extern BSP_spm_CmdSequenceType (*g_spmCmdSeqArray)[SPM_NUM_LOW_POWER_MODES];
void BSP_spm_InitTargetData( void );
uint32 BSP_spm_GetNumSupportedLPMs( uint32 coreNum );
typedef enum
{
  QDSP6_RESET,
  QDSP6_CLAMP,
  QDSP6_CLOCK,
  QDSP6_MEM_SLEEP,
  QDSP6_BHS,
  QDSP6_LDO_BYPASS,
  QDSP6_LDO,
  QDSP6_PLL_VOTE,
  QDSP6_SMMU_PD_VOTE = 13,
  QDSP6_CLAMP_WL = 16,
  QDSP6_QMC_MEM_CLAMP,
  QDSP6_MEM_SRC_BIAS = 19,
  QDSP6_RETAIN_SAVE,
  QDSP6_RETAIN_RESTORE,
  QDSP6_PMI,
  QDSP6_MEM_RET_SLEEP = 30,
  QDSP6_COPROC_BHS = 31
} SPM_SEQ_PWR_CTL_BITS;
typedef enum
{
  DATA_0,
  DATA_1,
  DATA_2,
} SPM_SEQ_PMIC_DATA_BITS;
typedef enum
{
  NO_RPM_HS,
  RPM_HS
} SPM_SEQ_SLEEP_BITS;
typedef enum
{
  EVENT_0,
  EVENT_1,
  EVENT_2,
  EVENT_3,
  EVENT_4
} SPM_SEQ_EVENT_BITS;
typedef enum
{
  DLY_1 = 1,
  DLY_2,
  DLY_3
} SPM_SEQ_DLY_BITS;
BSP_spm_ConfigDataType devcfgSpmBspData[] =
{
  {
    { BSP_SPM_SAW_NONSECURE, BSP_SPM_SAW_NONSECURE, BSP_SPM_SAW_NONSECURE },
    { 0x0, 0x1F },
    { 0x1, BSP_SPM_SAW_WAKEUP_CONFIG_0 },
    { 0x0, 0x0, 0x0 },
    {
      { BSP_SPM_SAW_PMIC_DATA_NOMINAL, 0x0 , 0x0 , 0 , 0 },
      { BSP_SPM_SAW_PMIC_DATA_PC , 0x0 , 0x0 , 0 , 0 },
      { BSP_SPM_SAW_PMIC_DATA_VDD_MIN, 0x0 , 0x0 , 0 , 0 },
    }
  }
};
static uint8 spmCmdSeqAPCRPLLOn[] =
{
  ( (((QDSP6_CLOCK) & 0xF) << 4) | (((QDSP6_CLOCK) & 0x10) >> 1) | ((0) << 1) ),
  ( (((QDSP6_CLAMP) & 0xF) << 4) | (((QDSP6_CLAMP) & 0x10) >> 1) | ((0) << 1) ),
  ( (((QDSP6_RETAIN_SAVE) & 0xF) << 4) | (((QDSP6_RETAIN_SAVE) & 0x10) >> 1) | ((0) << 1) ),
  ( (((QDSP6_RETAIN_SAVE) & 0xF) << 4) | (((QDSP6_RETAIN_SAVE) & 0x10) >> 1) | ((0) << 1) ),
  ( (((QDSP6_COPROC_BHS) & 0xF) << 4) | (((QDSP6_COPROC_BHS) & 0x10) >> 1) | ((0) << 1) ),
  ( (((QDSP6_CLAMP_WL) & 0xF) << 4) | (((QDSP6_CLAMP_WL) & 0x10) >> 1) | ((0) << 1) ),
  ( (((QDSP6_MEM_RET_SLEEP) & 0xF) << 4) | (((QDSP6_MEM_RET_SLEEP) & 0x10) >> 1) | ((0) << 1) ),
  (((DLY_1 & 0x7) << 4)|(0xF)),
  ( (((QDSP6_QMC_MEM_CLAMP) & 0xF) << 4) | (((QDSP6_QMC_MEM_CLAMP) & 0x10) >> 1) | ((0) << 1) ),
  ( (((QDSP6_LDO_BYPASS) & 0xF) << 4) | (((QDSP6_LDO_BYPASS) & 0x10) >> 1) | ((0) << 1) ),
  ( (((QDSP6_BHS) & 0xF) << 4) | (((QDSP6_BHS) & 0x10) >> 1) | ((1) << 1) ),
  ( (((QDSP6_LDO) & 0xF) << 4) | (((QDSP6_LDO) & 0x10) >> 1) | ((0) << 1) ),
  (NO_RPM_HS<<2)|(0x3),
  ( (((QDSP6_RESET) & 0xF) << 4) | (((QDSP6_RESET) & 0x10) >> 1) | ((0) << 1) ),
  ( (((QDSP6_LDO) & 0xF) << 4) | (((QDSP6_LDO) & 0x10) >> 1) | ((0) << 1) ),
  ( (((QDSP6_BHS) & 0xF) << 4) | (((QDSP6_BHS) & 0x10) >> 1) | ((1) << 1) ),
  ( (((QDSP6_LDO_BYPASS) & 0xF) << 4) | (((QDSP6_LDO_BYPASS) & 0x10) >> 1) | ((0) << 1) ),
  ( (((QDSP6_QMC_MEM_CLAMP) & 0xF) << 4) | (((QDSP6_QMC_MEM_CLAMP) & 0x10) >> 1) | ((0) << 1) ),
  ( (((QDSP6_MEM_RET_SLEEP) & 0xF) << 4) | (((QDSP6_MEM_RET_SLEEP) & 0x10) >> 1) | ((1) << 1) ),
  ( (((QDSP6_CLAMP_WL) & 0xF) << 4) | (((QDSP6_CLAMP_WL) & 0x10) >> 1) | ((0) << 1) ),
  ( (((QDSP6_COPROC_BHS) & 0xF) << 4) | (((QDSP6_COPROC_BHS) & 0x10) >> 1) | ((1) << 1) ),
  ( (((QDSP6_RETAIN_RESTORE) & 0xF) << 4) | (((QDSP6_RETAIN_RESTORE) & 0x10) >> 1) | ((0) << 1) ),
  ( (((QDSP6_RETAIN_RESTORE) & 0xF) << 4) | (((QDSP6_RETAIN_RESTORE) & 0x10) >> 1) | ((0) << 1) ),
  ( (((QDSP6_CLAMP) & 0xF) << 4) | (((QDSP6_CLAMP) & 0x10) >> 1) | ((0) << 1) ),
  ( (((QDSP6_RESET) & 0xF) << 4) | (((QDSP6_RESET) & 0x10) >> 1) | ((0) << 1) ),
  ( (((QDSP6_PMI) & 0xF) << 4) | (((QDSP6_PMI) & 0x10) >> 1) | ((0) << 1) ),
  ( (((QDSP6_PMI) & 0xF) << 4) | (((QDSP6_PMI) & 0x10) >> 1) | ((0) << 1) ),
  ( (((QDSP6_CLOCK) & 0xF) << 4) | (((QDSP6_CLOCK) & 0x10) >> 1) | ((0) << 1) ),
  (0xF),
};
static uint8 spmCmdSeqAPCRPLLLPM[] =
{
  ( (((QDSP6_CLOCK) & 0xF) << 4) | (((QDSP6_CLOCK) & 0x10) >> 1) | ((1) << 1) ),
  (EVENT_2<<4)|(0xB),
  ( (((QDSP6_CLAMP) & 0xF) << 4) | (((QDSP6_CLAMP) & 0x10) >> 1) | ((0) << 1) ),
  ( (((QDSP6_RETAIN_SAVE) & 0xF) << 4) | (((QDSP6_RETAIN_SAVE) & 0x10) >> 1) | ((0) << 1) ),
  ( (((QDSP6_RETAIN_SAVE) & 0xF) << 4) | (((QDSP6_RETAIN_SAVE) & 0x10) >> 1) | ((0) << 1) ),
  ( (((QDSP6_COPROC_BHS) & 0xF) << 4) | (((QDSP6_COPROC_BHS) & 0x10) >> 1) | ((0) << 1) ),
  ( (((QDSP6_CLAMP_WL) & 0xF) << 4) | (((QDSP6_CLAMP_WL) & 0x10) >> 1) | ((0) << 1) ),
  ( (((QDSP6_MEM_SRC_BIAS) & 0xF) << 4) | (((QDSP6_MEM_SRC_BIAS) & 0x10) >> 1) | ((0) << 1) ),
  ( (((QDSP6_MEM_RET_SLEEP) & 0xF) << 4) | (((QDSP6_MEM_RET_SLEEP) & 0x10) >> 1) | ((0) << 1) ),
  ( (((QDSP6_MEM_SLEEP) & 0xF) << 4) | (((QDSP6_MEM_SLEEP) & 0x10) >> 1) | ((1) << 1) ),
  ( (((QDSP6_QMC_MEM_CLAMP) & 0xF) << 4) | (((QDSP6_QMC_MEM_CLAMP) & 0x10) >> 1) | ((0) << 1) ),
  ( (((QDSP6_LDO_BYPASS) & 0xF) << 4) | (((QDSP6_LDO_BYPASS) & 0x10) >> 1) | ((0) << 1) ),
  ( (((QDSP6_BHS) & 0xF) << 4) | (((QDSP6_BHS) & 0x10) >> 1) | ((0) << 1) ),
  ( (((QDSP6_LDO) & 0xF) << 4) | (((QDSP6_LDO) & 0x10) >> 1) | ((0) << 1) ),
  ( (((QDSP6_SMMU_PD_VOTE) & 0xF) << 4) | (((QDSP6_SMMU_PD_VOTE) & 0x10) >> 1) | ((0) << 1) ),
  ( (((QDSP6_PLL_VOTE) & 0xF) << 4) | (((QDSP6_PLL_VOTE) & 0x10) >> 1) | ((0) << 1) ),
  (NO_RPM_HS<<2)|(0x3),
  ( (((QDSP6_RESET) & 0xF) << 4) | (((QDSP6_RESET) & 0x10) >> 1) | ((0) << 1) ),
  ( (((QDSP6_PLL_VOTE) & 0xF) << 4) | (((QDSP6_PLL_VOTE) & 0x10) >> 1) | ((0) << 1) ),
  ( (((QDSP6_SMMU_PD_VOTE) & 0xF) << 4) | (((QDSP6_SMMU_PD_VOTE) & 0x10) >> 1) | ((0) << 1) ),
  ( (((QDSP6_LDO) & 0xF) << 4) | (((QDSP6_LDO) & 0x10) >> 1) | ((0) << 1) ),
  ( (((QDSP6_BHS) & 0xF) << 4) | (((QDSP6_BHS) & 0x10) >> 1) | ((1) << 1) ),
  ( (((QDSP6_LDO_BYPASS) & 0xF) << 4) | (((QDSP6_LDO_BYPASS) & 0x10) >> 1) | ((0) << 1) ),
  ( (((QDSP6_QMC_MEM_CLAMP) & 0xF) << 4) | (((QDSP6_QMC_MEM_CLAMP) & 0x10) >> 1) | ((0) << 1) ),
  ( (((QDSP6_MEM_SLEEP) & 0xF) << 4) | (((QDSP6_MEM_SLEEP) & 0x10) >> 1) | ((1) << 1) ),
  ( (((QDSP6_MEM_RET_SLEEP) & 0xF) << 4) | (((QDSP6_MEM_RET_SLEEP) & 0x10) >> 1) | ((1) << 1) ),
  ( (((QDSP6_MEM_SRC_BIAS) & 0xF) << 4) | (((QDSP6_MEM_SRC_BIAS) & 0x10) >> 1) | ((0) << 1) ),
  ( (((QDSP6_CLAMP_WL) & 0xF) << 4) | (((QDSP6_CLAMP_WL) & 0x10) >> 1) | ((0) << 1) ),
  ( (((QDSP6_COPROC_BHS) & 0xF) << 4) | (((QDSP6_COPROC_BHS) & 0x10) >> 1) | ((1) << 1) ),
  ( (((QDSP6_RETAIN_RESTORE) & 0xF) << 4) | (((QDSP6_RETAIN_RESTORE) & 0x10) >> 1) | ((0) << 1) ),
  ( (((QDSP6_RETAIN_RESTORE) & 0xF) << 4) | (((QDSP6_RETAIN_RESTORE) & 0x10) >> 1) | ((0) << 1) ),
  ( (((QDSP6_CLAMP) & 0xF) << 4) | (((QDSP6_CLAMP) & 0x10) >> 1) | ((0) << 1) ),
  ( (((QDSP6_RESET) & 0xF) << 4) | (((QDSP6_RESET) & 0x10) >> 1) | ((0) << 1) ),
  ( (((QDSP6_PMI) & 0xF) << 4) | (((QDSP6_PMI) & 0x10) >> 1) | ((0) << 1) ),
  ( (((QDSP6_PMI) & 0xF) << 4) | (((QDSP6_PMI) & 0x10) >> 1) | ((0) << 1) ),
  (EVENT_0<<4)|(0xB),
  (EVENT_4<<4)|(0xB),
  ( (((QDSP6_CLOCK) & 0xF) << 4) | (((QDSP6_CLOCK) & 0x10) >> 1) | ((0) << 1) ),
  (0xF)
};
static uint8 spmCmdSeqBHS[] =
{
  ( (((QDSP6_CLOCK) & 0xF) << 4) | (((QDSP6_CLOCK) & 0x10) >> 1) | ((1) << 1) ),
  (EVENT_2<<4)|(0xB),
  ( (((QDSP6_CLAMP) & 0xF) << 4) | (((QDSP6_CLAMP) & 0x10) >> 1) | ((0) << 1) ),
  ( (((QDSP6_COPROC_BHS) & 0xF) << 4) | (((QDSP6_COPROC_BHS) & 0x10) >> 1) | ((0) << 1) ),
  ( (((QDSP6_CLAMP_WL) & 0xF) << 4) | (((QDSP6_CLAMP_WL) & 0x10) >> 1) | ((0) << 1) ),
  ( (((QDSP6_MEM_SRC_BIAS) & 0xF) << 4) | (((QDSP6_MEM_SRC_BIAS) & 0x10) >> 1) | ((0) << 1) ),
  ( (((QDSP6_MEM_RET_SLEEP) & 0xF) << 4) | (((QDSP6_MEM_RET_SLEEP) & 0x10) >> 1) | ((0) << 1) ),
  ( (((QDSP6_MEM_SLEEP) & 0xF) << 4) | (((QDSP6_MEM_SLEEP) & 0x10) >> 1) | ((0) << 1) ),
  ( (((QDSP6_QMC_MEM_CLAMP) & 0xF) << 4) | (((QDSP6_QMC_MEM_CLAMP) & 0x10) >> 1) | ((0) << 1) ),
  ( (((QDSP6_LDO_BYPASS) & 0xF) << 4) | (((QDSP6_LDO_BYPASS) & 0x10) >> 1) | ((0) << 1) ),
  ( (((QDSP6_BHS) & 0xF) << 4) | (((QDSP6_BHS) & 0x10) >> 1) | ((0) << 1) ),
  ( (((QDSP6_LDO) & 0xF) << 4) | (((QDSP6_LDO) & 0x10) >> 1) | ((0) << 1) ),
  ( (((QDSP6_SMMU_PD_VOTE) & 0xF) << 4) | (((QDSP6_SMMU_PD_VOTE) & 0x10) >> 1) | ((0) << 1) ),
  ( (((QDSP6_PLL_VOTE) & 0xF) << 4) | (((QDSP6_PLL_VOTE) & 0x10) >> 1) | ((0) << 1) ),
  (NO_RPM_HS<<2)|(0x3),
  ( (((QDSP6_RESET) & 0xF) << 4) | (((QDSP6_RESET) & 0x10) >> 1) | ((0) << 1) ),
  ( (((QDSP6_PLL_VOTE) & 0xF) << 4) | (((QDSP6_PLL_VOTE) & 0x10) >> 1) | ((0) << 1) ),
  ( (((QDSP6_SMMU_PD_VOTE) & 0xF) << 4) | (((QDSP6_SMMU_PD_VOTE) & 0x10) >> 1) | ((0) << 1) ),
  ( (((QDSP6_LDO) & 0xF) << 4) | (((QDSP6_LDO) & 0x10) >> 1) | ((0) << 1) ),
  ( (((QDSP6_BHS) & 0xF) << 4) | (((QDSP6_BHS) & 0x10) >> 1) | ((1) << 1) ),
  ( (((QDSP6_LDO_BYPASS) & 0xF) << 4) | (((QDSP6_LDO_BYPASS) & 0x10) >> 1) | ((0) << 1) ),
  ( (((QDSP6_QMC_MEM_CLAMP) & 0xF) << 4) | (((QDSP6_QMC_MEM_CLAMP) & 0x10) >> 1) | ((0) << 1) ),
  ( (((QDSP6_MEM_SLEEP) & 0xF) << 4) | (((QDSP6_MEM_SLEEP) & 0x10) >> 1) | ((1) << 1) ),
  ( (((QDSP6_MEM_RET_SLEEP) & 0xF) << 4) | (((QDSP6_MEM_RET_SLEEP) & 0x10) >> 1) | ((1) << 1) ),
  ( (((QDSP6_MEM_SRC_BIAS) & 0xF) << 4) | (((QDSP6_MEM_SRC_BIAS) & 0x10) >> 1) | ((0) << 1) ),
  ( (((QDSP6_CLAMP_WL) & 0xF) << 4) | (((QDSP6_CLAMP_WL) & 0x10) >> 1) | ((0) << 1) ),
  ( (((QDSP6_COPROC_BHS) & 0xF) << 4) | (((QDSP6_COPROC_BHS) & 0x10) >> 1) | ((1) << 1) ),
  ( (((QDSP6_CLAMP) & 0xF) << 4) | (((QDSP6_CLAMP) & 0x10) >> 1) | ((0) << 1) ),
  ( (((QDSP6_RESET) & 0xF) << 4) | (((QDSP6_RESET) & 0x10) >> 1) | ((0) << 1) ),
  (EVENT_0<<4)|(0xB),
  (EVENT_4<<4)|(0xB),
  ( (((QDSP6_CLOCK) & 0xF) << 4) | (((QDSP6_CLOCK) & 0x10) >> 1) | ((0) << 1) ),
  (0xF)
};
BSP_spm_CmdSequenceType devcfgSpmCmdSeqArray[][SPM_NUM_LOW_POWER_MODES] =
{
  {
    {
      SPM_MODE_APCR_PLL_ON,
      spmCmdSeqAPCRPLLOn,
      sizeof(spmCmdSeqAPCRPLLOn),
      12,
      -1
    },
    {
      SPM_MODE_APCR_PLL_LPM,
      spmCmdSeqAPCRPLLLPM,
      sizeof(spmCmdSeqAPCRPLLLPM),
      16,
      -1
    },
    {
      SPM_MODE_PWRC,
      spmCmdSeqBHS,
      sizeof(spmCmdSeqBHS),
      14,
      -1
    }
  }
};
