<!--
  This file contains LSM device configuration parsing information
  Copyright (c) 2009-2015 Qualcomm Technologies, Incorporated. All Rights Reserved.
  QUALCOMM Proprietary. Export of this technology or software is regulated
  by the U.S. Government, Diversion contrary to U.S. law prohibited.
 -->
<!-- NULL Driver does not require Dal Driver Interface APIs, since none of LSM devcfg uses DAL Device framework -->
<driver name="NULL">
   <device id="LSM">
      <props name="lsm_mmpm_prop_struct_ptr" type=DALPROP_ATTR_TYPE_STRUCT_PTR>lsm_mmpm_prop</props>
   </device>
</driver>
