<driver name="NULL">
  <device id="Busywait_QTimer">
        <props name="TIMER_BASE" type=DALPROP_ATTR_TYPE_UINT32>
          0x09000000
        </props>
       <props name="TIMER_OFFSET" type=DALPROP_ATTR_TYPE_UINT32>
          0x003A2000
        </props>
  </device>
</driver>
