#<SYMDEFS># ARM Linker, 5.01 [Build 94]: Last Updated: Wed May 25 22:17:14 2016
0x00000000 N __ARM_use_no_argv
0x00000009 T __main
0x00000011 T __rt_lib_init
0x00000013 T __rt_lib_init_fp_1
0x00000013 T __rt_lib_init_heap_2
0x0000001b T __rt_lib_init_alloca_1
0x0000001b T __rt_lib_init_argv_1
0x0000001b T __rt_lib_init_atexit_1
0x0000001b T __rt_lib_init_clock_1
0x0000001b T __rt_lib_init_cpp_1
0x0000001b T __rt_lib_init_exceptions_1
0x0000001b T __rt_lib_init_fp_trap_1
0x0000001b T __rt_lib_init_getenv_1
0x0000001b T __rt_lib_init_heap_1
0x0000001b T __rt_lib_init_lc_collate_1
0x0000001b T __rt_lib_init_lc_ctype_1
0x0000001b T __rt_lib_init_lc_monetary_1
0x0000001b T __rt_lib_init_lc_numeric_1
0x0000001b T __rt_lib_init_lc_time_1
0x0000001b T __rt_lib_init_rand_1
0x0000001b T __rt_lib_init_return
0x0000001b T __rt_lib_init_signal_1
0x0000001b T __rt_lib_init_stdio_1
0x0000001b T __rt_lib_init_user_alloc_1
0x0000001d T __rt_lib_shutdown
0x0000001f T __rt_lib_shutdown_cpp_1
0x00000025 T __rt_lib_shutdown_fp_trap_1
0x00000025 T __rt_lib_shutdown_heap_2
0x00000025 T __rt_lib_shutdown_signal_1
0x00000025 T __rt_lib_shutdown_stdio_1
0x00000025 T __rt_lib_shutdown_user_alloc_1
0x00000029 T __rt_lib_shutdown_heap_1
0x00000029 T __rt_lib_shutdown_return
0x0000002b T __rt_entry
0x0000002b T __rt_entry_presh_1
0x0000002b T __rt_entry_sh
0x00000031 T __rt_entry_li
0x00000031 T __rt_entry_postsh_1
0x00000035 T __rt_entry_main
0x00000035 T __rt_entry_postli_1
0x0000003d T __rt_exit
0x0000003f T __rt_exit_ls
0x0000003f T __rt_exit_prels_1
0x00000043 T __rt_exit_exit
0x00000049 T __user_setup_stackheap
0x00000061 T abort_isr
0x00000065 T tz_abort_isr
0x00000079 T apps_non_secure_wd_bite_abort_isr
0x00000089 T abort
0x00000131 T dog_bark_isr
0x00000135 T __asm___16_HALmpmPlatform_c_0ea4e44c__halt
0x00000155 T __asm___21_lpr_definition_uber_c_ebf0609d__halt
0x00000175 T Reset_Handler
0x00000175 T _maybe_terminate_alloc
0x0000017d T __semihosting$guard
0x0000017d T __use_no_semihosting_swi
0x0000017f T __use_no_semihosting
0x00000181 T malloc
0x00000195 T free
0x000001af T realloc
0x000001dd T calloc
0x00000205 T __aeabi_uldivmod
0x00000205 T _ll_udiv
0x000002f3 T __aeabi_llsl
0x000002f3 T _ll_shift_l
0x00000319 T __aeabi_ldivmod
0x00000319 T _ll_sdiv
0x00000361 T strchr
0x00000375 T memcmp
0x000003cd T strlen
0x0000040b T strncmp
0x000004a1 T __aeabi_memcpy
0x000004a1 T __rt_memcpy
0x00000507 T _memcpy_lastbytes
0x0000052b T memcpy
0x00000533 T __aeabi_memcpy4
0x00000533 T __aeabi_memcpy8
0x00000533 T __rt_memcpy_w
0x0000057b T _memcpy_lastbytes_aligned
0x00000597 T __aeabi_memset
0x000005a7 T __aeabi_memclr
0x000005a7 T __rt_memclr
0x000005ab T _memset
0x000005eb T __aeabi_memclr4
0x000005eb T __aeabi_memclr8
0x000005eb T __rt_memclr_w
0x000005ef T _memset_w
0x00000639 T strcmp
0x000006b9 T __rt_heap_descriptor
0x000006c1 T __rt_new_handler_addr
0x000006c9 T __rt_ddtor_pointer_addr
0x000006d1 T __use_no_heap
0x000006d3 T __heap$guard
0x000006d5 T _terminate_user_alloc
0x000006d7 T _init_user_alloc
0x000006d9 T __Heap_Full
0x000006fb T __Heap_Broken
0x00000701 T _init_alloc
0x0000075f T __rt_SIGPVFN
0x0000076d T _Z21__default_new_handlerv
0x00000771 T __sig_exit
0x0000077b T __rt_SIGRTMEM
0x00000789 T __rt_SIGPVFN_inner
0x000007b9 T __rt_heap_escrow
0x000007cd T __rt_heap_expand
0x00000805 T _ZSt9terminatev
0x0000081f T _terminate_alloc
0x0000082f T exit
0x0000083b T __default_signal_display
0x0000086d T __rt_SIGRTMEM_inner
0x000008bd T __ARM_vec_cleanup
0x000008dd T __cxa_get_globals
0x00000929 T __cxa_rethrow
0x0000092d T __rt_eh_globals_addr
0x00000935 T __ARM_exceptions_buffer_init
0x00000947 T __ARM_exceptions_buffer_allocate
0x0000095d T __ARM_exceptions_buffer_free
0x00000971 T ddr_target_init
0x000009a1 T Chipinfo_GetFamily
0x000009f1 T Chipinfo_GetVersion
0x00000a05 T Clock_BIMCIsRestoreDone
0x00000aed T Clock_BIMCRestore
0x00000b8d T Clock_BIMCRestoring
0x00000d69 T Clock_BIMCSetFrequency
0x00000dcd T Clock_BIMCSwitchFrequency
0x00001009 T Clock_BIMCSwitchFrequency_vddmin
0x00001239 T Clock_ConfigSource
0x00001261 T Clock_DalDebugInit
0x0000151d T Clock_DisableClock
0x00001611 T Clock_DisablePowerDomain
0x00001691 T Clock_DisableSource
0x000017d5 T Clock_DriverInit
0x00001829 T Clock_EnableClock
0x00001831 T Clock_EnableClockEx
0x00001939 T Clock_EnablePowerDomain
0x000019a9 T Clock_EnableSource
0x00001acd T Clock_GetClockFrequency
0x00001b49 T Clock_GetClockId
0x00001b9d T Clock_GetDrvCtxt
0x00001ba9 T Clock_GetNPAResources
0x00001bb1 T Clock_GetPowerDomainId
0x00001c05 T Clock_GetPropertyValue
0x00001c2d T Clock_Init
0x00001c3d T Clock_InitCore
0x00001f99 T Clock_InitImage
0x000026e5 T Clock_InitNPA
0x000027cd T Clock_InitSources
0x000028e9 T Clock_InitVoltage
0x00002949 T Clock_IsBSPSupported
0x000029b5 T Clock_IsClockEnabled
0x000029d9 T Clock_IsClockOn
0x000029fd T Clock_IsPowerDomainEnabled
0x00002a09 T Clock_IsQDSSOn
0x00002a1d T Clock_LogState
0x00003125 T Clock_ProcessorRestore
0x000032e1 T Clock_ProcessorSleep
0x000034d5 T Clock_RegisterCallback
0x00003541 T Clock_SetBIMCPowerCollapse
0x00003565 T Clock_SetBIMCPowerRestore
0x00003595 T Clock_SetClockConfig
0x0000371d T Clock_SetClockConfigEx
0x00003749 T Clock_SetClockSpeed
0x000037c3 T Clock_SetQDSSClocks
0x000039a9 T Clock_VoltageRequest
0x00003a75 T Clock_VoltageResume
0x00003abd T Clock_VoltageSuspend
0x00003b01 T Clock_WaitForBIMCPowerCollapse
0x00003ba5 T Clock_WaitForBIMCPowerRestore
0x00003bc5 T Clock_WaitForClockOn
0x00003c15 T Core_DALSYSAllocatorFcn
0x00003c19 T Core_PoolAlloc
0x00003cb9 T Core_PoolConfig
0x00003d15 T Core_PoolCreate
0x00003d59 T Core_PoolFree
0x00003d7b T Core_PoolInit
0x00003e03 T Core_PoolSetAllocationSize
0x00003e1b T Core_WorkElementProcess
0x00003e63 T Core_WorkQueueAlloc
0x00003e8d T Core_WorkQueueCreate
0x00003f2d T Core_WorkQueueFree
0x00003f4d T Core_WorkQueueGet
0x00003fa9 T Core_WorkQueueLength
0x00003fb7 T Core_WorkQueuePut
0x00003ff5 T DALSYS_BusyWait
0x00003ff9 T DALSYS_GetDALPropertyHandle
0x00004041 T DALSYS_GetDALPropertyHandleStr
0x00004071 T DALSYS_GetPropertyValue
0x00004271 T DALSYS_LogEvent
0x00004275 T DAL_StringDeviceObjectLookup
0x0000439d T DDR_SYNC_INIT
0x000043a9 T DDR_SYNC_LOCK
0x000043ad T DDR_SYNC_UNLOCK
0x000043b1 T DalHWIO_MapRegion
0x00004409 T DalIPCInt_Trigger
0x0000445b T DalInterruptController_RegisterISR
0x00004461 T ETM_restore_state
0x000044d1 T ETM_save_state
0x000044d5 T ETM_trace_disable
0x00004525 T ETM_trace_enable
0x00004599 T HAL_DDR_Enter_Self_Refresh
0x000045a5 T HAL_DDR_Exit_Self_Refresh
0x000045b1 T HAL_bimc_ArbitrationEnable
0x000045c1 T HAL_bimc_Init
0x000045cb T HAL_bimc_SetDangerBandwidth
0x000045e3 T HAL_bimc_SetDangerMode
0x000045f5 T HAL_bimc_SetDangerPolicy
0x00004607 T HAL_bimc_SetDangerPriority
0x0000461f T HAL_bimc_SetQosBandwidth
0x00004635 T HAL_bimc_SetQosMode
0x00004645 T HAL_bimc_SetQosPriority
0x00004885 T HAL_clk_BIMCGetMiscInfo
0x0000489d T HAL_clk_BIMCSetMiscInfo
0x00004931 T HAL_clk_BrammoPLLConfigPLL
0x00004ac1 T HAL_clk_BrammoPLLDetectPLLConfig
0x00004afd T HAL_clk_BrammoPLLDisable
0x00004b1b T HAL_clk_BrammoPLLDisableVote
0x00004b2d T HAL_clk_BrammoPLLEnable
0x00004bb5 T HAL_clk_BrammoPLLEnableVote
0x00004be1 T HAL_clk_BrammoPLLIsEnabled
0x00004bf5 T HAL_clk_BrammoPLLIsVoteEnabled
0x00004c05 T HAL_clk_BusyWait
0x00004c19 T HAL_clk_ConfigClockMux
0x00004c2d T HAL_clk_ConfigPLL
0x00004c51 T HAL_clk_DetectClockMuxConfig
0x00004c71 T HAL_clk_DetectPLLConfig
0x00004c99 T HAL_clk_DisableClock
0x00004cad T HAL_clk_DisablePowerDomain
0x00004cc1 T HAL_clk_DisableSource
0x00004ce5 T HAL_clk_DisableSourceVote
0x00004d09 T HAL_clk_EnableClock
0x00004d1d T HAL_clk_EnablePowerDomain
0x00004d31 T HAL_clk_EnableSource
0x00004d55 T HAL_clk_EnableSourceVote
0x00004d79 T HAL_clk_GPLL0_FSM_reset_deep_sleep
0x00004df1 T HAL_clk_GPLL0_disable_deep_sleep
0x00004e31 T HAL_clk_GenericConfigDivider
0x00004e55 T HAL_clk_GenericConfigFootswitch
0x00004e95 T HAL_clk_GenericConfigMux
0x00004f51 T HAL_clk_GenericDetectDivider
0x00004f69 T HAL_clk_GenericDetectMuxConfig
0x00004fc5 T HAL_clk_GenericDisable
0x00004fe3 T HAL_clk_GenericEnable
0x00004fff T HAL_clk_GenericIsEnabled
0x00005021 T HAL_clk_GenericIsOn
0x00005037 T HAL_clk_GenericPowerDomainDisable
0x00005049 T HAL_clk_GenericPowerDomainEnable
0x00005069 T HAL_clk_GenericPowerDomainIsEnabled
0x0000507f T HAL_clk_GenericReset
0x00005099 T HAL_clk_GenericSourceMapToHW
0x000050b5 T HAL_clk_GetChipFamily
0x000050c1 T HAL_clk_GetChipVersion
0x000050cd T HAL_clk_GetClockName
0x000050d9 T HAL_clk_GetDEHRStatus
0x000050e9 T HAL_clk_GetNextClockDomain
0x000050fd T HAL_clk_GetNextClockInDomain
0x00005119 T HAL_clk_GetNextPowerDomain
0x0000512d T HAL_clk_GetNumberOfClockDomains
0x00005139 T HAL_clk_GetNumberOfClocks
0x00005145 T HAL_clk_GetNumberOfPowerDomains
0x00005151 T HAL_clk_GetPowerDomainName
0x0000515b T HAL_clk_GetTestClockId
0x00005165 T HAL_clk_IPAGating
0x000051cd T HAL_clk_Init
0x00005211 T HAL_clk_InstallClockDomains
0x000052a1 T HAL_clk_InstallPLL
0x000052cd T HAL_clk_InstallPowerDomains
0x00005311 T HAL_clk_InstallSource
0x00005331 T HAL_clk_IsClockEnabled
0x00005345 T HAL_clk_IsClockOn
0x00005359 T HAL_clk_IsClockSupported
0x000053dd T HAL_clk_IsDEHREnable
0x000053ed T HAL_clk_IsPowerDomainEnabled
0x00005401 T HAL_clk_IsSourceEnabled
0x00005425 T HAL_clk_PlatformInitGCCMain
0x00005449 T HAL_clk_PlatformInitSources
0x000054a1 T HAL_clk_SparkPLLConfig
0x00005525 T HAL_clk_SparkPLLConfigPLL
0x000056ef T HAL_clk_SparkPLLDisableVote
0x00005701 T HAL_clk_SparkPLLEnable
0x00005765 T HAL_clk_SparkPLLEnableVote
0x00005791 T HAL_clk_SparkPLLIsEnabled
0x000057a5 T HAL_clk_SparkPLLIsVoteEnabled
0x000057b5 T HAL_mpm_CfgCXOSleep
0x000057e1 T HAL_mpm_CfgFreezeIOs
0x000057ed T HAL_mpm_CfgVoltageCommands
0x000058d9 T HAL_mpm_CfgVoltageRailSleep
0x00005945 T HAL_mpm_CfgWbootEbiIOCntl
0x00005965 T HAL_mpm_ClearSleepModes
0x0000598d T HAL_mpm_ConfigDebugBus
0x000059c5 T HAL_mpm_ConfigDebugBus_1
0x000059fd T HAL_mpm_ConfigPenDebounceDelay
0x00005a15 T HAL_mpm_DebugThroughPC
0x00005a39 T HAL_mpm_EnableCXO
0x00005a49 T HAL_mpm_GetDeepSleepEnterLatency
0x00005abd T HAL_mpm_GetDeepSleepExitLatency
0x00005b55 T HAL_mpm_GetWakeupInts
0x00005b69 T HAL_mpm_Init
0x00005bc5 T HAL_mpm_Init_Xtal_Latency
0x00005c0d T HAL_mpm_PenDebounceCtl
0x00005c31 T HAL_mpm_PlatformInitEarly
0x00005cb5 T HAL_mpm_SWDone
0x00005f0d T HAL_mpm_SetCXOWarmup
0x00005f1d T HAL_mpm_true_sleep_xtal_set
0x00005f2d T HAL_mpmint_All_Clear
0x00005f4d T HAL_mpmint_Disable
0x00005fa9 T HAL_mpmint_Enable
0x00006009 T HAL_mpmint_GetEnumNumber
0x00006015 T HAL_mpmint_GetIndex
0x00006045 T HAL_mpmint_GetNumberMasks
0x0000604d T HAL_mpmint_Init
0x00006169 T HAL_mpmint_IsGpio
0x00006185 T HAL_mpmint_SetTrigger
0x0000622d T HAL_noc_Init
0x00006237 T HAL_noc_SetQosBandwidth
0x0000624d T HAL_noc_SetQosMode
0x0000625d T HAL_noc_SetQosPriority
0x00006275 T Hal_clk_DumpBIMCReg
0x0000630d T PmicArb_ExecuteCommand
0x000065d9 T PmicArb_FindChannel
0x00006611 T PmicArb_GetHwStatus
0x00006639 T PmicArb_GetMaxChannelSupport
0x00006641 T PmicArb_HasInterruptSupport
0x0000664d T PmicArb_Init
0x00006705 T PmicArb_SetInterruptEnabled
0x0000674d T PrngCL_DAL_Clock_Disable
0x00006775 T PrngCL_DAL_Clock_Enable
0x000067b9 T PrngCL_deinit
0x000067bd T PrngCL_getdata
0x0000683d T PrngCL_init
0x00006865 T PrngELMutexEnter
0x00006867 T PrngELMutexExit
0x00006869 T PrngEL_ClkDisable
0x0000686d T PrngEL_ClkEnable
0x00006871 T PrngML_getdata
0x000068c9 T QDSSAllocPort
0x00006919 T QDSSDDRTraceDisable
0x000069f9 T QDSSDDRTraceEnable
0x00006af1 T QDSSDisableTrace
0x00006b1d T QDSSETMControl
0x00006b69 T QDSSEnableTrace
0x00006b8d T QDSSInit
0x00006e55 T QDSSPostXOShutdown
0x00006e81 T QDSSPreXOShutdown
0x00006fed T QDSSSTMSetTimestampFreq
0x00007145 T QDSSWriteOSTPacket
0x000071d1 T RBCPRTaskISR
0x00007201 T RBCPRTaskInit
0x0000722d T SWEVENT_log
0x0000730d T SpmiBus_Init
0x00007379 T SpmiBus_ReadLong
0x00007399 T SpmiBus_RegisterIsr
0x00007449 T SpmiBus_WriteLong
0x00007469 T SpmiHal_Init
0x00007481 T SpmiOsNhlos_GetDalProp
0x000074c5 T SpmiOs_GetAhbClkState
0x00007519 T SpmiOs_GetOwnerId
0x00007571 T SpmiOs_GetPmicArbBaseAddr
0x00007591 T SpmiOs_GetSerialClkState
0x000075e5 T SpmiOs_GetTimeTick
0x00007601 T SpmiOs_Malloc
0x0000761d T SpmiOs_RegisterISR
0x00007691 T SpmiOs_Wait
0x00007695 T ULogFront_RealTimeInit
0x0000769d T ULogFront_RealTimePrintf
0x00007719 T _Z11theSchedulev
0x00007769 T _Z12theEstimatorv
0x0000779d T _Z13resource_initP12ResourceDatajj
0x00007b49 T _Z15rpm_init_shadowjj
0x00007ce5 T _Z15system_db_addopPm
0x00007d81 T _Z16system_db_smd_cbjPvjS_
0x00007e15 T _Z16theEstimateCachev
0x00007f3d T _Z18settling_timer_isrv
0x000081c5 T _Z19resource_ee_requestP12ResourceDataj12rpm_set_typeP5kvp_sRy
0x000083ad T _Z20resource_get_requestPK12ResourceDatajPjPPKv
0x00008415 T _Z20resource_num_clientsPK12ResourceData
0x00008475 T _Z20system_db_perform_opP22SYSTEMDB_OP_QUEUE_ELEM
0x00008709 T _Z22do_resource_ee_requestP12ResourceDataj12rpm_set_typeP5kvp_sRy
0x00008a55 T _Z22resource_create_clientP12ResourceDataj
0x00008ad1 T _Z22resource_ee_transitionP12ResourceDataj19rpm_transition_type
0x00008b55 T _Z22rpm_query_npa_settlingP20rpm_application_info
0x00008c11 T _Z22rpm_test_resource_initv
0x00008c39 T _Z23resource_client_requestP12ResourceDatajjPvy
0x00008e15 T _Z25do_resource_ee_transitionP12ResourceDataj19rpm_transition_type
0x00009021 T _Z25theEstimateCacheImmediatev
0x00009081 T _Z26resource_ee_has_apply_workPK12ResourceDataPKvS3_
0x000090b9 T _Z26resource_ee_settling_applyP12ResourceDatajy
0x000090e5 T _Z26resource_ee_settling_queryP12ResourceDataj
0x00009125 T _Z26rpmserver_register_handler16rpm_service_typePFvjPvjS0_ES0_
0x00009165 T _Z30resource_class_add_client_typeP17ResourceClassDatajj
0x0000919d T _Z31resource_ee_has_transition_workP12ResourceDataj19rpm_transition_type
0x000091d5 T _Z32resource_lookup_and_alloc_clientP12ResourceDataj
0x00009225 T _ZN10NPAMappingC1Ev
0x00009225 T _ZN10NPAMappingC2Ev
0x00009259 T _ZN10SetChanger13execute_untilERVby
0x000099f9 T _ZN10SetChanger16estimateResourceEP12ResourceData
0x00009b15 T _ZN10SetChanger16get_length_givenEjRj
0x00009b71 T _ZN10SetChanger21execute_resource_listEP17TransitionContextPj
0x00009c75 T _ZN10SetChanger31set_last_transitioning_resourceEP12ResourceData
0x00009c89 T _ZN10SetChanger7enqueueE12rpm_set_typey
0x00009d85 T _ZN10SetChangerC1EjP7Handlerh
0x00009d85 T _ZN10SetChangerC2EjP7Handlerh
0x00009e11 T _ZN12suppressible10reestimateEv
0x00009e13 T _ZN12suppressible13execute_untilERVby
0x00009ecd T _ZN12suppressible16get_length_givenEjRj
0x00009ed5 T _ZN13EstimateCache6lookupEjjPjS0_
0x00009f55 T _ZN13EstimateCache7observeEjjjjb
0x0000a0c5 T _ZN4Task10reestimateEv
0x0000a0c7 T _ZN4Task11schedule_meE12ScheduleType
0x0000a0dd T _ZN4Task14clear_deadlineEv
0x0000a11f T _ZN4Task16get_length_givenEjRj
0x0000a129 T _ZN4Task7executeERVby
0x0000a1b9 T _ZN4TaskC2Ehh
0x0000a1f1 T _ZN5Sched13schedule_taskER4Task12ScheduleType
0x0000a2fd T _ZN5Sched14fixup_scheduleER4TaskS1_j
0x0000a371 T _ZN5Sched16cpu_speed_changeEj
0x0000a3ed T _ZN5Sched17get_next_durationEj
0x0000a4a9 T _ZN5Sched3runEv
0x0000a6a1 T _ZN5Sched7preemptEv
0x0000a6a9 T _ZN5SchedD1Ev
0x0000a6a9 T _ZN5SchedD2Ev
0x0000a6b9 T _ZN7Handler10processNASERVbRy
0x0000a7c9 T _ZN7Handler11loadMessageEv
0x0000a979 T _ZN7Handler13execute_untilERVby
0x0000ac5d T _ZN7Handler13writeResponseEjPKc16rpm_service_type
0x0000ad01 T _ZN7Handler14processMessageERVbRyP16RPMMessageHeaderb
0x0000aead T _ZN7Handler4initEv
0x0000aefd T _ZN7HandlerC1Ejjh
0x0000aefd T _ZN7HandlerC2Ejjh
0x0000af8d T _ZN8TaskHeap10deleteTaskEP4Task
0x0000afc5 T _ZN8TaskHeap15recalculateWorkEv
0x0000b039 T _ZN8TaskHeap6insertEP4Task
0x0000b15d T _ZN8TaskHeap7findMinEPP4Task
0x0000b171 T _ZN8TaskHeap9deleteIdxEj
0x0000b2a5 T _ZN8TaskHeap9deleteMinEv
0x0000b2b3 T _ZN8TaskHeapC1Ej
0x0000b2b3 T _ZN8TaskHeapC2Ej
0x0000b2d3 T _ZN8TaskList6insertER4TaskS1_
0x0000b2fd T _ZN8TaskList6removeER4Task
0x0000b33b T _ZN8TaskList9pop_frontEv
0x0000b34f T _ZN8TaskList9push_backER4Task
0x0000b365 T _ZN9Estimator15updateClockRateEj
0x0000b3a5 T _ZN9RBCPRTask10reestimateEv
0x0000b3a7 T _ZN9RBCPRTask13execute_untilERVby
0x0000b423 T _ZN9RBCPRTask16get_length_givenEjRj
0x0000b42d T _ZNK10SetChanger10get_lengthEv
0x0000b435 T _ZNK10SetChanger16hasImmediateWorkEv
0x0000b475 T _ZNK12suppressible10get_lengthEv
0x0000b47d T _ZNK12suppressible16hasImmediateWorkEv
0x0000b4cd T _ZNK7Handler10get_lengthEv
0x0000b56d T _ZNK7Handler16hasImmediateWorkEv
0x0000b57b T _ZNK9RBCPRTask10get_lengthEv
0x0000b581 T _ZNK9RBCPRTask16hasImmediateWorkEv
0x0000b58d T _ZdaPv
0x0000b595 T _ZdlPv
0x0000b59d T _Znaj
0x0000b5a5 T _Znwj
0x0000b5cd T __ARM_array_new_general
0x0000b65f T __ARM_common_memset4_4
0x0000b66d T __Heap_Alloc
0x0000b6cd T __Heap_DescSize
0x0000b6d1 T __Heap_Finalize
0x0000b6d5 T __Heap_Free
0x0000b6ed T __Heap_Initialize
0x0000b749 T __Heap_ProvideMemory
0x0000b74d T __Heap_Realloc
0x0000b7c9 T __aeabi_atexit
0x0000b7f9 T __aeabi_vec_new_nocookie
0x0000b811 T __cxa_finalize
0x0000b853 T __cxa_guard_acquire
0x0000b863 T __cxa_pure_virtual
0x0000b869 T __cxa_vec_new
0x0000b881 T __init_stack_chk_guard
0x0000b8a5 T __stack_chk_fail
0x0000b8a9 T _sys_exit
0x0000b8ad T _ttywrch
0x0000b8b1 T acc_init
0x0000b9c5 T apps_non_sec_wd_bite_abort_sw_event
0x0000ba95 T bimc_ArbitrationEnable
0x0000bad5 T bimc_CalculateBKEParams
0x0000bbf5 T bimc_Init
0x0000bc25 T bimc_SetDangerBandwidth
0x0000bd69 T bimc_SetDangerMode
0x0000bdb9 T bimc_SetDangerPolicy
0x0000be11 T bimc_SetDangerPriority
0x0000bf11 T bimc_SetQosBandwidth
0x0000bffb T bimc_SetQosMode
0x0000c039 T bimc_SetQosPriority
0x0000c161 T busywait
0x0000c195 T busywait_init
0x0000c1d5 T bytearray_at
0x0000c1e3 T bytearray_clear
0x0000c1e9 T bytearray_create
0x0000c21b T bytearray_destroy
0x0000c237 T bytearray_frombuffer
0x0000c259 T bytearray_put
0x0000c2bb T bytearray_size
0x0000c2bf T bytearray_swapbuffer
0x0000c325 T cpr_controller_init
0x0000c365 T cpr_get_mode_idx_0
0x0000c3cd T cpr_get_rail
0x0000c421 T cpr_get_rail_idx
0x0000c46d T cpr_get_supported_modes
0x0000c491 T cpr_get_versioned_voltage_plan
0x0000c4e5 T cpr_get_voltage
0x0000c505 T cpr_hal_ack_result
0x0000c519 T cpr_hal_bypass_sensors
0x0000c579 T cpr_hal_clear_interrupts
0x0000c591 T cpr_hal_configure_controller
0x0000c5e5 T cpr_hal_disable_rail
0x0000c639 T cpr_hal_enable_down_interrupt
0x0000c653 T cpr_hal_enable_rail
0x0000c6e9 T cpr_hal_enable_up_interrupt
0x0000c703 T cpr_hal_get_results
0x0000c785 T cpr_hal_mask_sensors
0x0000c7e5 T cpr_hal_mode_change_temp_adj
0x0000c851 T cpr_hal_set_targets
0x0000c8c1 T cpr_image_can_resume_control
0x0000c8c5 T cpr_image_close_remote_cfg
0x0000c931 T cpr_image_enable_clock
0x0000c933 T cpr_image_get_chip_version
0x0000c937 T cpr_image_get_foundry
0x0000c93b T cpr_image_malloc
0x0000c94f T cpr_image_memscpy
0x0000c95b T cpr_image_open_remote_cfg
0x0000c985 T cpr_image_rail_transition_voltage
0x0000c995 T cpr_image_register_isr
0x0000ca21 T cpr_image_register_thermal_cb
0x0000ca49 T cpr_image_set_rail_mode_voltage
0x0000caa5 T cpr_image_target_close_remote_cfg
0x0000caab T cpr_image_target_open_remote_cfg
0x0000cac3 T cpr_image_wait
0x0000cac9 T cpr_init
0x0000cb95 T cpr_isr_get_interrupt
0x0000cbb1 T cpr_isr_process
0x0000cbc1 T cpr_measurements_thermal_update
0x0000cc49 T cpr_post_state_switch
0x0000cca9 T cpr_pre_state_switch
0x0000cced T cpr_rail_disable
0x0000cd21 T cpr_rail_enable
0x0000ce5d T cpr_rail_init
0x0000d10d T cpr_rail_isr
0x0000d185 T cpr_rail_process_results
0x0000d265 T cpr_rail_register_isr
0x0000d279 T cpr_rail_update_target_quotients
0x0000d3a1 T cpr_resource_apply
0x0000d3b1 T cpr_resource_xlate
0x0000d3fd T cpr_smem_deserialize_config
0x0000d471 T cpr_utils_decode_fuse_value
0x0000d51d T cpr_utils_get_global_fuse_rev
0x0000d529 T cpr_utils_get_margins
0x0000d56d T cpr_utils_get_mode_settings
0x0000d6b9 T cpr_utils_set_active_mode_setting
0x0000d6ed T cpu_current_speed
0x0000d6f9 T cpu_get_freq
0x0000d705 T cpu_get_switch_time
0x0000d711 T cpu_init
0x0000d875 T cpu_rpm_clock_restore_from_xo
0x0000d891 T cpu_rpm_clock_xo
0x0000d94d T cpu_update_idle
0x0000da95 T cpu_update_speed
0x0000dbbd T ddr_enter_power_collapse
0x0000dbd9 T ddr_enter_self_refresh_all
0x0000dc69 T ddr_exit_power_collapse
0x0000dc85 T ddr_exit_self_refresh_all
0x0000dce5 T ddr_get_params
0x0000dcf9 T ddr_get_status
0x0000dd21 T ddr_init
0x0000dd6d T ddr_init_smps_mode
0x0000dd81 T ddr_post_clock_switch
0x0000ddbd T ddr_post_xo_shutdown
0x0000ddd1 T ddr_pre_clock_switch
0x0000de11 T ddr_pre_xo_shutdown
0x0000de21 T ddr_store_status_regs_error_fatal
0x0000e095 T debug_cookie_init
0x0000e0a9 T deep_sleep_enter
0x0000e2c1 T deep_sleep_exit
0x0000e5c9 T dog_enable
0x0000e5d9 T dog_init
0x0000e645 T dog_kick
0x0000e6c5 T dog_set_bark_time
0x0000e6ef T dog_set_bite_time
0x0000e779 T err_fatal_sw_event
0x0000e78d T exceptions_enable
0x0000e7b5 T exceptions_init
0x0000e929 T get_free_heap_space
0x0000e98d T gpio_test_high
0x0000e98f T gpio_test_low
0x0000ea0d T gpio_toggle_init
0x0000ea35 T gpio_toggle_xlate
0x0000eabd T icb_clock_request
0x0000eafd T icb_dsat_callback
0x0000eb59 T icb_dsat_init
0x0000ec49 T icb_get_target_resources
0x0000ec85 T icb_init
0x0000ed55 T icb_init_cb
0x0000ede1 T icb_master_latency_apply_cb
0x0000eedd T icb_master_latency_init
0x0000ef69 T icb_master_latency_translate_cb
0x0000f009 T icb_master_latency_update_bw
0x0000f07d T icb_masters_apply_cb
0x0000f2c5 T icb_masters_init
0x0000f4a1 T icb_masters_translate_cb
0x0000f545 T icb_slaves_apply_cb
0x0000f695 T icb_slaves_init
0x0000f735 T icb_slaves_translate_cb
0x0000f7e1 T icb_spdm_req_apply_cb
0x0000f8b1 T icb_spdm_req_init
0x0000f94d T icb_spdm_req_translate_cb
0x0000f9b5 T image_version_populate_version
0x0000fba9 T interrupt_configure
0x0000fc35 T interrupt_set_isr
0x0000fc45 T interrupt_soft_trigger
0x0000fc59 T is_any_interrupt_pending
0x0000fc9f T kvp_clear
0x0000fcaf T kvp_create
0x0000fcd3 T kvp_destroy
0x0000fce7 T kvp_eof
0x0000fcfd T kvp_frombuffer
0x0000fd25 T kvp_get
0x0000fdab T kvp_get_raw_bytes
0x0000fdb3 T kvp_get_raw_size
0x0000fdb9 T kvp_put
0x0000fe15 T kvp_reset
0x0000fe1b T kvp_swapbuffer
0x0000ff1d T lock_ints
0x0000ff3d T lookupDirConn
0x0000ffed T main
0x00010165 T master_latency_update
0x0001023d T memscpy
0x00010259 T message_ram_init_rail_info
0x000102b1 T message_ram_malloc
0x00010339 T message_ram_master_stats
0x0001034d T message_ram_update_clk_axi
0x00010365 T message_ram_update_master_xo_stats
0x000103d9 T message_ram_update_rail_info
0x00010401 T message_ram_vmpm
0x00010415 T message_ram_vmpm_isMBADone
0x0001042d T mpm_config_freeze_ios
0x00010431 T mpm_deep_sleep_enter_latency
0x0001043b T mpm_deep_sleep_exit_latency
0x00010445 T mpm_init
0x00010455 T mpm_init_xtal
0x00010459 T mpm_set_vmin_voltages
0x00010475 T mpm_setup_chip_sleep
0x00010495 T mpm_sw_done
0x00010499 T mpm_teardown_sleep
0x00010551 T noc_Init
0x00010591 T noc_SetQosBandwidth
0x00010869 T noc_SetQosMode
0x000108bf T noc_SetQosPriority
0x00010925 T notify_apss
0x00010931 T npa_assign_resource_state
0x00010b59 T npa_complete_request
0x00010b65 T npa_create_bimc_client
0x00010bbd T npa_create_query_handle
0x00010bc9 T npa_create_sync_client_ex
0x00010ccd T npa_define_node_cb
0x000111d9 T npa_identity_update_fcn
0x00011229 T npa_init
0x0001130d T npa_issue_internal_request
0x00011319 T npa_issue_limit_max_request
0x000113b3 T npa_issue_scalar_request
0x000115cd T npa_max_update_fcn
0x00011731 T npa_no_client_update_fcn
0x00011735 T npa_num_pending_events
0x00011745 T npa_process_event
0x00011755 T npa_query
0x000117dd T npa_query_by_client
0x000117e9 T npa_resource_available_cb
0x000118c1 T npa_resources_available_cb
0x000118fd T npa_resources_available_continuation
0x00011995 T npa_target_config
0x0001199d T npa_target_init
0x00011a59 T pm_app_rpm_ldo_hr_config
0x00011ab9 T pm_clk_driver_init
0x00011b9d T pm_clk_get_data
0x00011bb1 T pm_clk_get_num_peripherals
0x00011bcd T pm_clk_pin_ctrled
0x00011c55 T pm_clk_sleep_src_status
0x00011cd5 T pm_clk_sw_enable
0x00011d5d T pm_clk_xo_set_warmup_time
0x00011dd9 T pm_comm_channel_init_internal
0x00011df5 T pm_comm_get_comm_info
0x00011e15 T pm_comm_info_init
0x00011e6d T pm_comm_read_byte
0x00011ea5 T pm_comm_read_byte_array
0x00011ed9 T pm_comm_register_isr
0x00011f09 T pm_comm_write_byte
0x00011f35 T pm_comm_write_byte_array
0x00011f5d T pm_comm_write_byte_mask
0x00011fc5 T pm_convert_time_to_timetick
0x00011fed T pm_convert_timetick_to_time
0x00012015 T pm_droop_detect_irq_config
0x0001206d T pm_droop_detect_irq_enable
0x000120ed T pm_get_num_slaves_per_pmic
0x000120f1 T pm_get_pmic_info
0x00012125 T pm_get_pmic_model
0x0001214d T pm_get_slave_id
0x00012179 T pm_init
0x000121f5 T pm_ldo_calculate_vset
0x00012229 T pm_ldo_driver_init
0x0001247d T pm_ldo_get_data
0x00012491 T pm_ldo_get_num_peripherals
0x000125c1 T pm_ldo_sw_mode
0x00012811 T pm_ldo_sw_mode_status_raw
0x00012833 T pm_malloc
0x00012851 T pm_mpm_cmd_config
0x000128dd T pm_mpm_cmd_init
0x00012a81 T pm_mpm_target_cmd_config
0x00012a85 T pm_pon_driver_init
0x00012ab1 T pm_post_init
0x00012ab3 T pm_pwr_irq_clear_alg
0x00012b4b T pm_pwr_irq_enable_alg
0x00012be7 T pm_pwr_irq_register_isr_alg
0x00012c75 T pm_pwr_irq_set_trigger_alg
0x00012d7b T pm_pwr_is_vreg_ready_alg
0x00012e39 T pm_pwr_pin_ctrl_alg
0x00012ec9 T pm_pwr_pin_ctrl_mode_alg
0x00012f61 T pm_pwr_status_reg_dump_alg
0x00012fc9 T pm_pwr_sw_enable_alg
0x00013079 T pm_pwr_sw_enable_status_alg
0x000130f7 T pm_pwr_sw_mode_status_alg
0x000131dd T pm_pwr_sw_mode_status_raw_alg
0x0001325b T pm_pwr_volt_calculate_vset_celing_uv
0x000132e3 T pm_pwr_volt_get_vstep
0x0001335d T pm_pwr_volt_level_alg
0x00013495 T pm_pwr_volt_level_status_alg
0x0001358d T pm_resource_manager_init
0x00013641 T pm_rpm_calculate_vset
0x0001368d T pm_rpm_check_vreg_settle_status
0x000137b1 T pm_rpm_clk_buffer_aggregate
0x00013875 T pm_rpm_clk_buffer_apply
0x000139c9 T pm_rpm_clk_buffer_register_resource_dependencies
0x00013a5d T pm_rpm_clk_buffer_register_resources
0x00013af5 T pm_rpm_clk_buffer_translation
0x00013b8d T pm_rpm_enter_sleep
0x00013c5d T pm_rpm_exit_sleep
0x00013ce5 T pm_rpm_int_copy
0x00013d0d T pm_rpm_is_periph_unified_reg
0x00013d71 T pm_rpm_ldo_aggregate
0x00013ff1 T pm_rpm_ldo_apply
0x00014251 T pm_rpm_ldo_bypass_cb
0x000142f1 T pm_rpm_ldo_dependency_execute
0x0001441f T pm_rpm_ldo_execute_driver
0x000146e1 T pm_rpm_ldo_register_resource_dependencies
0x000148d1 T pm_rpm_ldo_register_resources
0x00014acd T pm_rpm_ldo_settle
0x00014b75 T pm_rpm_ldo_translation
0x00014cb9 T pm_rpm_npa_resource_set
0x00014d55 T pm_rpm_platform_init
0x00014d59 T pm_rpm_proc_npa_init
0x00014eed T pm_rpm_proc_npa_register_resources
0x00014ef1 T pm_rpm_register_resources
0x00014f99 T pm_rpm_sleep_init
0x00014fc1 T pm_rpm_smps_aggregate
0x00015379 T pm_rpm_smps_apply
0x00015601 T pm_rpm_smps_check_ldo_bypass
0x0001569d T pm_rpm_smps_dependency_execute
0x000157c5 T pm_rpm_smps_execute_driver
0x00015b69 T pm_rpm_smps_register_resource_dependencies
0x00015d29 T pm_rpm_smps_register_resources
0x00015f05 T pm_rpm_smps_settle
0x00015fad T pm_rpm_smps_translation
0x000161dd T pm_rpm_sw_mode_status_raw
0x0001622d T pm_rpm_target_execute_smps_pre_enable
0x00016245 T pm_rtc_driver_init
0x0001627d T pm_smps_calculate_vset
0x000162b1 T pm_smps_driver_init
0x000165d9 T pm_smps_get_data
0x000165ed T pm_smps_get_num_peripherals
0x00016609 T pm_smps_ocp_enable
0x000166b5 T pm_smps_quiet_mode_mask
0x00016765 T pm_smps_sw_mode
0x00016835 T pm_smps_sw_mode_status_raw
0x00016857 T pm_smps_switching_freq
0x00016935 T pm_target_information_get_common_info
0x00016959 T pm_target_information_get_periph_count_info
0x00016985 T pm_target_information_get_specific_info
0x000169a9 T pm_target_information_init
0x000169f1 T pm_target_information_read_peripheral_rev
0x00016a79 T pm_version_detect
0x00016bb1 T populate_image_header
0x00016bd5 T prevent_further_heap_frees
0x00016be1 T q_get
0x00016c0f T q_init
0x00016c19 T q_link
0x00016c23 T q_put
0x00016c47 T qdss_fuse_trace_access
0x00016c4d T qdss_imem_base
0x00016ccd T rail_id
0x00016d09 T railway_active_floor_voltage_level_vote
0x00016d27 T railway_active_floor_vote
0x00016d35 T railway_adapter_init
0x00016da1 T railway_aggregated_voltage_target_uv
0x00016edd T railway_apply
0x00016fa5 T railway_corner_vote
0x00016fc5 T railway_create_voter
0x0001744d T railway_finalize_init
0x00017479 T railway_get_corner_voltage
0x000174d5 T railway_get_current_settings
0x00017505 T railway_get_lowest_active
0x0001754d T railway_get_sleep_modes
0x00017591 T railway_init_early_proxy_votes
0x00017595 T railway_init_proxies_and_pins
0x000175d1 T railway_init_v2
0x000176d1 T railway_level_vote
0x00017709 T railway_set_callback
0x000177ed T railway_set_retention_voltage
0x00017815 T railway_sw_enable_vote
0x00017821 T railway_target_init
0x00017941 T railway_transition_rail
0x00017965 T railway_transitioner_init
0x00017a45 T railway_uv_vote
0x00017a6d T railway_xlate
0x00017c35 T reset_chip
0x00017ced T rob_get_duration
0x00017d09 T rob_mark_duration
0x00017d99 T rob_mark_event
0x00017dd5 T rob_set_recording_speed
0x00017e19 T rpm_ULog_CreateNew
0x00017f69 T rpm_ULog_Fast7WordWrite
0x0001801f T rpm_adjust_free_heap_space
0x0001802b T rpm_associate_npa_resource
0x0001804f T rpm_core_dump_init
0x00018057 T rpm_create_client
0x00018071 T rpm_create_npa_adapter
0x000180b9 T rpm_create_npa_settling_adapter
0x00018101 T rpm_free_heap_space_init
0x0001811d T rpm_get_aggregated_request_buffer
0x00018133 T rpm_get_current_request
0x0001813d T rpm_get_num_clients
0x00018149 T rpm_get_num_ees
0x00018155 T rpm_halt_enter
0x00018395 T rpm_halt_exit
0x000183d5 T rpm_hash
0x000184c9 T rpm_hash64s
0x00018529 T rpm_init_done
0x00018539 T rpm_issue_request
0x00018575 T rpm_log_event_to_ram
0x00018601 T rpm_mpu_init
0x0001883d T rpm_npa_get_ee_client_id
0x0001888d T rpm_rail_corner_remap
0x000188a9 T rpm_rail_level_remap
0x000188d9 T rpm_register_internal_client_type
0x0001890d T rpm_register_named_resource
0x00018a05 T rpm_register_resource
0x00018a65 T rpm_resource_hash
0x00018aa1 T rpm_send_init_proxy_vote
0x00018add T rpm_server_init_done
0x00018ae9 T rpm_set_changer_common_init
0x00018bd5 T rpm_set_last_transitioning_resource
0x00018bf1 T rpm_settling_timer_init
0x00018ca9 T rpm_shadow_resource
0x00018d69 T rpm_spm_init
0x00018eb1 T rpm_spm_soft_transition
0x00018f1d T rpm_spm_state_machine
0x00019159 T rpm_spm_trigger_wakeup_int
0x000191c5 T rpm_swevent_xlate
0x000192f5 T rpmserver_init
0x00019391 T rpmserver_insert_resource
0x00019885 T rpmserver_lookup_resource
0x00019905 T sched_cpu_speed_change
0x00019917 T sched_cpu_speed_change_ok
0x0001999f T sched_get_next_duration
0x000199b1 T sched_get_next_required_start
0x00019a05 T sched_get_next_start
0x00019a29 T sched_run
0x00019a37 T send_apss_vmpm_interrupt
0x00019a3f T send_apss_wakeup_interrupt
0x00019a47 T send_lpass_vmpm_interrupt
0x00019a51 T send_lpass_wakeup_interrupt
0x00019a5b T send_mpss_vmpm_interrupt
0x00019a65 T send_mpss_wakeup_interrupt
0x00019a6f T send_pronto_vmpm_interrupt
0x00019a79 T send_pronto_wakeup_interrupt
0x00019a81 T set_page_select
0x00019a91 T set_vdd_dig_sleep_voltage
0x00019ab5 T set_vdd_mem_sleep_voltage
0x00019ad1 T settling_timer_register
0x00019b71 T sleep_deep_imminent
0x00019bb5 T sleep_init
0x00019c45 T sleep_is_any_interrupt_pending
0x00019c9d T sleep_modes_init
0x00019d55 T sleep_perform_lpm
0x00019dfd T sleep_update_xo_stats
0x00019e99 T smd_assign_context
0x00019ea9 T smd_cmd
0x00019f89 T smd_cmd_broadcast
0x00019f95 T smd_cmd_context
0x0001a001 T smd_context_get_default
0x0001a009 T smd_cs_create
0x0001a00d T smd_cs_destroy
0x0001a00f T smd_cs_event_create
0x0001a013 T smd_cs_lock
0x0001a01d T smd_event_send
0x0001a055 T smd_get_interrupt_info
0x0001a113 T smd_init
0x0001a131 T smd_isr
0x0001a17d T smd_lite_open
0x0001a29b T smd_main
0x0001a2bf T smd_memcpy_from_sm
0x0001a315 T smd_memcpy_to_sm
0x0001a36b T smd_open_list_lock
0x0001a375 T smd_string_copy
0x0001a381 T smd_target_init
0x0001a3f5 T smd_target_init_interrupts
0x0001a501 T smdi_alloc_channel_info
0x0001a619 T smdi_alloc_info
0x0001a655 T smdi_allocate_stream_channel
0x0001a701 T smdi_event_send_receive
0x0001a70b T smdi_event_send_transmit
0x0001a721 T smdi_free_info
0x0001a785 T smdi_get_info
0x0001a799 T smdi_get_stream_info
0x0001a7b1 T smdi_init
0x0001a8f1 T smdi_stream_state_machine
0x0001abd5 T smdi_stream_state_update
0x0001ac93 T smdl_init
0x0001aca1 T smdl_open
0x0001acc9 T smdl_open_ex
0x0001ae55 T smdl_read
0x0001af1b T smdl_read_packet_header
0x0001affd T smdl_rx_peek
0x0001b02f T smdl_sig_get
0x0001b05f T smdl_writev
0x0001b209 T smem_alloc
0x0001b341 T smem_alloc_rpm
0x0001b461 T smem_ext_get_smem_base
0x0001b465 T smem_ext_get_smem_size
0x0001b469 T smem_get_addr
0x0001b551 T smem_get_offset
0x0001b595 T smem_init
0x0001b6ad T smem_map_memory_va
0x0001b6bd T smem_map_smem_targ_info
0x0001b71d T smem_map_spinlock_region_va
0x0001b74d T smem_os_ext_get_smem_base
0x0001b781 T smem_os_ext_get_smem_size
0x0001b7ad T smem_spin_lock
0x0001b7d1 T smem_spin_lock_cs_lock
0x0001b7d5 T smem_spin_lock_cs_unlock
0x0001b7d9 T smem_spin_lock_init
0x0001b7e5 T smem_spin_unlock
0x0001b811 T smem_version_set
0x0001b889 T spin_lock_get
0x0001b8a1 T spin_lock_internal
0x0001b8d9 T spin_unlock_internal
0x0001b935 T strlcpy
0x0001b971 T swevent_init
0x0001b9f9 T swevent_qdss_init
0x0001ba3d T system_db_clearall
0x0001ba91 T system_db_init
0x0001babd T system_db_statehandler
0x0001bb61 T time_service_init
0x0001bb6d T timetick_get64
0x0001bb81 T timetick_init
0x0001bbe5 T tz_abort_sw_event
0x0001bbf9 T unlock_ints
0x0001bc21 T update_dsat_context
0x0001be11 T vdd_min_enter
0x0001bf3d T vdd_min_exit
0x0001bf61 T vect_at
0x0001bf71 T vect_create
0x0001bf87 T vect_resize
0x0001bfb1 T vect_set
0x0001bfbf T vect_size
0x0001bfc3 T version_init
0x0001bfc9 T vmpm_init
0x0001c059 T vmpm_isr
0x0001c2a5 T vmpm_prepare_for_sleep
0x0001c2c1 T vmpm_propogate_interrupts
0x0001c3b1 T zqcal_task_init
0x0001c468 D init_fcns
0x0001c4e0 D rpm_image_section_array
0x0001c534 D smem_buf_data_tbl
0x0001c598 D RAILWAY_CONFIG_DATA
0x0001c754 D acc_config
0x0001c75c D cpr_voltage_plan_hash_value
0x0001c77d D cpr_enablement_cfg_hash_value
0x0001c7d0 D mpmint_trigger_lookup
0x0001c7d8 D vmpm_masters_info
0x0001c88c D npa_max_plugin
0x0001c8a4 D npa_identity_plugin
0x0001c8bc D npa_no_client_plugin
0x0001c90c D rpm
0x0001ca84 D RESOURCE_CONFIG_DATA
0x0001ca88 D BIMC_PREPROCESS_DEP
0x0001ca8c D BIMC_POSTPROCESS_DEP
0x0001cba4 D Clock_NPANodeIPAPlugin
0x0001cbbc D npa_bimc_max_plugin
0x0001cbd4 D DALPROP_PropBin
0x0001d3ac D driver_list
0x0001d43c D DALPROP_PropsInfo
0x0001e284 D icb_rpm_system
0x0001e308 D SourceConfig
0x0001e500 D RPMClockConfig
0x0001e618 D SystemNOCClockConfig
0x0001e780 D SystemMMNOCClockConfig
0x0001e910 D PCNOClockConfig
0x0001ea28 D IPAClockConfig
0x0001eaf0 D VSClockConfig
0x0001eb90 D ClockBIMCMMNOCMapConfig
0x0001ebc0 D BIMCClockPlanData
0x0001ec28 D APSSTCUASYNCClockConfig
0x0001ee30 D Q6TBUClockConfig
0x0001f038 D QDSSATClockConfig
0x0001f100 D QDSSTraceClockConfig
0x0001f1c8 D QDSSSTMClockConfig
0x0001f2b8 D QDSSTSCTRDiv2ClockConfig
0x0001f380 D RBCPRClockConfig
0x0001f3f8 D SPMIAHBClockConfig
0x0001f4c0 D SPMISERClockConfig
0x0001f510 D ClockLogDefaultConfig
0x0001f554 D sleep_enter_info
0x0001f57c D sleep_exit_info
0x0001f584 D pm_mpm_cmd_index
0x0001f59c D _ZTV10SetChanger
0x0001f5c0 D _ZTV12suppressible
0x0001f5e4 D _ZTV4Task
0x0001f608 D _ZTV7Handler
0x0001f62c D _ZTV9RBCPRTask
0x00090040 D QC_IMAGE_VERSION_STRING_AUTO_UPDATED
0x00090069 D IMAGE_VARIANT_STRING_AUTO_UPDATED
0x00090088 D OEM_IMAGE_VERSION_STRING_AUTO_UPDATED
0x00090604 D stack_base_address
0x00090618 D intlock_nest_level
0x0009061c D rpm_core_dump
0x000906c0 D __stack_chk_guard
0x000906c8 D rpm_mpu_cfg
0x00090720 D qdss_ts_wa_delay_us
0x00090724 D qdss_trace_enable
0x00090730 D QDSS_ETFETB_ETFETB_CXTMC_F128W8K_REG_BASE
0x00090734 D QDSS_ETR_ETR_CXTMC_R64W32D_REG_BASE
0x00090740 D QDSS_TFUNNEL_BASE_PTR
0x00090744 D QDSS_APB_DEC_QDSSCSR_REG_BASE
0x00090748 D QDSS_CTI_CSCTI_REG_BASE
0x00090764 D smem_hw_mutex_base_ptr
0x0009076c D smem_init_info
0x0009078c D cpr_info
0x000907f4 D rpm_wakeup_ints
0x000909d8 D mx_rail_id
0x000909dc D ebi_rail_id
0x000909e0 D railway
0x00090a34 D qdss_port
0x00090a38 D cpu_max_switch_time
0x00090a6c D rpm_alt_service_list
0x00090a98 D sleep_allow_low_power_modes
0x00090a99 D deep_sleep_enabled
0x00090a9a D mock_vdd_min_only
0x00090a9b D tcxo_on
0x00090a9c D cx_id
0x00090aa0 D mx_id
0x00090ad0 D rpm_ulogContext
0x00090ae0 D prng_init_done
0x00090af8 D nClockBIMCSysMMNOCAXI
0x00090afc D nClockBIMCAPSSAXI
0x00090b00 D hPropDbg
0x00090b0c D handle_rpm_init
0x00090b14 D ddr_func_tbl
0x00090b1c D ddrsns_share_data
0x00090b70 D smem_targ_info_addr_base_ptr
0x00090b7c D ACC_TARGET_CONFIG
0x00091268 D margins_0
0x00091270 D quotients_5671414031
0x0009127c D quotients_18314889212
0x00091288 D fuses_4205407389
0x0009129c D quotients_13976616038
0x000912a8 D quotients_13391412223
0x000912b4 D fuses_1642554776
0x000912c8 D voltage_plan_11762603058
0x000912e0 D margins_870
0x000912e8 D quotients_15543540899
0x000912f4 D fuses_6235187012
0x00091308 D margins_899
0x00091310 D quotients_15344839890
0x0009131c D fuses_7562370877
0x00091330 D margins_733
0x00091338 D quotients_11451110573
0x00091344 D fuses_4350869267
0x00091358 D margins_652
0x00091360 D quotients_14213015954
0x0009136c D fuses_6767873943
0x00091380 D margins_656
0x00091388 D quotients_18578366758
0x00091394 D fuses_3329597576
0x000913a8 D margins_560
0x000913b0 D quotients_9854876841
0x000913bc D fuses_2417127291
0x000913d0 D voltage_plan_16453213830
0x00091528 D cpr_rails
0x00091530 D cpr_controllers
0x00091534 D cpr_enablements
0x0009153c D cpr_misc
0x00091548 D cprLogHandle
0x00091558 D mpm_wakeup_time
0x000915c0 D railway_mx_bypass_count
0x000915c4 D ghost_vote
0x000917c4 D rpm_system_hash
0x000917f0 D mpm_enter_latency
0x000917f8 D mpm_exit_latency
0x00091800 D enter_deep_sleep_time
0x00091808 D ulog_global_stmport
0x0009180c D g_prng_config_enable
0x00091810 D pDrvCtxt
0x00091814 D hProp
0x00091844 D bMpssPlacedNonZeroVote
0x00091850 D Clock_Resources
0x00091d4c D bimc_clk_switch_dbg
0x00091d5c D pc_state
0x00091d60 D HAL_clk_nHWIOBaseTop
0x00091de8 D HAL_clk_Platform
0x00091e40 D num_of_nodes
0x00091e44 D pmic_npa_rpm_nodes
0x00091e48 D pmic_npa_rpm_resources
0x00091e5c D ddr_status_reg_addr
0x00091e9c D spmiLogHandle
0x00091ea0 D DALPROP_StructPtrs
0x00092000 D CPR_INIT_SMEM
0x0009200c D MPM_BSP_DATA
0x00092048 D registerLayout
0x00092098 D aInterruptTable
0x00092270 D prng_clk_init
0x00092274 D nClockID
0x00092278 D ChipFamilyArray1
0x0009227c D ChipFamilyArray0
0x00092298 D ChipFamilyArray2
0x000922c8 D HAL_clk_BIMCGPUDomainControl
0x000922f0 D HAL_clk_mGCCBIMCGPUClkDomain
0x00092304 D HAL_clk_mGCCBIMCPowerDomain
0x0009236c D aBIMCSourceMap
0x00092394 D aAPSSTCUSourceMap
0x000923c4 D aQ6TBUSourceMap
0x000923f4 D aAPSSAXISourceMap
0x000924c4 D HAL_clk_mGCCClockDomainControl
0x000924d0 D HAL_clk_mRPMClockDomainControl
0x000924dc D HAL_clk_mQDSSTRACEDomainControl
0x000924e8 D HAL_clk_mQDSSTSCTRDomainControl
0x000924f4 D HAL_clk_mAPSSAXIClockDomainControl
0x00092500 D HAL_clk_mIPADomainControl
0x0009250c D HAL_clk_mAPSSTCUClockDomainControl
0x00092518 D HAL_clk_mQ6TBUTCUClockDomainControl
0x00092524 D HAL_clk_mGCC_NOCClockDomainControl
0x00092590 D pm_log_level
0x00092594 D pm_settle_vreg_ok_err_count
0x000927cc D pmicArbHwioBase
0x00092990 D BIMCClockConfig
0x00092b98 D BIMCGPUClockConfig
0x00092da0 D APSSAXIClockConfig
0x00092fa8 D BIMCClockPlans
0x00092fb4 D ClockVregRailMapConfig
0x00092fd4 D HAL_clk_mGenericClockControl
0x00092ffc D HAL_clk_mGenericPowerDomainControl
0x0009300c D HAL_clk_BrammoPLLControl
0x00093030 D brammo_wait_count
0x00093034 D brammo_pll_retry_count
0x00093038 D HAL_clk_SparkPLLControl
0x0009305c D spark_wait_count
0x0009307c D HAL_clk_mGCCSLEEPClkDomain
0x000930ac D HAL_clk_mGCCXOClkDomain
0x000930c0 D debug_marker
0x000930c4 D init_data_done
0x000930c8 D loop_count
0x000930cc D is_gpll5_en
0x000930d0 D is_bimcpll_en
0x000930d8 D bimc_clock_switch_count
0x000930e0 D HAL_clk_BIMCDDRDomainControl
0x00093124 D HAL_clk_mGCCBIMCDDRCPLL0ROOTClkDomain
0x0009326c D HAL_clk_mGCCPCNOCBFDCDClkDomain
0x000932d4 D HAL_clk_mGCCQDSSATBClkDomain
0x00093320 D HAL_clk_mGCCQDSSSTMClkDomain
0x00093350 D HAL_clk_mGCCQDSSTRACEClkDomain
0x00093428 D HAL_clk_mGCCQDSSTSCTRClkDomain
0x00093458 D HAL_clk_mGCCRBCPRClkDomain
0x000934a4 D HAL_clk_mGCCRPMClkDomain
0x000934d4 D HAL_clk_mGCCSPMIAHBClkDomain
0x00093504 D HAL_clk_mGCCSPMISERClkDomain
0x0009356c D HAL_clk_mGCCSYSMMNOCBFDCDClkDomain
0x000935f0 D HAL_clk_mGCCSYSNOCBFDCDClkDomain
0x00093620 D HAL_clk_mGCCAPSSTCUClkDomain
0x00093650 D HAL_clk_mGCCQ6TBUClkDomain
0x0009369c D HAL_clk_mGCCAPSSAXIClkDomain
0x00093704 D HAL_clk_mGCCIPAClkDomain
0x00093734 D HAL_clk_mGCCMXVOLTAGEDROOPDETECTORClkDomain
0x00093764 D HAL_clk_mGCCVDDAVOLTAGEDROOPDETECTORClkDomain
0x00093778 D fts_range
0x0009377c D fts_volt
0x00093794 D fts2p5_range
0x00093798 D fts2p5_volt
0x000937b0 D hfs_range
0x000937b4 D hfs_volt
0x000937cc D boost_range
0x000937d0 D boost_volt
0x000937dc D boost_byp_range
0x000937e0 D boost_byp_volt
0x000937ec D n1200_range
0x000937f0 D n1200_volt
0x00093814 D n600_range
0x00093818 D n600_volt
0x0009383c D pmos_range
0x00093840 D pmos_volt
0x0009387c D ln_range
0x00093880 D ln_volt
0x00093898 D nmos_range
0x0009389c D nmos_volt
0x000938c0 D ult_buck_range_1
0x000938c4 D ult_buck_volt_1
0x000938dc D ult_buck_range_2
0x000938e0 D ult_buck_volt_2
0x000938ec D ult_pmos_range
0x000938f0 D ult_pmos_volt
0x000938fc D ult_nmos_range
0x00093900 D ult_nmos_volt
0x0009390c D smps_vreg_ok_time
0x00093910 D ldo_vreg_ok_time
0x00093914 D boost_vreg_ok_time
0x00093918 D vs_vreg_ok_time
0x0009391c D unified_rails_stepper_rate
0x0009392c D ult_smps_stepper_rate
0x00093930 D ult_ldo_stepper_rate
0x00093934 D smps_stepper_rate
0x00093938 D ldo_stepper_rate
0x0009393c D clk_reg
0x00093946 D smps_reg
0x0009397e D ldo_reg
0x000939b6 D vs_reg
0x000939ee D boost_reg
0x00093a26 D boost_byp_reg
0x00093a5e D clk_sleep_reg
0x00093a60 D clk_xo_reg
0x00093a62 D clk_common
0x00093a70 D num_of_ldo
0x00093a78 D num_of_smps
0x00093a80 D ldo_rail_a
0x00093b94 D smps_rail_a
0x00093be8 D clk_info_a
0x00093c1c D ldo_rail_b
0x00093c28 D ldo_rail
0x00093c30 D smps_rail
0x00093c34 D clk_info
0x00093c38 D smps_a
0x00093c78 D ldo_a
0x00093d68 D smps_dep_a
0x00093dbc D ldo_dep_a
0x00093edc D smps_dep
0x00093ee0 D ldo_dep
0x00093ee8 D clk_dep
0x00093f24 D pm_npa_rpm_pam_node_rsrcs
0x00093f44 D num_of_pm_rpm_nodes
0x00093f48 D pm_mpm_sleep_cfg
0x00093fc8 D pm_mpm_active_cfg
0x00094048 D pm_mpm_rails_info
0x00094064 D vsense_config_data
0x0009412c D pm_rpm_pam_lpddr_rails_info
0x00094170 D ddr_status
0x0009426c D smd_interrupt_table
0x00094314 D smem_ext_heap_info
0x00094608 D cpu_switch_time
0x00094688 D ddr_dalsys
0x000946b8 D spmiBusInfo
0x00094f34 D mpmPlatform
0x00095018 D rpm_master_rail_vote
0x00096948 D DrvCtxt
0x00096a28 D ddr_freq_switch
0x00096a60 D switch_count
0x00096cec D ddr_status_var
0x00096e2c D spmiPmicArbInfo
0x000973ec D pm_settle_vreg_ok_err_info
0x000974d4 D bimc_debug_data
0x0009751c D ldo_dep_b
0x00097534 D clk_dep_a
0x00097630 D pm_droop_detect_info
