﻿{
    "ProjectName": "",
    "CodeGenConfiguration": {
		"SkipGps" : true,
        "MasterTemplateVersionNumber": 1
    },
    "ValidatorConfiguration": {
        "XmlSchemaVersionNumber": 1
    },    
    "RunCodeGen": true,
    "RunXmlValidation": true
}
