<driver name="NULL">
 <device id="/statichashes/AlacDecoderModule.so.1">
  <props name="num_segments" type=DALPROP_ATTR_TYPE_UINT32>3</props>
  <props name="hash" type=DALPROP_ATTR_TYPE_BYTE_SEQ>0x84, 0x81, 0xd7, 0xc0, 0x6c, 0x2c, 0x8e, 0x3e, 0xc1, 0x46, 0xf6, 0x55, 0xb5, 0x9d, 0xdf, 0xbe, 0x1e, 0xf9, 0x70, 0xda, 0x6a, 0x8a, 0x6f, 0x1d, 0xd1, 0x1c, 0x19, 0xe8, 0xfd, 0xbc, 0xe7, 0x2a, 0x27, 0x15, 0x74, 0x3b, 0x55, 0x82, 0xac, 0x3, 0x19, 0x9, 0xd4, 0x9, 0xf6, 0x67, 0xc0, 0x71, 0x39, 0xad, 0x6c, 0x68, 0x49, 0xbf, 0x94, 0x91, 0x6e, 0xd5, 0xab, 0x63, 0xbc, 0x41, 0xf2, 0x51, 0x81, 0x2c, 0x68, 0x2c, 0xad, 0xce, 0xd5, 0xa0, 0x75, 0xc4, 0x90, 0x45, 0x59, 0x8, 0x95, 0xfb, 0x6d, 0x16, 0xb1, 0x99, 0xd7, 0x2d, 0x4c, 0xae, 0xdb, 0x16, 0x80, 0x3f, 0x2c, 0x6, 0x83, 0xf8, end</props>
 </device>
</driver>
