<driver name="NULL">
 <device id="/statichashes/ApeDecoderModule.so.1">
  <props name="num_segments" type=DALPROP_ATTR_TYPE_UINT32>3</props>
  <props name="hash" type=DALPROP_ATTR_TYPE_BYTE_SEQ>0x7d, 0x23, 0x5b, 0x7a, 0x38, 0xcb, 0x57, 0xed, 0x2c, 0x3f, 0x47, 0xd3, 0x4b, 0x45, 0xb7, 0xac, 0x1c, 0xe0, 0xe, 0xab, 0x2e, 0x1b, 0xa5, 0x3e, 0x98, 0xf, 0xbb, 0xa2, 0x58, 0x70, 0x2f, 0xc8, 0x62, 0x65, 0x8e, 0xf9, 0x17, 0xf8, 0x15, 0x61, 0x6b, 0x21, 0x84, 0xd5, 0x9c, 0xc6, 0x32, 0xa6, 0x7f, 0xb, 0x8f, 0xb1, 0xac, 0x35, 0x62, 0x8a, 0xc4, 0x41, 0xa5, 0x12, 0x0, 0x28, 0x99, 0x2c, 0xce, 0xc4, 0x8e, 0xae, 0xd1, 0x1a, 0xef, 0x2f, 0x4a, 0xfd, 0xcd, 0xab, 0x8c, 0x99, 0xdc, 0x60, 0x97, 0xe1, 0xb4, 0xc5, 0xf, 0x3e, 0x85, 0x20, 0xd1, 0x0, 0xde, 0xef, 0xc0, 0xd1, 0x2c, 0x8e, end</props>
 </device>
</driver>
