<driver name="NULL">
 <device id="/statichashes/DolbySurroundModule.so.1">
  <props name="num_segments" type=DALPROP_ATTR_TYPE_UINT32>3</props>
  <props name="hash" type=DALPROP_ATTR_TYPE_BYTE_SEQ>0x2e, 0x3e, 0xae, 0x58, 0xc, 0x76, 0xf7, 0x73, 0xb5, 0xa5, 0x5d, 0xc4, 0x2b, 0xfe, 0xeb, 0x17, 0xf, 0x11, 0xef, 0x73, 0xd8, 0xb4, 0xbc, 0x39, 0xdb, 0xf0, 0x7e, 0x4c, 0xf, 0x90, 0x6c, 0x82, 0xee, 0x1f, 0x53, 0x48, 0x3c, 0x61, 0x3c, 0xb3, 0x90, 0x8e, 0x45, 0xaa, 0xa, 0xd7, 0x3b, 0x2a, 0x5c, 0x39, 0x4, 0x7a, 0xfe, 0xab, 0x8f, 0xcf, 0xe3, 0xbd, 0x35, 0x9, 0x9f, 0x5, 0x41, 0x3c, 0xe, 0x4d, 0xe6, 0x2c, 0x1f, 0xc5, 0xe1, 0xbc, 0xd2, 0xa5, 0x27, 0x6, 0xb2, 0xf1, 0x90, 0x6d, 0xbf, 0x5d, 0xd1, 0x95, 0x3d, 0x73, 0xe1, 0xfe, 0xdb, 0x56, 0x8c, 0x2e, 0x8a, 0xfa, 0x2c, 0x5a, end</props>
 </device>
</driver>
