<driver name="NULL">
 <device id="/statichashes/DolbyMobileModule.so.1">
  <props name="num_segments" type=DALPROP_ATTR_TYPE_UINT32>3</props>
  <props name="hash" type=DALPROP_ATTR_TYPE_BYTE_SEQ>0x8d, 0xee, 0xa0, 0x19, 0x25, 0x3a, 0x33, 0x60, 0x25, 0x2b, 0x6a, 0x6e, 0x72, 0xd2, 0x33, 0x1a, 0x30, 0xcc, 0xc5, 0xd9, 0x8e, 0xf6, 0xbb, 0xdb, 0xe9, 0x1a, 0x75, 0xbc, 0x99, 0xca, 0x8d, 0xd6, 0xb5, 0xb3, 0xb7, 0x2b, 0x26, 0x30, 0x63, 0x97, 0xaf, 0x99, 0xe4, 0x44, 0xb9, 0xf, 0xcb, 0x33, 0xc2, 0x99, 0xf4, 0xd2, 0x1a, 0xfe, 0xd, 0x61, 0x65, 0x7d, 0x18, 0x55, 0x36, 0x8f, 0x54, 0xc5, 0x66, 0x99, 0xc5, 0x73, 0x6d, 0xc8, 0xe9, 0x25, 0x60, 0x8f, 0x44, 0x84, 0xc, 0x40, 0x8b, 0x6a, 0x3, 0x90, 0xb2, 0xe1, 0x4, 0xa8, 0xbb, 0x77, 0x69, 0xc3, 0x42, 0x14, 0x80, 0x37, 0x4a, 0x94, end</props>
 </device>
</driver>
