<driver name="NULL">
 <device id="/statichashes/DTS_HPX_MODULE.so.1">
  <props name="num_segments" type=DALPROP_ATTR_TYPE_UINT32>3</props>
  <props name="hash" type=DALPROP_ATTR_TYPE_BYTE_SEQ>0x94, 0x93, 0x3f, 0x82, 0xf6, 0x23, 0x9b, 0xc4, 0x44, 0x9d, 0x3a, 0x33, 0xb9, 0x40, 0x9b, 0xb2, 0x7f, 0x42, 0x45, 0xaf, 0x48, 0xf, 0xde, 0x9f, 0xde, 0xcc, 0x3d, 0xc2, 0x35, 0x8, 0x4, 0x76, 0x51, 0x10, 0x6c, 0x48, 0x65, 0xac, 0xb9, 0x55, 0xc0, 0x27, 0xd1, 0x4f, 0xc, 0xb5, 0x8f, 0xea, 0x6, 0xe3, 0xe1, 0xc, 0xd9, 0x7e, 0x74, 0x4b, 0x34, 0xaf, 0x49, 0xcc, 0x9f, 0x85, 0x1a, 0xf1, 0x9b, 0xeb, 0x89, 0xd2, 0xb0, 0x75, 0xe5, 0x39, 0xe0, 0x78, 0x85, 0x67, 0x88, 0xe, 0x4e, 0x74, 0xcb, 0xd9, 0xf0, 0x7a, 0x7d, 0xd2, 0x9c, 0xb9, 0xfd, 0xf1, 0x27, 0xd8, 0x25, 0x94, 0x9a, 0x66, end</props>
 </device>
</driver>
