<driver name="NULL">
 <device id="/statichashes/HeaacDecoderModule.so.1">
  <props name="num_segments" type=DALPROP_ATTR_TYPE_UINT32>3</props>
  <props name="hash" type=DALPROP_ATTR_TYPE_BYTE_SEQ>0x52, 0xbf, 0x77, 0x67, 0xb0, 0x6c, 0x68, 0x92, 0x5d, 0xa3, 0x69, 0x32, 0xa1, 0x6, 0xb2, 0xa7, 0x4e, 0x20, 0x74, 0x12, 0x4f, 0x1b, 0x6c, 0x9b, 0x41, 0xce, 0x0, 0xe, 0x8e, 0x1e, 0xb9, 0x4, 0x63, 0xb2, 0xd9, 0x7e, 0x9d, 0xa2, 0x35, 0x1f, 0xca, 0x44, 0x16, 0xb, 0xed, 0x92, 0x6d, 0x56, 0x73, 0x86, 0x25, 0x65, 0x9d, 0x1c, 0xb6, 0x45, 0x8a, 0xfb, 0xd7, 0xe5, 0xfc, 0xab, 0xd7, 0x36, 0x61, 0xcd, 0x7, 0xb9, 0x5f, 0xfb, 0xe2, 0x37, 0x43, 0xec, 0x68, 0x16, 0x9, 0x96, 0x76, 0x78, 0x59, 0x21, 0x66, 0x56, 0xb5, 0x63, 0x9a, 0xcd, 0x6c, 0x5e, 0x86, 0x8b, 0xc5, 0x34, 0x7b, 0x2b, end</props>
 </device>
</driver>
