<driver name="NULL">
 <device id="/statichashes/mmecns_module.so.1">
  <props name="num_segments" type=DALPROP_ATTR_TYPE_UINT32>3</props>
  <props name="hash" type=DALPROP_ATTR_TYPE_BYTE_SEQ>0x30, 0x38, 0x61, 0x86, 0xf, 0x65, 0x5d, 0xc9, 0x45, 0x41, 0xa7, 0xa8, 0x33, 0x95, 0xe3, 0xa4, 0xf3, 0x2f, 0x37, 0x10, 0x9f, 0x9e, 0xfe, 0x82, 0xbd, 0x24, 0x63, 0xb7, 0xf7, 0x5c, 0xc, 0x89, 0xeb, 0xa8, 0x1e, 0xc7, 0xf2, 0x69, 0xb4, 0x12, 0x35, 0xa4, 0xce, 0x85, 0xb4, 0x60, 0xd5, 0xaf, 0x22, 0xfd, 0x6f, 0x1, 0x42, 0x4e, 0x45, 0xa0, 0x7a, 0xd1, 0x2a, 0xd1, 0xf4, 0x79, 0xd4, 0xf9, 0x42, 0x57, 0x70, 0xb2, 0x80, 0xc9, 0xbf, 0xa1, 0xa5, 0x74, 0x2d, 0xe, 0xc, 0xe8, 0x73, 0x5d, 0xe9, 0x5a, 0xda, 0x66, 0xab, 0x7b, 0x54, 0x12, 0x8e, 0x4b, 0x7b, 0xb0, 0x49, 0xc1, 0xaa, 0xaa, end</props>
 </device>
</driver>
