<driver name="NULL">
 <device id="/statichashes/SrsTruMediaModule.so.1">
  <props name="num_segments" type=DALPROP_ATTR_TYPE_UINT32>3</props>
  <props name="hash" type=DALPROP_ATTR_TYPE_BYTE_SEQ>0x27, 0x72, 0xb8, 0x66, 0x56, 0x13, 0x78, 0xd5, 0x91, 0xaa, 0xaa, 0x41, 0x94, 0x87, 0x5a, 0xbe, 0x30, 0x84, 0x40, 0xa9, 0x80, 0x3d, 0x8c, 0xe, 0xd1, 0x84, 0x11, 0x12, 0xcb, 0x73, 0xda, 0xc1, 0xc2, 0xc1, 0xab, 0xcb, 0x91, 0xe7, 0x47, 0xa3, 0x81, 0x51, 0x6f, 0xe5, 0x3c, 0xbd, 0x3c, 0x47, 0xa0, 0x88, 0x86, 0x7c, 0x26, 0x51, 0x47, 0xac, 0x12, 0x99, 0xa7, 0x8d, 0x19, 0xc9, 0x12, 0xa3, 0xbb, 0xf0, 0xee, 0x0, 0x57, 0x92, 0x91, 0x26, 0x4f, 0xab, 0x89, 0x16, 0xe7, 0x9b, 0xa5, 0x10, 0xef, 0x15, 0x21, 0xfa, 0x3, 0xdb, 0x44, 0x51, 0xeb, 0x8f, 0xb2, 0x94, 0x2b, 0xd, 0xe0, 0x38, end</props>
 </device>
</driver>
