<driver name="NULL">
 <device id="/statichashes/VorbisDecoderModule.so.1">
  <props name="num_segments" type=DALPROP_ATTR_TYPE_UINT32>3</props>
  <props name="hash" type=DALPROP_ATTR_TYPE_BYTE_SEQ>0x76, 0x6e, 0xab, 0xea, 0x30, 0x87, 0x1c, 0xae, 0x9e, 0xcb, 0x87, 0x71, 0xbd, 0x33, 0x4c, 0x64, 0xed, 0xe4, 0xb4, 0xde, 0x3c, 0x27, 0xe0, 0xb5, 0xa6, 0xdc, 0xdb, 0xa1, 0xb8, 0x9d, 0xf, 0xc1, 0xee, 0xe2, 0xde, 0x72, 0x1a, 0x3f, 0x6e, 0x26, 0xc0, 0xa0, 0xea, 0x17, 0xbb, 0x4, 0x5c, 0x68, 0xcf, 0x7c, 0x42, 0x41, 0xdd, 0x2e, 0xe1, 0x9, 0xa5, 0x6e, 0xa0, 0x17, 0x61, 0xb9, 0x36, 0x75, 0x16, 0x4b, 0xf3, 0xd7, 0xc0, 0x46, 0x9b, 0xb7, 0x28, 0xe, 0x68, 0xb6, 0x4a, 0x82, 0xca, 0xe3, 0x8a, 0xc2, 0x62, 0x86, 0xb4, 0xc8, 0x7f, 0x7a, 0xa0, 0xe1, 0x47, 0xa2, 0x1b, 0xda, 0xa8, 0xcf, end</props>
 </device>
</driver>
