<driver name="NULL">
 <device id="/statichashes/WmaStdDecoderModule.so.1">
  <props name="num_segments" type=DALPROP_ATTR_TYPE_UINT32>3</props>
  <props name="hash" type=DALPROP_ATTR_TYPE_BYTE_SEQ>0x92, 0x7, 0x87, 0x5, 0xa8, 0xea, 0x10, 0xcc, 0xbc, 0x61, 0x33, 0xa4, 0x41, 0x38, 0xe0, 0x82, 0xc, 0x45, 0xaf, 0x31, 0x30, 0xa1, 0xe3, 0x6a, 0xe4, 0x19, 0xf4, 0xe8, 0x9a, 0xd0, 0xe6, 0x72, 0x35, 0x1e, 0x7b, 0x41, 0xe0, 0x49, 0xe4, 0x88, 0x6f, 0x14, 0x53, 0xea, 0xe9, 0x62, 0xeb, 0x93, 0x9d, 0x43, 0x61, 0x34, 0xf7, 0x19, 0xd4, 0x30, 0x30, 0x9b, 0x86, 0x7c, 0x69, 0x7f, 0xd8, 0x6e, 0x1f, 0xe4, 0x93, 0x21, 0x59, 0xba, 0x22, 0x91, 0x6a, 0xd2, 0x48, 0x9c, 0x8d, 0xb4, 0x69, 0x77, 0xce, 0x88, 0xb3, 0xf6, 0xd5, 0xc0, 0x94, 0x29, 0xa2, 0x4f, 0xee, 0x72, 0x64, 0xb5, 0xb5, 0x6e, end</props>
 </device>
</driver>
