*qurt_cache.o(.text)
*memscpy.o(.text.memscpy)
*diag_f3_trace.o( .text.diag_f3_trace_to_buffer)
*DalTimetick.o( .text.Timetick_GetTimetick64)
*DalTimetickFwk.o( .text.Timetick_DalTimetick_GetTimetick64)
*qdsp_sfdiv_opt.o(.text)
*qdsp_udivsi3.o(.text)
*rex_os_crit_sect_pimutex.o( .text.rex_leave_crit_sect)
*rex_os_crit_sect_pimutex.o( .text.rex_enter_crit_sect)
*approx_ulin_to_dB_linlut8.o(.text)
*qdsp_umodsi3.o(.text)
*qdsp_divdi3.o(.text)
*qdsp_udivdi3.o(.text)
*a2_taskq.o( .text.a2_taskq_status_get_next_task)
*lte_ml1_schdlr2_event_list.o( .text.schdlr_event_list_tl_event_sort_cb)
*memheap.o( .text.bin_deactive)
*queue.o( .text.q_unlock)
*queue.o(.text.q_lock)
*timetickLegacy.o( .text.timetick_get)
*qdsp_moddi3.o(.text)
*osal_rex.o( .text.osal_exit_crit_sect)
*a2_taskq.o( .text.a2_taskq_alloc_and_write_task)
*msgr.o( .text.msgr_receive)
*memheap.o( .text.memheap_find_bin)
*osal_rex.o( .text.osal_enter_crit_sect)
*approx_dB_to_ulin_cubefit.o(.text)
*stm2.o( .text.stm2_get_user_data)
*memheap.o( .text.mem_heap_enter_crit_sect)
*memheap.o( .text.mem_heap_leave_crit_sect)
*msgr_umid.o( .text.msgr_get_client_tech_mod)
*mutils_circ_q.o( .text.mutils_circ_q_get_item)
*queue.o(.text.q_link)
*lte_ml1_schdlr_arb.o( .text.schdlr_arb_list_get_new_node)
*msgri_msgq.o( .text.msgri_msgq_send)
*a2_common_tasks.o( .text.a2_common_tasks_dma_tag_write)
*stm2.o( .text.stm2_get_state)
*msgr.o( .text.msgr_init_hdr)
*qdsp_divsi3.o(.text)
*queue.o(.text.q_get)
*memheap.o( .text.memheap_copy_frd_offset_at_end)
*msgri_msgq.o( .text.msgri_msgq_receive)
*mutils_circ_q.o( .text.mutils_circ_q_put_item)
*msgr.o( .text.msgr_send)
*osal_rex.o( .text.osal_atomic_compare_and_set)
*rex_signals.o( .text.rex_wait)
*qw.o(.text.qw_lo)
*lte_ml1_schdlr_arb.o( .text.schdlr_arb_free_list)
*memheap.o( .text.memheap_addNodeToBin)
*diag_f3_trace.o( .text.err_f3_save_msg)
*rex_signals.o( .text.rex_clr_sigs)
*msg_api.o( .text.msg_save_trace)
*msgr.o( .text.msgr_init_hdr_all)
*timetick_sclk64.o( .text.timetick_sclk64_get)
*approx_uinv_cubelut8.o(.text)
*msgri_util.o( .text.msgri_timetick_get)
*msgri_fifo.o( .text.msgri_fifo_put_buf)
*lte_ml1_schdlr_arb.o( .text.schdlr_arb_populate_iter_list)
*queue.o(.text.q_put)
*msgri_fifo.o( .text.msgri_fifo_get_buf)
*qw.o(.text.qw_hi)
*a2_common_tasks.o( .text.a2_common_tasks_dma_write_iovec_list_from_uncached_phys_src_addr)
*msgr_umid.o( .text.msgri_umid_get_client_node)
*a2_taskq_hal.o( .text.a2_taskq_hal_set_wr_ptr__merged)
*amssheap_debug.o( .text.memdebug_updatecallerptr)
*msgr_umid.o( .text.msgri_lookup_reg)
*msg_api.o( .text.msg_get_time)
*amssheap_debug.o( .text.memdebug_malloc)
*hexagon_dfdiv.o(.text)
*memheap.o( .text.mem_heap_enter_crit_sect__merged)
*msgri_log.o( .text.msgri_log_umid)
*queue.o(.text.q_cnt)
*qdsp_modsi3.o(.text)
*DalTimetickFwk.o( .text.Timetick_DalTimetick_Get)
*DalTimetick.o( .text.Timetick_GetRaw)
*DalTimetick.o( .text.Timetick_Get)
*qdsp_sfsqrt_opt.o(.text)
*stm2.o( .text.stm2_get_instance)
*msgri_client.o( .text.msgri_client_send)
*rex_signals.o( .text.rex_set_sigs)
*msgr_umid.o( .text.msgri_lookup_next_reg)
*diaglog.o( .text.log_mask_enabled)
*rex_signals.o( .text.rex_os_wait_on_sigs)
*a2_dbg.o( .text.a2_timetick_get)
*qdsp_fmin_opt.o(.text)
*stm2.o( .text.stm_acquire_lock)
*lte_ml1_schdlr_arb.o( .text.schdlr_arb_populate_obj_list_info)
*lte_ml1_schdlr2_event_list.o( .text.schdlr_event_list_get_priority_at_time)
*rflte_state.o( .text.rflte_mc_get_tx_nv_container)
*DalTimetick.o( .text.Timetick_GetElapsed)
*ps_crit_sect_rex.o( .text.ps_leave_crit_section)
*ps_crit_sect_rex.o( .text.ps_enter_crit_section)
*lte_ml1_schdlr2_event_list.o( .text.schdlr_event_list_get_cdw_priority)
*ps_dpm_ul_opt_ipa.o( .text.ps_dpm_ul_opt_process_filters)
*rex_context.o( .text.rex_self)
*stm2.o( .text.stm2_process_input)
*rflte_state.o( .text.rflte_state_get_curr_chan_tx)
*DALInterruptController.o( .text.LogInterruptEvent)
*stm2.o( .text.stm_release_lock)
*a2_dl_phy.o( .text.a2_dl_phy_process_statusq)
*a2_taskq.o( .text.a2_taskq_status_commit_rd_ptr)
*a2_taskq_hal.o( .text.a2_taskq_hal_status_set_rd_ptr)
*timer.o( .text.timer_trace_event)
*modem_mem.o( .text.modem_mem_alloc)
*memheap.o( .text.findNRemoveFreeBlockInBINs)
*queue.o(.text.q_next)
*timetickLegacy.o( .text.timetick_attach)
*rflte_state.o( .text.rflte_state_get_bw_tx)
*rex_platform.o( .text.rex_check_if_task_allowed_to_block)
*rfcommon_time_profile.o( .text.rf_time_get_elapsed)
*lte_ml1_schdlr_arb.o( .text.schdlr_arb_list_insert_from_event_list)
*memheap.o( .text.memheap_updatestats)
*lte_ml1_schdlr2_event_list.o( .text.schdlr_event_list_get_highest_priority_at_time)
*rfcommon_locks.o( .text.rf_common_enter_critical_section)
*rfcommon_locks.o( .text.rf_common_leave_critical_section)
*memmove.o(.text)
*a2_dbg.o( .text.a2_dbg_bitmask_status)
*timer.o( .text.timer_get_internal_timer)
*rfcommon_time_profile.o( .text.rf_time_get_timetick64_snapshot)
*rex_signals.o( .text.rex_get_sigs)
*approx_dB_to_ulin_quadlut8.o(.text)
*a2_task.o( .text.a2_task_save_tb_dbg_info)
*a2_frag_dispenser.o( .text.a2_frag_dispenser_alloc_buffer)
*queue.o(.text.q_check)
*ds_3gpp_nv_manager.o( .text.ds_3gpp_nv_manager_validate_nv_subs_info)
*DALSysSync.o( .text.DALSYS_SyncEnter)
*lte_ml1_schdlr_arb.o( .text.schdlr_arb_execute_event)
*lte_ml1_mdb.o( .text.linear_to_log_binary_search)
*a2_dl_phy.o( .text.a2_dl_phyi_dma_from_decob_ddr_to_frag)
*DalTimetickFwk.o( .text.Timetick_DalTimetick_Enable)
*DalTimetick.o( .text.Timetick_Enable)
*a2_taskq.o( .text.a2_taskq_one_word_link_commit_write_ptr)
*memheap.o( .text.mem_free)

/*DSM symbols moved from XLTE to SW */
*dsm.o( .text.dsm_length_packet)
*dsm_mem.o( .text.dsmi_free_buffer)
*dsmi.o( .text.dsmi_ref_dec)
*dsm_mem.o( .text.dsmi_free_packet)
*dsmi.o( .text.dsmi_ref_inc)
*dsm.o( .text.dsmi_dup_packet_long)
*dsmi.o( .text.dsmi_verify_buffer)
*dsm_mem.o( .text.dsmi_new_buffer)
*dsm.o( .text.dsmi_pull16)
*dsm_mem.o( .text.dsmi_release_buffer)
*dsm.o( .text.dsmi_pullup_long)
*dsm_queue.o( .text.dsmi_dequeue)
*dsm.o( .text.dsm_extract_long)
*dsm.o( .text.dsmi_split_packet)
*a2_status_util.o( .text.a2_status_util_dsm_chain_append)
*dsm.o( .text.dsmi_pull8)
*dsm_queue.o( .text.dsmi_wm_check_levels_dequeue)
*dsm.o( .text.dsmi_trim_packet_long)
*dsm.o( .text.dsmi_append)
*dsm_queue.o( .text.dsmi_wm_check_levels_enqueue)
*dsm_queue.o( .text.dsmi_enqueue)
*a2_status_util.o( .text.a2_status_util_dsm_chain_complete)
*a2_common_tasks.o( .text.a2_common_tasks_iovec_from_dsm_chain_with_offset)
*a2_ul_phy.o( .text.a2_ul_phyi_write_dsm_gather_task_with_ciph)

/* RFLM symbols left due to comment*/
*rflm_ccs_rf_seq.o( .text._ZL28rflm_ccs_rf_seq_common_startP26_rflm_ccs_rf_seq_context_sP30_rflm_ccs_rf_seq_sched_event_s)
*rflm_ccs_rf_seq.o( .text._ZL27rflm_ccs_rf_seq_task_finishP26_rflm_ccs_rf_seq_context_sP30_rflm_ccs_rf_seq_sched_event_s)
*rflm_ccs_rf_seq.o( .text._ZL30rflm_ccs_rf_seq_schedule_tasksP26_rflm_ccs_rf_seq_context_s)