#<SYMDEFS># ARM Linker, 5.01 [Build 43]: Last Updated: Wed Sep  7 21:57:50 2016
0x00000000 N __ARM_use_no_argv
0x00000000 A __main
0x00000008 A __scatterload
0x00000008 A __scatterload_rt2
0x0000001c A __scatterload_null
0x00000044 A __decompress
0x00000044 A __decompress2
0x000000a4 A __scatterload_copy
0x000000cc A __scatterload_zeroinit
0x000000f9 T __rt_lib_init
0x000000fb T __rt_lib_init_alloca_1
0x000000fb T __rt_lib_init_argv_1
0x000000fb T __rt_lib_init_atexit_1
0x000000fb T __rt_lib_init_clock_1
0x000000fb T __rt_lib_init_cpp_1
0x000000fb T __rt_lib_init_exceptions_1
0x000000fb T __rt_lib_init_fp_1
0x000000fb T __rt_lib_init_fp_trap_1
0x000000fb T __rt_lib_init_getenv_1
0x000000fb T __rt_lib_init_heap_1
0x000000fb T __rt_lib_init_lc_collate_1
0x000000fb T __rt_lib_init_lc_ctype_1
0x000000fb T __rt_lib_init_lc_monetary_1
0x000000fb T __rt_lib_init_lc_numeric_1
0x000000fb T __rt_lib_init_lc_time_1
0x000000fb T __rt_lib_init_rand_1
0x000000fb T __rt_lib_init_return
0x000000fb T __rt_lib_init_signal_1
0x000000fb T __rt_lib_init_stdio_1
0x000000fb T __rt_lib_init_user_alloc_1
0x000000fd T __rt_lib_shutdown
0x000000ff T __rt_lib_shutdown_fp_trap_1
0x000000ff T __rt_lib_shutdown_heap_1
0x000000ff T __rt_lib_shutdown_return
0x000000ff T __rt_lib_shutdown_signal_1
0x000000ff T __rt_lib_shutdown_stdio_1
0x000000ff T __rt_lib_shutdown_user_alloc_1
0x00000100 A __rt_entry
0x00000100 A __rt_entry_presh_1
0x00000100 A __rt_entry_sh
0x00000108 A __rt_entry_li
0x00000108 A __rt_entry_postsh_1
0x0000010c A __rt_entry_main
0x0000010c A __rt_entry_postli_1
0x00000134 A __rt_exit
0x00000138 A __rt_exit_ls
0x00000138 A __rt_exit_prels_1
0x0000013c A __rt_exit_exit
0x00000145 T main
0x00000149 T __user_initial_stackheap
0x0000014c A __user_setup_stackheap
0x000001ad T exit
0x000001b8 A __user_libspace
0x000001b8 A __user_perproc_libspace
0x000001b8 A __user_perthread_libspace
0x000001c5 T _sys_exit
0x000001d0 A __I$use$semihosting
0x000001d0 A __use_no_semihosting_swi
0x000001d4 D __libspace_start
0x000001d4 A __semihosting_library_function
0x00000234 D __temporary_stack_top$libspace
0x8e60d000 D DALPROP_PropsInfo
0x8e60d010 D DALPROP_StructPtrs
0x8e60d0b8 D DALPROP_PropBin
0x8e60eb50 D driver_list
0x8e60f9d4 D cfg_bus_list
0x8e60f9e0 D cfg_slave_list
0x8e60fa48 D cfg_master_list
0x8e60fa90 D ul_cfg_clock_node_list
0x8e60faa0 D cfg_tcsr_info
0x8e611c68 D route_tree_root
0x8e611c6c D ul_arb_master_list
0x8e611cb4 D ul_arb_slave_list
0x8e611d1c D ul_arb_clock_node_list
0x8e611d28 D tfunnel_port_stm
0x8e611d34 D devcfgSpmBspData
0x8e611d8c D devcfgSpmCmdSeqArray
0x8e611de0 D gSpmCmdDelay
0x8e611de4 D interrupt_config_map
0x8e612500 D pInterruptControllerConfigData
0x8e612e34 D HWIOBaseMap
0x8e612f88 D pm_wcn_proc_client_dev_deps_pll_sr2
0x8e612fa0 D pm_wcn_proc_client_dev_deps_rail_cx
0x8e612fb8 D pm_wcn_proc_client_dev_deps_rail_mx
0x8e612fd0 D pm_wcn_proc_client_dev_deps_wcn_core
0x8e613000 D pm_wcn_proc_client_dev_deps_wcn_core_clk
0x8e613048 D pm_wcn_proc_client_dev_deps_wcn_core_clk_2
0x8e613078 D pm_wcn_proc_client_dev_deps_wcn_pa
0x8e613090 D pm_npa_wcn_pam_node_rsrcs
0x8e61318c D num_of_pm_wcn_nodes
0x8e613190 D pmic_npa_clk_remote_resources
0x8e613198 D pmic_npa_remote_clk
0x8e6131a0 D pmic_npa_ldo_remote_resources
0x8e6131b8 D pmic_npa_remote_ldo
0x8e6131c0 D pmic_npa_smps_remote_resources
0x8e6131d0 D pmic_npa_remote_smps
0x8e6131d8 D GPIOCommonConfig_V6_VariantCommon
0x8e6131dc D GPIORegConfig_V6_VariantCommon
0x8e6131ec D pm_pam_pll_sr2_a_ldo7
0x8e61330c D pm_pam_pll_sr2_rails_info
0x8e613314 D pm_pam_rail_cx_a_smps2
0x8e613968 D pm_pam_rail_cx_rails_info
0x8e613970 D pm_pam_rail_mx_a_smps7
0x8e613fc4 D pm_pam_rail_mx_rails_info
0x8e613fcc D pm_pam_wcn_core_a_ldo7
0x8e61432c D pm_pam_wcn_core_a_ldo19
0x8e61468c D pm_pam_wcn_core_rails_info
0x8e61469c D pm_pam_wcn_core_clk_a_clk_buff5
0x8e61472c D pm_pam_wcn_core_clk_a_ldo7
0x8e614a8c D pm_pam_wcn_core_clk_a_ldo19
0x8e614dec D pm_pam_wcn_core_clk_rails_info
0x8e614e04 D pm_pam_wcn_core_clk_2_a_clk_buff5
0x8e614e94 D pm_pam_wcn_core_clk_2_a_ldo19
0x8e6151f4 D pm_pam_wcn_core_clk_2_rails_info
0x8e615204 D pm_pam_wcn_pa_a_ldo9
0x8e615564 D pm_pam_wcn_pa_rails_info
0x8e61556c D u32cfg_bus_list_size
0x8e615570 D u32cfg_slave_list_size
0x8e615574 D u32cfg_master_list_size
0x8e615578 D u32ul_cfg_clk_node_list_size
0x8e61557c D u32ul_arb_master_list_size
0x8e615580 D u32ul_arb_slave_list_size
0x8e615584 D u32ul_arb_clk_node_list_size
0x8e615588 D hwevent_config_table
0x8e615590 D table_size_array
0x8e615594 D hwevent_addr_table
0x8e6155a4 D addr_range_table_size
0x8e6155a8 D SourceConfig
0x8e6156f8 D QUPI2CClockConfig
0x8e615798 D UARTClockConfig
0x8e615a40 D WCNClockConfig
0x8e615ba8 D WCNFMClockConfig
0x8e615bf8 D WCNBT32MHZClockConfig
0x8e615c48 D ClockLogDefaultConfig
0x8e615c50 D ClockFlagInitConfig
0x8e615c80 D ClcokVRegLevelsMap
