Thread Name,Thread Entry Function Name,Stack Size (KB),,,
ADec38,AudioDecSvc_WorkLoop,5,,,
PspdThrd00,MtMx_PspdWorkloop,4,,,
CVD_VFR,cvd_vfr_task,8,,,
CVD_CAL_LOGG,cvd_cal_log_task,8,,,
MVM_LOW,mvm_low_task         ,8,,,
MVM_MED,mvm_med_task         ,8,,,
MVM_HIGH,mvm_high_task,8,,,
CVS_LOW,cvs_low_task,8,,,
CVS_MED,cvs_med_task,8,,     ,     
CVS_HIGH,cvs_high_task,8,,,
CVP_LOW,cvp_low_task,8,,,
CVP_MED,cvp_med_task,8,,,
CVP_HIGH,cvp_high_task,8,,,
AfeANC,afe_svc_aanc_work_loop,4,,,
VfrD            ,vfr_svc_work_loop,4,,,
ACS             ,AdspCoreSvc_WorkLoop,16,,,
AA3B            ,AudPP_WorkLoop,8,,,
usm_workloop,USM             ,4,,,
LSM             ,lsm_workloop,4,,,
IST11           ,ISTMain,2,,,
ASM             ,AudioStreamMgr_WorkLoop,16,,,
CodecIntHldr    ,afe_svc_cdc_handler_workloop,4,,,
AfeDataMgr      ,afe_rtppdm_work_loop,4,,,
ADM             ,AdmWorkLoop,12,,,
TXSR            ,stream_router_svc_workloop,4,,,
RXSR            ,stream_router_svc_workloop,4,,,
MXAR            ,MtMxWorkLoop,4,,,
MXAT            ,MtMxWorkLoop,4,,,
AfeS            ,afe_svc_work_loop,4,,,
VMX2            ,vmx_workloop,4,,,
VMX1            ,vmx_workloop,4,,,
VDS1            ,vds_thread,2,,,
VTM             ,vtm_thread,2,,,
VSM             ,vsm_thread,4,,,
VPM             ,voice_proc_mgr_thread,12,,,
AVT             ,avtimer_server_workloop,4,,,
AMDB3           ,amdb_loader_thread_entry_function,8,,,
AMDB2           ,amdb_loader_thread_entry_function,8,,,
AMDB1           ,amdb_loader_thread_entry_function,8,,,
AMDB0           ,amdb_loader_thread_entry_function,8,,,
AfeDy1000       ,afe_dynamic_thread_work_loop,4,,,
IST31           ,ISTMain,2,,,
IST90           ,ISTMain,2,,,
adsp_sysmon     ,sysmon_profiler_entry,4,,,
adsppm_asyncmgr ,AM_WorkLoopThread,4,,,
adsppm_cb       ,AM_callBackThread,4,,,
CC3D            ,AudPP_WorkLoop,8,,,
sys_m_qmi       ,sys_m_qmi_task,4,,,
sleepsolver     ,sleepActive_Thread,2,,,
IST6            ,ISTMain,2,,,
IST8            ,ISTMain,2,,,
QMI_PING_SVC    ,qmi_ping_service_thread,2,,,
IST3            ,ISTMain,2,,,
timer           ,timer_task,4,,,
IST7            ,ISTMain,2,,,
IST52           ,ISTMain,2,,,
IST22           ,ISTMain,2,,,
IST18           ,ISTMain,2,,,
IST21           ,ISTMain,2,,,
IST9            ,ISTMain,2,,,
IST33           ,ISTMain,2,,,
IST38           ,ISTMain,2,,,
rcworker        ,WorkLoopExecute,2,,,
err_ex          ,err_exception_task,4,,,
reaper          ,reaper_entry,4,,,
kernel_root     ,main,8,,,
sleep           ,sleepOS_mainTask,1.6,,,
QURT_fatalNotif ,err_exception_handler,1,,,
qtimerIST       ,qurt_timer_IST,1,,,
smgr_QMI_CLNT   ,smgr_qmi_ping_client_thread,2,,,
SNS_DEBUG       ,sns_debug_task,6,,,
SNS_SSM         ,ssm_init_thread,6,,,
SNS_SCM         ,sns_scm_task,6,,,
SNS_SMR         ,sns_smr_task,3,,,
SNS_USAM        ,sns_usam_task,3.6,,,
SNS_RH          ,sns_rh_task,2.6,,,
SNS_SMGR        ,sns_smgr_task,2.6,,,
riva_ipc_isr,qurt_elite_interrupt_workloop,2,,,
rhm,process_msg,4,,,
LOWI_SVC,lowi_controller_thread,8,,  ,
SlimBusQmiSvc,slimbus_qmi_service_thread,4,  ,,
qdssc_svc_task,qdss_qmi_ctrl_svc_task,4,,,
sys_m_smsm,sys_m_smsm_task,4,,,
dbgr_tx_loop,dbgr_platform_wait_for_monitor_events,4,,,
IPCSMDL_W,ipc_router_xal_smdl_worker_thread,3,            ,,
NPA_ASYNC_REQUE,npa_issue_async_request,8,,,
NPA_ASYNC_EVENT,npa_async_event_handler,8,,,
PMI_Handler,sleepOS_pmiHandler,1.6,,,
utimer,utimer_task,1.6,,,
UINTERRUPT_IST,uInterruptController_ISTMain,1.6,,,
QMI_PING_SVC,qmi_ping_service_thread,2,    ,,
IPCRTR_RDR,ipc_router_qdi_worker,4,,,
rcworker,rcworker,6,,,
SlimBusMaster,SlimBusDalMasterWorkLoopHandler,4,,,
SlimBusMsg,SlimBusMsgWorkLoopHandler,4,,,
SlimBusTimer,SlimBusTimerWorkLoopHandler,4,,,
dma_type0_isr,afe_dma_type0_interrupt_handler,1,,,
cti_workloop,cti_workloop,4,,,
