#<SYMDEFS># ARM Linker, 5.01 [Build 94]: Last Updated: Thu Aug 18 02:59:21 2016
0x00000000 N _printf_flags
0x00000000 N _printf_return_value
0x00000000 N _printf_sizespec
0x00000000 N _printf_widthprec
0x00290000 D dq_rout
0x00290004 D read_cdc_delay
0x00290008 D write_cdc_delay
0x00290010 D ddr_physical_size
0x00290050 D ddr_system_size
0x00290088 D ddr_status
0x00290218 D ddi_firehose_pack_info
0x00290630 D req_remaps
0x002906b0 D spmiBusInfo
0x002909b8 D smem_ext_heap_info
0x00290cdc D fail_count_histogram_perbyte
0x00290da8 D str_error_log
0x00290fa8 D str
0x002911b8 D failures
0x002911c8 D fh
0x00294778 D spmiPmicArbInfo
0x00294f84 D spmiLogBuf
0x00295004 D hotplug_devices
0x00295084 D hotplug_physical_devices
0x002951e0 D hotplug_partitions
0x002967f4 D smps_phase_lut_a
0x00296804 D pmi8940_smps_phase_lut_a
0x00296814 D pmi8950_smps_phase_lut_a
0x00296a50 D qhsusb_dload_info
0x00299180 D dci_core_info
0x00299da0 D image_info
0x00299de0 D verified_info
0x00299e38 D hotplug_counter
0x0029a404 D main_channel_buffer_A
0x0029b404 D main_channel_buffer_B
0x0029c430 D transmit_buffer
0x08006048 D ddi_initial_memory_map
0x080060e8 D QC_IMAGE_VERSION_STRING_AUTO_UPDATED
0x08006112 D IMAGE_VARIANT_STRING_AUTO_UPDATED
0x08006131 D OEM_IMAGE_VERSION_STRING_AUTO_UPDATED
0x0800614e D mob_sw_rev
0x08006168 D DALSystem_DriverInfo
0x08006174 D DALPROP_PropBin
0x080076f8 D driver_list
0x080078c0 D DALPROP_PropsInfo
0x080078d0 D smem_buf_data_tbl
0x08007920 D Clock_I2CRegs
0x080079cc D Clock_SDCCRegs
0x08007e2c D ddi_firehose_type_name
0x08007f10 D ddi_firehose_bool_name
0x08007f20 D DALI2C_DriverInfo
0x08007f34 D AdcBootBsp_8937_PM8950
0x08007f4c D AdcBootBsp_8937_PM8950_PMI8950
0x0800827c D VAdcBsp_8937_PM8950
0x080083a0 D VAdcBsp_8937_PMI8950
0x08008404 D DALVAdc_DriverInfo
0x08008410 D BootTempCheckBsp
0x080086e4 D TsensBootBsp
0x08008724 D TsensBootBsp_8917
0x08008764 D smem_partition_toc_entries
0x080088a4 D RAILWAY_CONFIG_DATA
0x080088a8 D crc30_table
0x08008ca8 D crc16_table
0x08008ea8 D crc_16_l_table
0x080090a8 D crc32_table
0x080094b8 D DALChipInfo_DriverInfo
0x080094c4 D DALPlatformInfo_DriverInfo
0x08009508 D default_led
0x08009509 D pm_periph_bitmap
0x08009589 D pmi8940_default_led
0x0800958a D pmi8940_pm_periph_bitmap
0x0800960a D pmi8950_default_led
0x0800960b D pmi8950_pm_periph_bitmap
0x080096f4 D DALTLMM_DriverInfo
0x0800a8fd D __ctype
0x0800aa0c D __lcnull_start
0x0800aa2d T _printf_n
0x0800aa2d T _printf_percent
0x0800aa33 T _printf_p
0x0800aa39 T _printf_f
0x0800aa3f T _printf_e
0x0800aa45 T _printf_g
0x0800aa4b T _printf_a
0x0800aa51 T _printf_ll
0x0800aa5b T _printf_i
0x0800aa61 T _printf_d
0x0800aa67 T _printf_u
0x0800aa6d T _printf_o
0x0800aa73 T _printf_x
0x0800aa79 T _printf_lli
0x0800aa7f T _printf_lld
0x0800aa85 T _printf_llu
0x0800aa8b T _printf_llo
0x0800aa91 T _printf_llx
0x0800aa97 T _printf_l
0x0800aaa1 T _printf_c
0x0800aaa7 T _printf_s
0x0800aaad T _printf_lc
0x0800aab3 T _printf_ls
0x0800aab9 T _printf_percent_end
0x0800aabd T __blocksCopy
0x0800aabd T __rt_lib_init_lc_ctype_2
0x0800aabd T __rt_lib_init_lc_numeric_2
0x0800ab39 T __rt_ctype_table
0x0800ab48 A __aeabi_uldivmod
0x0800ab48 A _ll_udiv
0x0800ab5c A _ll_udiv_donemoving
0x0800ae79 T __aeabi_llsl
0x0800ae79 T _ll_shift_l
0x0800aea1 T __c89vsnprintf
0x0800aed5 T __2snprintf
0x0800af0d T _printf_pre_padding
0x0800af3b T _printf_post_padding
0x0800af5f T _printf_str
0x0800afb1 T _printf_int_dec
0x0800b025 T _printf_longlong_dec
0x0800b09d T _printf_longlong_hex
0x0800b0f9 T _printf_int_hex
0x0800b115 T _printf_ll_hex
0x0800b121 T _printf_hex_ptr
0x0800b139 T __printf
0x0800b2c5 T strtoull
0x0800b2c9 T setlocale
0x0800b2d9 T __aeabi_assert
0x0800b2d9 T __assert
0x0800b359 T memcmp
0x0800b3b1 T strlen
0x0800b3ec A strncmp
0x0800b4dc A __aeabi_memcpy
0x0800b4dc A __rt_memcpy
0x0800b590 A _memcpy_lastbytes
0x0800b5b0 A __aeabi_memmove
0x0800b5b0 A __rt_memmove
0x0800b664 A __memmove_lastfew
0x0800b684 A __aeabi_memcpy4
0x0800b684 A __aeabi_memcpy8
0x0800b684 A __rt_memcpy_w
0x0800b6d0 A _memcpy_lastbytes_aligned
0x0800b6e8 A __aeabi_memmove4
0x0800b6e8 A __aeabi_memmove8
0x0800b6e8 A __rt_memmove_w
0x0800b714 A __memmove_aligned
0x0800b750 A __memmove_lastfew_aligned
0x0800b769 T __aeabi_memset
0x0800b779 T __aeabi_memclr
0x0800b779 T __rt_memclr
0x0800b77d T _memset
0x0800b7bd T __aeabi_memclr4
0x0800b7bd T __aeabi_memclr8
0x0800b7bd T __rt_memclr_w
0x0800b7c1 T _memset_w
0x0800b80c A strcmp
0x0800b8ad T __aeabi_uread4
0x0800b8ad T __rt_uread4
0x0800b8c3 T __aeabi_uwrite4
0x0800b8c3 T __rt_uwrite4
0x0800b8d9 T __aeabi_uread8
0x0800b8d9 T __rt_uread8
0x0800b908 A __aeabi_idiv
0x0800b908 A __aeabi_idivmod
0x0800bb35 T __aeabi_idiv0
0x0800bb39 T __aeabi_ldiv0
0x0800bb3d T __rt_locale
0x0800bb44 A _ll_udiv10
0x0800bbdd T _printf_truncate_signed
0x0800bbef T _printf_truncate_unsigned
0x0800bc01 T _printf_int_common
0x0800bcb9 T _printf_charcount
0x0800bcef T _printf_char_common
0x0800bd15 T _sputc
0x0800bd1f T _snputc
0x0800bd2f T _printf_cs_common
0x0800bd43 T _printf_char
0x0800bd53 T _printf_string
0x0800bd5d T _printf_wctomb
0x0800be19 T _printf_longlong_oct
0x0800be65 T _printf_int_oct
0x0800be7d T _printf_ll_oct
0x0800be91 T __strtoull
0x0800bfa7 T _setlocale_r
0x0800c0b5 T abort
0x0800c0c5 T __assert_puts
0x0800c0d8 A __rt_udiv10
0x0800c105 T _ttywrch
0x0800c115 T _sys_exit
0x0800c121 T __rt_div0
0x0800c12d T __aeabi_errno_addr
0x0800c12d T __errno
0x0800c12d T __rt_errno_addr
0x0800c135 T __lib_sel_fp_printf
0x0800c2e3 T _printf_fp_dec_real
0x0800c54d T _printf_lcs_common
0x0800c561 T _printf_wchar
0x0800c571 T _printf_wstring
0x0800c579 T _strtoull
0x0800c639 T _wcrtomb
0x0800c679 T __rt_SIGABRT
0x0800c681 T __I$use$semihosting
0x0800c681 T __use_no_semihosting_swi
0x0800c683 T __semihosting_library_function
0x0800c685 T _printf_fp_infnan
0x0800c705 T _chval
0x0800c721 T _btod_etento
0x0800c7f9 T __rt_SIGFPE
0x0800c800 A __aeabi_uidiv
0x0800c800 A __aeabi_uidivmod
0x0800c830 A mmu_invalidate_tlb
0x0800c84c A mmu_invalidate_instruction_cache
0x0800c868 A mmu_invalidate_data_cache
0x0800c898 A mmu_enable_instruction_cache
0x0800c8bc A cache_mmu_disable
0x0800c8ec A memory_barrier
0x0800c8f4 A cache_set_memory_barrier_location
0x0800c900 A dcache_clean_all
0x0800c994 A dcache_flush_region
0x0800c9fc A dcache_inval_region
0x0800ca78 A dcache_clean_region
0x0800cae0 A mmu_flush_cache
0x0800cb04 A mmu_flush_cache_and_disable
0x0800cb9c A mmu_relocate_page_table_base
0x0800cbdc A mmu_get_page_table_base
0x0800cbf0 A mmu_set_dacr
0x0800cc04 A qmemset
0x0800cd01 T _btod_d2e
0x0800cd3f T _d2e_denorm_low
0x0800cd85 T _d2e_norm_op1
0x0800cde5 T __btod_div_common
0x0800d11d T _e2e
0x0800d1e3 T _btod_ediv
0x0800d20b T _btod_emul
0x0800d233 T __btod_mult_common
0x0800d480 A __main
0x0800d480 A _main
0x0800d4c4 A ddr_debug_invalidate_tlb
0x0800d4e0 A sbl_save_regs
0x0800d4e4 A sbl1_external_abort_enable
0x0800d4e8 A sbl_loop_here
0x0800d539 T AdcMapLinearInt32toInt32
0x0800d5cd T AuthenticateImage
0x0800d6a5 T BIMC_Disable_All_Periodic
0x0800d6fd T BIMC_Enable_All_Periodic
0x0800d759 T ChipInfo_Close
0x0800d765 T ChipInfo_DalChipInfo_Attach
0x0800d823 T ChipInfo_DeviceDeInit
0x0800d827 T ChipInfo_DeviceInit
0x0800d82b T ChipInfo_DriverDeInit
0x0800d841 T ChipInfo_DriverInit
0x0800daa1 T ChipInfo_GetChipFamily
0x0800daad T ChipInfo_GetChipId
0x0800dab9 T ChipInfo_GetChipIdString
0x0800dacf T ChipInfo_GetChipVersion
0x0800dadd T ChipInfo_GetFamily
0x0800db31 T ChipInfo_GetFamilyByPart
0x0800db85 T ChipInfo_GetFoundry
0x0800dbed T ChipInfo_GetFoundryId
0x0800dbf9 T ChipInfo_GetModemSupport
0x0800dc09 T ChipInfo_GetPart
0x0800dc41 T ChipInfo_GetRawChipId
0x0800dc4f T ChipInfo_GetRawChipVersion
0x0800dc5d T ChipInfo_GetRawPart
0x0800dcb5 T ChipInfo_GetRawVersion
0x0800dd0d T ChipInfo_GetSerialNumber
0x0800dd1d T ChipInfo_GetVersion
0x0800dddd T ChipInfo_Info
0x0800ddf5 T ChipInfo_Open
0x0800ddf9 T ChipInfo_PowerEvent
0x0800ddfd T Clock_APCSMuxMapToSource
0x0800de21 T Clock_BIMCConfigFSM
0x0800de41 T Clock_BIMCIsFSMConfigured
0x0800de59 T Clock_BIMCMuxMapToSource
0x0800de85 T Clock_BIMCQuery
0x0800e015 T Clock_ConfigBIMCMux
0x0800e039 T Clock_ConfigMux
0x0800e0e5 T Clock_ConfigurePLL
0x0800e21d T Clock_ConfigureSource
0x0800e2f5 T Clock_DDRSpeed
0x0800e301 T Clock_DebugInit
0x0800e351 T Clock_DetectMuxCfg
0x0800e379 T Clock_DisablePLL
0x0800e3e9 T Clock_DisableUARTClock
0x0800e439 T Clock_DisableUSB
0x0800e4a9 T Clock_EnablePLL
0x0800e5a9 T Clock_EnableSource
0x0800e681 T Clock_GCCMuxMapToSource
0x0800e6a3 T Clock_I2CInit
0x0800e6a9 T Clock_InitUSB
0x0800e701 T Clock_InitVotes
0x0800e745 T Clock_IsPLLEnabled
0x0800e771 T Clock_MuxMapToSource
0x0800e791 T Clock_PreDDRInit
0x0800e7c1 T Clock_PreDDRInitEx
0x0800e955 T Clock_RailwayConfig
0x0800e95d T Clock_SBLConfig
0x0800e965 T Clock_SDCCMuxMapToSource
0x0800e989 T Clock_SetBIMCSpeed
0x0800ec2d T Clock_SetUARTClockFrequency
0x0800ed51 T Clock_SourceMapToAPCS
0x0800ed73 T Clock_SourceMapToBIMC
0x0800ed9f T Clock_SourceMapToGCC
0x0800edc1 T Clock_SourceMapToMux
0x0800eddd T Clock_SourceMapToSDCC
0x0800edff T Clock_ToggleClock
0x0800ee27 T Clock_TriggerUpdate
0x0800ee59 T DALFW_AddRef
0x0800ee75 T DALFW_AttachToDevice
0x0800eef9 T DALFW_AttachToStringDevice
0x0800f017 T DALFW_Release
0x0800f055 T DALGLBCTXT_AllocCtxt
0x0800f101 T DALGLBCTXT_Init
0x0800f22f T DALSYS_BusyWait
0x0800f233 T DALSYS_DestroyObject
0x0800f237 T DALSYS_EventCreate
0x0800f257 T DALSYS_EventMultipleWait
0x0800f25d T DALSYS_Free
0x0800f275 T DALSYS_GetDALPropertyHandle
0x0800f279 T DALSYS_GetDALPropertyHandleStr
0x0800f2bd T DALSYS_GetPropDir
0x0800f2c9 T DALSYS_GetPropStructPtrArray
0x0800f2d5 T DALSYS_GetPropertyValue
0x0800f2d9 T DALSYS_HeapInit
0x0800f315 T DALSYS_InitMod
0x0800f325 T DALSYS_LogEvent
0x0800f349 T DALSYS_Malloc
0x0800f3c1 T DALSYS_SyncCreate
0x0800f3d5 T DALSYS_SyncEnter
0x0800f3d7 T DALSYS_SyncLeave
0x0800f3d9 T DALTLMMState_Init
0x0800f51d T DALTLMMState_MacroToStruct
0x0800f537 T DALTLMMState_StructToMacro
0x0800f565 T DAL_DeviceAttach
0x0800f5a3 T DAL_DeviceAttachEx
0x0800f5f5 T DAL_DeviceAttachLocal
0x0800f645 T DAL_DeviceDetach
0x0800f679 T DAL_StringDeviceObjectLookup
0x0800f75d T DDRSS_EBI1_PHY_Set_Training_Data
0x0800f7a9 T DDRSS_ddr_phy_dq_rd_training_ddrss
0x0800f921 T DDRSS_ddr_phy_dq_wr_training_ddrss
0x0800fa99 T DDRSS_dq_rd_wr_training_histogram_update
0x0800fad7 T DDRSS_get_ca_exp_pattern
0x0800fb69 T DDRSS_histogram_min_max_scan
0x0800fbeb T DDR_SYNC_INIT
0x0800fc65 T HAL_SDRAM_AHB2PHY_Broadcast_Enable
0x0800fcdd T HAL_SDRAM_BIMC_CA_Training_Exit
0x0800fd35 T HAL_SDRAM_BIMC_CA_Training_Pattern_Set
0x0800fe03 T HAL_SDRAM_BIMC_CA_Training_Pattern_Toggle
0x0800fe1f T HAL_SDRAM_BIMC_Rank_Detection
0x0800fed5 T HAL_SDRAM_BIMC_Update_Clock_Period
0x0800ff49 T HAL_SDRAM_DDR_PHY_CA_training_mode
0x0800ffa9 T HAL_SDRAM_DDR_PHY_Update_RD_CDC_Config
0x0800ffe5 T HAL_SDRAM_DDR_PHY_Update_WR_CDC_Config
0x08010021 T HAL_SDRAM_DDR_PHY_read_dq_training_status_for_ca_training
0x080101b5 T HAL_SDRAM_DDR_Wait
0x080101c9 T HAL_SDRAM_DPE_Disable_Power_Down
0x080101ef T HAL_SDRAM_DPE_Enable_Power_Down
0x0801021d T HAL_SDRAM_DPE_Init
0x080102bd T HAL_SDRAM_DPE_Post_Clock_Switch
0x080102fd T HAL_SDRAM_DPE_Pre_Clock_Switch
0x08010375 T HAL_SDRAM_DPE_Update_AC_Parameters
0x080104cd T HAL_SDRAM_DPE_Update_Latency
0x080105cd T HAL_SDRAM_Enter_Self_Refresh
0x08010605 T HAL_SDRAM_Exit_Self_Refresh
0x08010645 T HAL_SDRAM_Get_Base_Addr
0x080107ed T HAL_SDRAM_Init
0x08010975 T HAL_SDRAM_PHY_Disable_CDC_Cal
0x08010a05 T HAL_SDRAM_PHY_Disable_IO_Cal
0x08010a35 T HAL_SDRAM_PHY_Disable_Rapid_CDC_Cal
0x08010ad1 T HAL_SDRAM_PHY_Enable_CDC_Cal
0x08010b29 T HAL_SDRAM_PHY_Enable_IO_Cal
0x08010b4d T HAL_SDRAM_PHY_Enable_Rapid_CDC_Cal
0x08010be9 T HAL_SDRAM_PHY_Init
0x08010cbd T HAL_SDRAM_PHY_Manual_CDC_Cal
0x08010d7d T HAL_SDRAM_PHY_Manual_IO_Cal
0x08010de9 T HAL_SDRAM_PHY_Update_CDC_Config
0x08010e35 T HAL_SDRAM_PHY_Update_CDC_Config_Training
0x08010e8d T HAL_SDRAM_PHY_Update_CDC_Delay_Target
0x08010f75 T HAL_SDRAM_PHY_Update_Drive_Strength
0x08010fc5 T HAL_SDRAM_RL
0x0801105d T HAL_SDRAM_Ram_Size_Detection
0x08011221 T HAL_SDRAM_Read_MR
0x0801127d T HAL_SDRAM_SCMO_Init
0x0801149d T HAL_SDRAM_SCMO_Rank_Disable
0x08011505 T HAL_SDRAM_SCMO_Rank_Enable
0x08011541 T HAL_SDRAM_SHKE_Device_Init
0x0801179b T HAL_SDRAM_SHKE_Disable_Auto_Refresh
0x080117dd T HAL_SDRAM_SHKE_Disable_HW_Self_Refresh
0x0801181f T HAL_SDRAM_SHKE_Disable_Periodic_SRR
0x08011841 T HAL_SDRAM_SHKE_Disable_ZQCAL
0x08011863 T HAL_SDRAM_SHKE_Enable_Auto_Refresh
0x080118a5 T HAL_SDRAM_SHKE_Enable_HW_Self_Refresh
0x080118e7 T HAL_SDRAM_SHKE_Enable_Periodic_SRR
0x08011909 T HAL_SDRAM_SHKE_Enable_ZQCAL
0x0801192b T HAL_SDRAM_SHKE_Enter_Self_Refresh
0x08011971 T HAL_SDRAM_SHKE_Exit_Self_Refresh
0x080119b5 T HAL_SDRAM_SHKE_Init
0x08011a35 T HAL_SDRAM_WL
0x08011a95 T HAL_SDRAM_Write_MR
0x08011b09 T HAL_SDRAM_ddr_phy_ca_training
0x08011d09 T HAL_SRAM_DDR_PHY_Update_CA_CDC_Config
0x08011d3b T HAL_bimc_EnableSlaveSegment
0x08011d4d T HAL_bimc_GetSlaveSegment
0x08011d63 T HAL_bimc_Init
0x08011d6d T HAL_bimc_IsRemapSupported
0x08011d77 T HAL_bimc_SetRemapSegment
0x08011d85 T HAL_bimc_SetSlaveSegment
0x08011d9d T HAL_tlmm_ConfigGpio
0x08011df9 T HAL_tlmm_Init
0x08011e0d T HAL_tlmm_SetPort
0x08011e29 T HAL_tlmm_WriteConfig
0x08011e41 T HAL_tlmm_WriteGpio
0x08011e7d T HALuart_DisableInterrupts
0x08011e93 T HALuart_GetFifoSize
0x08011ea3 T HALuart_GetInterruptStatus
0x08011ead T HALuart_GetStatus
0x08011eb7 T HALuart_GetTxFifoSize
0x08011ebf T HALuart_ResetErrorStatus
0x08011ec7 T HALuart_ResetReceiver
0x08011ecf T HALuart_ResetTransmitter
0x08011ed7 T HALuart_SetAutoInboundFlowCtl
0x08011ee9 T HALuart_SetCharFormat
0x08011f0b T HALuart_SetCmdSynchronization
0x08011f1d T HALuart_SetDivider
0x08011f23 T HALuart_SetDmaEnable
0x08011f39 T HALuart_SetIrdaEnable
0x08011f53 T HALuart_SetLoopback
0x08011f69 T HALuart_SetOutboundFlowCtl
0x08011f7b T HALuart_SetRxEnable
0x08011f89 T HALuart_SetRxSCEnable
0x08011f9f T HALuart_SetRxWatermark
0x08011fbd T HALuart_SetStaleEvent
0x08011fcf T HALuart_SetStaleTimeout
0x08011ff1 T HALuart_SetTxEnable
0x08011fff T HALuart_SetTxFifoSize
0x08012007 T HALuart_SetTxSCEnable
0x0801201d T HALuart_SetTxWatermark
0x08012033 T HALuart_SetupDmaRx
0x08012037 T HALuart_WriteTxFifo
0x08012087 T I2C_DalI2C_Attach
0x0801208b T ICB_Config_Init
0x080122c3 T ICB_Remap
0x080122cd T ICB_RemapEx
0x080124c5 T ICB_Segments_Init
0x08012541 T IsExternalMemReady
0x08012555 T PerformSHA256
0x0801258f T PlatformInfo_CDTConfigPostDDR
0x080125b9 T PlatformInfo_CDTConfigPreDDR
0x080126f5 T PlatformInfo_DeviceAttach
0x0801275d T PlatformInfo_DriverInit
0x08012761 T PlatformInfo_GetKeyValue
0x080127a9 T PlatformInfo_GetPlatform
0x080127b9 T PlatformInfo_GetPlatformInfo
0x08012ab1 T PmicArb_AddCacheEntry
0x08012bc5 T PmicArb_ExecuteCommand
0x08012d41 T PmicArb_FindChannel
0x08012d9d T PmicArb_GetHwStatus
0x08012dc9 T PmicArb_GetMaxChannelSupport
0x08012dcf T PmicArb_GetNumBusesSupported
0x08012dd5 T PmicArb_HasInterruptSupport
0x08012de1 T PmicArb_Init
0x08012e31 T PmicArb_InvalidateCache
0x08012e89 T PmicArb_UpdateCache
0x08012ecd T SpmiBusCfg_ConfigureChannel
0x08012f35 T SpmiBusCfg_InDynamicChannelMode
0x08012f41 T SpmiBusCfg_Init
0x08012f8d T SpmiBusCfg_SetDynamicChannelMode
0x08012fd5 T SpmiBus_DeInit
0x0801304d T SpmiBus_Init
0x080130a1 T SpmiBus_ReadLong
0x080130c1 T SpmiBus_WriteLong
0x080130e1 T SpmiHal_Init
0x08013101 T SpmiMaster_ConfigHW
0x08013185 T SpmiMaster_LoadFirmware
0x080132ad T SpmiOsNhlos_GetDalProp
0x08013349 T SpmiOs_Free
0x0801334d T SpmiOs_GetAhbClkState
0x08013385 T SpmiOs_GetOwnerId
0x080133a9 T SpmiOs_GetPmicArbBaseAddr
0x0801343d T SpmiOs_GetReservedChannels
0x08013475 T SpmiOs_GetSerialClkState
0x080134ad T SpmiOs_GetTimeTick
0x080134b3 T SpmiOs_HandleTransactionError
0x08013509 T SpmiOs_Malloc
0x0801350d T SpmiOs_RegisterISR
0x08013511 T SpmiOs_Wait
0x08013515 T System_DalSystem_Attach
0x0801351d T TLMM_Close
0x08013521 T TLMM_ConfigGpio
0x08013535 T TLMM_ConfigGpioGroup
0x08013611 T TLMM_DalTlmm_Attach
0x080136bd T TLMM_DeviceDeInit
0x080136d5 T TLMM_DeviceInit
0x08013919 T TLMM_DriverDeInit
0x0801391d T TLMM_DriverInit
0x08013921 T TLMM_GpioOut
0x0801392f T TLMM_Info
0x08013949 T TLMM_Open
0x0801394d T TLMM_PostInit
0x080139a5 T TLMM_PowerEvent
0x080139a9 T TLMM_SetInactiveConfig
0x080139ed T TLMM_SetPort
0x08013a51 T Tlmm_ConfigGpioGroup
0x08013b75 T Tlmm_Init
0x08013c0d T Uart_busy_wait
0x08013c11 T Uart_clock_close
0x08013c5d T Uart_clock_open
0x08013ce1 T Uart_deinit
0x08013d69 T Uart_get_driver_properties
0x08013dd1 T Uart_get_properties
0x08013ed1 T Uart_init
0x08013fe5 T Uart_tlmm_close
0x08014049 T Uart_tlmm_open
0x080140c7 T Uart_transmit
0x08014141 T VAdcHalGetConversionCode
0x08014195 T VAdcHalGetRevisionInfo
0x08014201 T VAdcHalGetStatus
0x08014295 T VAdcHalRequestConversion
0x080142cd T VAdcHalSetConversionParameters
0x08014375 T VAdcHalSetEnable
0x080143b5 T VAdcHalSetOpMode
0x080143f5 T VAdcHalSetSequencerParameters
0x08014461 T VAdcHalStoreFabID
0x080144dd T VAdcScalePmicTherm
0x080144f1 T VAdcScaleTdkNTCGTherm
0x0801452f T VAdc_Calibrate
0x08014659 T VAdc_Close
0x08014681 T VAdc_DalAdcDevice_Attach
0x0801477f T VAdc_DeviceDeInit
0x080147a1 T VAdc_DeviceInit
0x08014935 T VAdc_DriverDeInit
0x08014939 T VAdc_DriverInit
0x0801493d T VAdc_GetChannel
0x08014989 T VAdc_GetChannelStatus
0x0801498f T VAdc_GetDeviceProperties
0x0801499b T VAdc_Info
0x080149b5 T VAdc_Open
0x080149d5 T VAdc_PowerEvent
0x08014bff T VAdc_ReadChannelSync
0x08014c4f T VAdc_RecalibrateChannel
0x08014c55 T VAdc_RecalibrateChannelSync
0x08014cfd T VAdc_ScaleResult
0x08014d61 T VAdc_ScaleResultAbsolute
0x08014db9 T VAdc_StartConversion
0x08014f89 T _DALSYS_GetDALPropertyHandle
0x08014fcd T _DALSYS_GetPropertyValue
0x0801508b T _DALSYS_memscpy
0x08015317 T __ARM_fpclassify
0x08015341 T __rt_raise
0x0801536d T __stack_chk_fail
0x0801536f T _is_digit
0x0801537d T adjust_channel
0x08015537 T adjust_memory_map
0x08015671 T authenticateSignedHash
0x080157a1 T bLoad8
0x080157d7 T bStor8
0x080157f9 T basic_dotest
0x08015829 T basic_postest
0x08015859 T bimc_EnableSlaveSegment
0x08015889 T bimc_GetSlaveSegment
0x080159b5 T bimc_Init
0x080159e5 T bimc_IsRemapSupported
0x080159f5 T bimc_SetRemapSegment
0x08015b3d T bimc_SetSlaveSegment
0x08015c2d T blockdev_close
0x08015c49 T blockdev_get_device_info
0x08015c65 T blockdev_get_device_size
0x08015c8d T blockdev_get_entire_device_id
0x08015ca5 T blockdev_is_embedded_device
0x08015cc1 T blockdev_open
0x08015cdd T blockdev_read
0x08015d21 T boot_DALSYS_HeapInit
0x08015d25 T boot_DALSYS_InitMod
0x08015d29 T boot_ICB_Config_Init
0x08015d2d T boot_ICB_Remap
0x08015d31 T boot_ICB_Segments_Init
0x08015d35 T boot_busywait_init
0x08015d39 T boot_clock_DisableUSB
0x08015d3d T boot_clock_InitUSB
0x08015d41 T boot_clock_SetUARTClockFrequency
0x08015d45 T boot_clock_debug_init
0x08015d49 T boot_clock_disable_UARTClock
0x08015d4d T boot_clock_get_ddr_speed
0x08015d51 T boot_clock_set_bimcspeed
0x08015d95 T boot_ddr_debug
0x08015d99 T boot_ddr_get_info
0x08015d9d T boot_ddr_initialize_device
0x08015da1 T boot_ddr_set_params
0x08015da5 T boot_dload_transition_pbl_forced_dload
0x08015dc5 T boot_err_fatal
0x08015dcd T boot_error_handler
0x08015ef5 T boot_flash_dev_if_get_singleton
0x08015f31 T boot_get_config_data_block
0x08015fed T boot_get_time
0x08016031 T boot_hw_powerdown
0x08016079 T boot_hw_reset
0x080160ad T boot_init_timer
0x08016115 T boot_is_ddr_initialized
0x08016121 T boot_log_boot_config_register
0x08016179 T boot_log_get_meta_info
0x08016185 T boot_log_image_version
0x08016201 T boot_log_init
0x08016229 T boot_log_init_ram
0x0801628d T boot_log_init_uart
0x08016299 T boot_log_message
0x0801629f T boot_log_message_optional_data
0x080162c9 T boot_log_message_ram
0x0801637d T boot_log_message_raw
0x080163a5 T boot_log_message_uart
0x08016531 T boot_log_set_meta_info
0x0801653d T boot_log_start_timer
0x08016541 T boot_log_stop_timer
0x08016547 T boot_log_stop_timer_optional_data
0x080165f9 T boot_mmu_page_table_map_mem_block_list
0x0801667d T boot_mmu_page_table_map_single_mem_block
0x080166c1 T boot_pbl_get_flash_type
0x080166f9 T boot_pm_device_init
0x080166fd T boot_pm_pon_ps_hold_cfg
0x08016701 T boot_pre_ddr_clock_init
0x08016705 T boot_query_bimc_clock
0x08016709 T boot_railway_init
0x0801670d T boot_start_timer
0x08016725 T boot_stop_timer
0x08016769 T boot_strlen
0x08016779 T boot_uart_init
0x0801677d T boot_uart_tx
0x08016781 T booting_from_storage_media
0x080167a1 T busywait
0x080167d5 T busywait_init
0x08016865 T calineshmoo_dotest
0x080168f5 T calineshmoo_init
0x08016945 T calineshmoo_postest
0x08016b91 T clear_histogram
0x08016c29 T common_decimal_char_to_int
0x08016d19 T compress_regions
0x0801709d T configure_remaps
0x080171cd T convert_ddr_regions
0x0801726d T count_leading_zeroes
0x08017281 T count_set_bits
0x080172e1 T count_trailing_zeroes
0x08017311 T crc_32_calc
0x080174a1 T dci_clk_regime_msm_reset_assert
0x080174c5 T dci_clk_regime_msm_reset_deassert
0x080174e9 T dci_dcache_flush
0x080174ed T dci_dcache_inval
0x080177bd T dci_init_phy
0x080177e1 T dci_is_streaming_mode_disable_required
0x080177e5 T dci_set_bulk_progress
0x080177f1 T dci_skip_enumeration
0x08017881 T ddi_firehose_add_ddi_infomation
0x080179c5 T ddi_firehose_fetch_entiy
0x08017b05 T ddi_firehose_main
0x08017c95 T ddi_firehose_post_work
0x08017c99 T ddi_firehose_pre_work
0x08017e51 T ddi_firehose_print_debug
0x08017e95 T ddi_firehose_print_log
0x08017f49 T ddi_firehose_print_response
0x0801800d T ddi_firehose_update_item_set
0x0801801d T ddr_basically_test
0x080180f5 T ddr_busywait
0x0801811d T ddr_debug
0x0801813d T ddr_debug_ca_cdc_sweep
0x080184a5 T ddr_debug_dq_cdc_sweep
0x080188b1 T ddr_debug_get_clock_info
0x0801895d T ddr_debug_init
0x080189a1 T ddr_debug_output
0x080189a3 T ddr_debug_tuning_init
0x080189a7 T ddr_divide_func
0x080189b9 T ddr_do_phy_training
0x08018c85 T ddr_function_defect_test
0x08018ce1 T ddr_function_defect_test_bit_flip
0x08018d69 T ddr_function_defect_test_check_board
0x08018db5 T ddr_function_defect_test_solid_bits
0x08018dfd T ddr_get_info
0x08018e4d T ddr_get_params
0x08018e89 T ddr_get_shared_header
0x08018e95 T ddr_get_size
0x08018ee9 T ddr_get_status
0x08018f21 T ddr_get_trained_params
0x08018f3d T ddr_get_training_checksum
0x08018f59 T ddr_get_training_cookie
0x08018f6d T ddr_init
0x08018fb5 T ddr_initialize_device
0x0801908d T ddr_mem_read
0x080190ad T ddr_mem_write_high_speed
0x080190d5 T ddr_mem_write_low_speed
0x08019191 T ddr_param_interleaved
0x0801919d T ddr_params_detection
0x0801924d T ddr_params_get_training_data
0x0801925d T ddr_params_set_shared_memory
0x080192b5 T ddr_params_set_training_data
0x080192e1 T ddr_phy_training
0x08019399 T ddr_read_pattern
0x08019681 T ddr_set_config
0x080196d9 T ddr_set_params
0x08019739 T ddr_set_training_checksum
0x08019761 T ddr_set_training_cookie
0x08019775 T ddr_target_init
0x08019a29 T ddr_training_is_required
0x08019aed T ddr_tuning_log_out
0x08019bd5 T ddr_update_info
0x08019d99 T ddr_update_size
0x08019e59 T ddr_write
0x08019e71 T ddr_write_pattern
0x0801a251 T debugMessage
0x0801a291 T dqlineshmoo_dotest
0x0801a3f9 T dqlineshmoo_init
0x0801a449 T dqlineshmoo_postest
0x0801a50d T firehoseResetValidation
0x0801a551 T firehoseResetValidationVariables
0x0801a60d T free
0x0801a611 T fs_memscpy
0x0801a68d T getNextPacket
0x0801a6a9 T get_device_configuration
0x0801a809 T get_largest_valid_size
0x0801a839 T get_minimum_segment_count
0x0801a8e5 T get_simple_segment_count
0x0801acb5 T handleNop
0x0801b36d T hotplug_add_hdev_to_phy_hdev
0x0801b41d T hotplug_add_partition
0x0801b439 T hotplug_counters_update
0x0801b46d T hotplug_dev_get_device_info
0x0801b4dd T hotplug_discover_device
0x0801b57d T hotplug_fat_parse_check
0x0801b591 T hotplug_find_partition
0x0801b605 T hotplug_find_physical_device
0x0801b665 T hotplug_gpt_parse_close
0x0801b671 T hotplug_gpt_parse_open
0x0801b6c5 T hotplug_gpt_parse_read
0x0801b6f1 T hotplug_hdev_alloc
0x0801b735 T hotplug_hdev_free
0x0801b785 T hotplug_is_gpt_data_partition
0x0801b7a9 T hotplug_is_it_a_fat_partition
0x0801b7cd T hotplug_is_mbr_fat_partition
0x0801b7fb T hotplug_is_valid_hdev
0x0801b81d T hotplug_is_valid_parti
0x0801b835 T hotplug_is_valid_physical_hdev
0x0801b8a5 T hotplug_iter_close
0x0801b8bd T hotplug_iter_get_next
0x0801bb47 T hotplug_iter_open
0x0801bb65 T hotplug_mbr_check_extended
0x0801bbcb T hotplug_mbr_parse_close
0x0801bbd9 T hotplug_mbr_parse_open
0x0801bbfd T hotplug_mbr_read_extended
0x0801bca1 T hotplug_mbr_read_primary
0x0801bd19 T hotplug_open_device
0x0801bddb T hotplug_open_device_by_gpt_partition_type
0x0801be31 T hotplug_partition_alloc
0x0801be7d T hotplug_partition_ref
0x0801bec1 T hotplug_partition_unref
0x0801bf31 T hotplug_pparser_cache_init
0x0801bfad T hotplug_task_discover_device
0x0801c12d T initFirehoseProtocol
0x0801c1e9 T initFirehoseTransport
0x0801c261 T isAuthenticationEnabled
0x0801c381 T logDigest
0x0801c435 T logMessage
0x0801c4e9 T malloc
0x0801c549 T map_segments
0x0801cba5 T memscpy
0x0801cdd1 T our_memset
0x0801cde5 T packet_handle_incoming_buf
0x0801ce71 T packet_handle_outgoing_buf
0x0801d3f5 T pm_clk_busy_wait
0x0801d409 T pm_comm_channel_init_internal
0x0801d441 T pm_comm_info_init
0x0801d499 T pm_comm_read_byte
0x0801d4d9 T pm_comm_read_byte_array
0x0801d515 T pm_comm_write_byte
0x0801d549 T pm_comm_write_byte_array
0x0801d579 T pm_comm_write_byte_mask
0x0801d5e9 T pm_device_init
0x0801d617 T pm_device_post_init
0x0801d6b9 T pm_device_pre_init
0x0801d6e9 T pm_get_num_slaves_per_pmic
0x0801d6ed T pm_get_pbs_info
0x0801d76d T pm_get_pmic_info
0x0801d7a1 T pm_get_pmic_model
0x0801d7c9 T pm_get_slave_id
0x0801d811 T pm_is_pmic_supported
0x0801d865 T pm_ldo_get_data
0x0801d879 T pm_ldo_volt_level
0x0801d899 T pm_log_pon_reasons
0x0801da1d T pm_malloc
0x0801db27 T pm_mpp_config_analog_input
0x0801dbf9 T pm_mpp_enable
0x0801dc3d T pm_mpp_get_data
0x0801dc51 T pm_pbs_config_access
0x0801dc9f T pm_pbs_disable_access
0x0801dcab T pm_pbs_enable_access
0x0801dcb9 T pm_pbs_info_init
0x0801e09d T pm_pbs_ram_image_load
0x0801e129 T pm_pbs_ram_image_verify
0x0801e1a5 T pm_pon_get_all_pon_reasons
0x0801e1ed T pm_pon_init
0x0801e2c5 T pm_pon_ps_hold_cfg
0x0801e371 T pm_pon_reset_source_cfg
0x0801e559 T pm_pwr_volt_level_alg
0x0801e665 T pm_resolve_chip_revision
0x0801e6a1 T pm_sbl_config
0x0801e815 T pm_sbl_validate_reg_config
0x0801e8a1 T pm_smbchg_get_data
0x0801e8b5 T pm_smbchg_usb_chgpth_input_sts
0x0801e939 T pm_smps_get_data
0x0801e94d T pm_smps_volt_level
0x0801e96d T pm_target_information_get_specific_info
0x0801e991 T pm_target_information_init
0x0801eb95 T pm_target_information_spmi_dyn_chnl_cfg
0x0801ebb7 T pm_target_ps_hold_cfg
0x0801ec59 T pm_version_detect
0x0801ed7d T pmapp_ps_hold_cfg
0x0801f079 T processNextXMLTag
0x0801f271 T processddicommand
0x0801fa81 T qhsusb_al_bulk_get_max_packet_size
0x0801fa87 T qhsusb_al_bulk_get_max_raw_data_size
0x0801fa8d T qhsusb_al_bulk_handle_rx_zlp_mode
0x0801fabd T qhsusb_al_bulk_init
0x0801fc75 T qhsusb_al_bulk_poll
0x0801fccd T qhsusb_al_bulk_receive
0x0801fe11 T qhsusb_al_bulk_receive_zlp
0x0802011d T qhsusb_al_bulk_setup_timer
0x0802014d T qhsusb_al_bulk_shutdown
0x080201e9 T qhsusb_al_bulk_start_timer
0x08020211 T qhsusb_al_bulk_stop_timer
0x08020229 T qhsusb_al_bulk_transmit
0x08020369 T qhsusb_al_check_timer_for_expiry
0x080203ed T qhsusb_boot_dload_get_dload_info_ptr
0x080203f1 T qhsusb_boot_dload_is_dload_info_pid_valid
0x0802040d T qhsusb_boot_dload_is_dload_info_serial_num_valid
0x08020429 T qhsusb_boot_log_message
0x0802042b T qhsusb_dcd_control_transfer
0x08020459 T qhsusb_dcd_init
0x080204b9 T qhsusb_dcd_poll
0x080204c5 T qhsusb_dcd_port_status_changed
0x08020523 T qhsusb_dcd_set_config
0x08020605 T qhsusb_dcd_shutdown
0x08020641 T qhsusb_dci_cancel_transfer
0x080206f9 T qhsusb_dci_cancel_transfer_wo_dqh_dtd
0x0802074d T qhsusb_dci_clk_disable
0x08020751 T qhsusb_dci_clk_enable
0x08020755 T qhsusb_dci_clk_is_usb_system_clk_on
0x08020761 T qhsusb_dci_config_endpoint
0x08020815 T qhsusb_dci_connect
0x08020825 T qhsusb_dci_dcache_flush
0x08020827 T qhsusb_dci_dcache_inval
0x08020829 T qhsusb_dci_delay_ms
0x08020843 T qhsusb_dci_delay_us
0x08020849 T qhsusb_dci_enable_test_mode
0x0802088d T qhsusb_dci_get_enum_flag
0x080208a5 T qhsusb_dci_get_phy_tuning_parameters
0x080208c1 T qhsusb_dci_get_speed
0x080208d1 T qhsusb_dci_init
0x08020999 T qhsusb_dci_is_attached
0x080209b5 T qhsusb_dci_is_suspended
0x080209c9 T qhsusb_dci_is_vbus_valid
0x080209fd T qhsusb_dci_poll_events
0x08020ac9 T qhsusb_dci_read_scratch
0x08020add T qhsusb_dci_read_serial_number
0x08020b41 T qhsusb_dci_set_address
0x08020b5d T qhsusb_dci_set_enum_flag
0x08020b69 T qhsusb_dci_set_max_packet_size
0x08020b75 T qhsusb_dci_shutdown
0x08020bcd T qhsusb_dci_stall_endpoint
0x08020c21 T qhsusb_dci_start_timer
0x08020c7d T qhsusb_dci_transfer_request
0x08020d49 T qhsusb_dci_ulpi_read
0x08020d8d T qhsusb_dci_ulpi_write
0x08020de9 T qhsusb_dci_unconfig_endpoint
0x08020e39 T qhsusb_dci_unstall_endpoint
0x08020ee9 T qhsusb_dci_write_scratch
0x08020ef9 T qhsusb_fd_hdlc_bulk_in_progress
0x08020efd T qhsusb_fd_hdlc_init
0x08021111 T qhsusb_fd_hdlc_rx_pkt
0x08021165 T qhsusb_fd_hdlc_set_core
0x08021191 T qhsusb_fd_hdlc_shutdown
0x080211ad T qhsusb_fd_hdlc_tx_pkt
0x0802136d T qhsusb_fd_set_bulk_mode
0x08021381 T qhsusb_get_shared_imem_address
0x08021389 T qhsusb_log
0x080213c1 T qhsusb_log_message
0x080213c5 T qhsusb_loop_here
0x08021461 T qhsusb_submit_urb
0x08021587 T qmemcpy
0x08021679 T rail_id
0x080216b9 T railway_aggregated_voltage_target_uv
0x08021751 T railway_corner_vote
0x080217b5 T railway_create_voter
0x08021a51 T railway_init
0x08021b21 T railway_level_vote
0x08021c71 T railway_target_init
0x08021d25 T railway_transition_rails
0x08021d61 T railway_transitioner_init
0x08021f21 T readAndProcessXML
0x08022035 T readChannel
0x080221b9 T recvNextPacket
0x08022711 T report_ddinfo
0x08022b0d T rpm_rail_corner_remap
0x08022b85 T rpm_rail_level_remap
0x08022c31 T sbl1_ddr_debug_main_ctl
0x08022c3f T sbl1_ddr_debug_set_rout
0x08022c75 T sbl1_wdogpath_main_ctl
0x08022e6d T sbl_error_handler
0x08022ee9 T sechsharm_sha256_final
0x08022f41 T sechsharm_sha256_init
0x08023aa9 T sechsharm_sha256_update
0x08023b89 T sendDDIResponseFields
0x08023ced T sendResponse
0x08023cf5 T sendResponseFields
0x08023e69 T sendXMLBuffer
0x08023e91 T signalines_dotest
0x08023ec1 T signalines_postest
0x08023ef1 T smem_alloc
0x080240d5 T smem_ext_get_smem_base
0x080240d9 T smem_ext_get_smem_size
0x080240dd T smem_get_offset
0x08024131 T smem_get_phys_base_addr
0x08024149 T smem_get_size
0x08024161 T smem_init
0x080241f9 T smem_map_base_va
0x080241fd T smem_map_memory_va
0x08024209 T smem_map_smem_targ_info
0x08024225 T smem_map_spinlock_region_va
0x08024229 T smem_os_ext_get_smem_base
0x0802424d T smem_os_ext_get_smem_size
0x08024271 T smem_set_base_addr
0x08024295 T smem_set_ext_mem_region
0x080242e9 T smem_set_spin_lock_api
0x080242ed T smem_set_spinlock_base_addr
0x08024305 T smem_spin_lock
0x08024307 T smem_spin_lock_init
0x08024309 T smem_spin_unlock
0x0802430d T smem_version_set
0x08024371 T stringToNumber
0x080243b9 T strlcat
0x0802440f T strlcpy
0x08024451 T strncasecmp
0x08024591 T uart_log
0x0802460d T validateXMLBuffer
0x08024781 T writeChannel
0x0802482d T xmlGetAttributeValue
0x0802486f T xmlGetTag
0x080248b1 T xmlGetToken
0x08024c31 T xmlInitReader
0x08024c47 T xmlInitWriter
0x08024c71 T xmlIsAttribute
0x08024c97 T xmlIsTag
0x08024cbd T xmlWriterMarkRollbackPoint
0x08024cdd T xmlWriterRawCloseTag
0x08024ce9 T xmlWriterRawCloseTagName
0x08024cf9 T xmlWriterRawStartTag
0x08024d05 T xmlWriterRawStartTagNoAttributes
0x08024d15 T xmlWriterRawWrite
0x08024d29 T xmlWriterRawWriteArgList
0x08024d8d T xmlWriterRawWriteAttribute
0x08024da5 T xmlWriterRawWriteAttributeValueFromBuffer
0x08024e09 T xmlWriterRawWriteFromBuffer
0x08024e53 T xmlWriterReset
0x08024e69 T _get_lc_ctype
0x08024e95 T _get_lc_numeric
0x08024ec1 T __fpl_dcheck_NaN1
0x08024ed1 T __aeabi_d2uiz
0x08024ed1 T _dfixu
0x08024f2b T __aeabi_ui2d
0x08024f2b T _dfltu
0x08024f51 T __fpl_dnaninf
0x08024fed T _printf_fp_dec
0x08024ff1 T __fpl_return_NaN
0x08025055 T __ARM_scalbn
0x080250b1 T __fpl_cmpreturn
0x080250e0 N __I$use$fp
0x080250e8 D L2_parity_error_in_sbl
0x080250f0 D page_table_is_in_ddr
0x080250f4 D sbl1_ddr_mem_block
0x08025164 D sbl_dload_entry
0x08025168 D config_data_table
0x0802557c D ddr_init_done
0x08025588 D wdog_reset
0x0802558c D ddr_params_set_enhance_whitelist
0x080255d0 D __stack_chk_guard
0x080255d8 D bl_err_if
0x080255f8 D trans_if
0x0802561c D boot_shared_imem_cookie_ptr
0x08025628 D gDALProcessDriverModList
0x08025650 D ddr_fmax
0x08025654 D item_result_rsp
0x08025664 D item_dqlineshmoo_arg
0x08025724 D item_calineshmoo_arg
0x0802576c D ddi_firehose_pack_items
0x0802580c D ddi_firehose_pack
0x08025954 D dev_config_valid
0x0802596c D DALPROP_StructPtrs
0x08025b18 D gDALModDriverInfoList
0x08025b40 D smem_hw_mutex_base_ptr
0x08025b48 D smem_init_info
0x08025b68 D mx_rail_id
0x08025b6c D railway
0x08025cdc D ddr_bimc_config_MSM8x17_LPDDR2
0x080261a4 D ddr_phy_config_MSM8x17_LPDDR2
0x080261fc D ddr_caphy_config_MSM8x17_LPDDR2
0x080262ac D ddr_dqphy_config_MSM8x17_LPDDR2
0x0802634c D ddr_bimc_config_MSM8x17_LPDDR3
0x080263fc D ddr_phy_config_MSM8x17_LPDDR3
0x08026404 D ddr_caphy_config_MSM8x17_LPDDR3
0x0802640c D ddr_dqphy_config_MSM8x17_LPDDR3
0x08026414 D ddr_bimc_config_base
0x08026418 D ddr_phy_config_base
0x0802641c D ddr_caphy_config_base
0x08026420 D ddr_dqphy_config_base
0x08026424 D ddr_bimc_config_delta
0x08026428 D ddr_phy_config_delta
0x0802642c D ddr_caphy_config_delta
0x08026430 D ddr_dqphy_config_delta
0x08026434 D ca_training_pattern
0x08026464 D dq_training_pattern
0x08026525 D PATTERN
0x0802654c D pattern_name
0x08026600 D start_address
0x08026604 D test_size
0x08026608 D whichByte
0x08026609 D rdcdc_scan
0x0802660c D error_statistics
0x08026610 D clock_index
0x08026644 D quitDDI
0x08026648 D ddi_firehose_package
0x0802664c D pbl_shared_global
0x08026680 D icbcfg_boot_data
0x080269c8 D icbcfg_boot_prop
0x080269d0 D map_ddr_regions
0x080269e0 D channel_map
0x080269e4 D bimc_hal_info
0x08026a08 D safe_reset_seg
0x08026a28 D msm8917_all
0x08026a60 D configs
0x08026a64 D icbcfg_info
0x08026a94 D pmicArbBaseAddrs
0x08026ae4 D hotplug_init_complete
0x08026ae8 D hotplug_init_no_poll_complete
0x08026aec D hotplug_crit_sect
0x08026af0 D hotplug_total_devices
0x08026af4 D hotplug_total_physical_devices
0x08026af8 D hotplug_total_partitions
0x08026b10 D Clock_SBLConfigData
0x08027b88 D Clock_SBL_MuxMap
0x08027bb4 D Clock_SBL_SourceMap
0x08027be0 D BIMCPLLConfig
0x08027e78 D settings_test_flag_reg
0x08027e7c D fts_range
0x08027e80 D fts_volt
0x08027e98 D fts2p5_range
0x08027e9c D fts2p5_volt
0x08027eb4 D hfs_range
0x08027eb8 D hfs_volt
0x08027ed0 D n1200_range
0x08027ed4 D n1200_volt
0x08027ef8 D n600_range
0x08027efc D n600_volt
0x08027f20 D pmos_range
0x08027f24 D pmos_volt
0x08027f60 D ln_range
0x08027f64 D ln_volt
0x08027f7c D nmos_range
0x08027f80 D nmos_volt
0x08027fa4 D ult_buck_range_1
0x08027fa8 D ult_buck_volt_1
0x08027fc0 D ult_buck_range_2
0x08027fc4 D ult_buck_volt_2
0x08027fd0 D ult_pmos_range
0x08027fd4 D ult_pmos_volt
0x08027fe0 D ult_nmos_range
0x08027fe4 D ult_nmos_volt
0x08027ff0 D clk_reg
0x08027ffa D smps_reg
0x08028032 D ldo_reg
0x0802806a D vs_reg
0x080280a2 D pwm_reg
0x080280be D wled_ctrl_reg
0x08028112 D wled_sink_reg
0x08028164 D wled_reg
0x0802816c D ibb_reg
0x080281bc D lab_reg
0x080281f8 D clk_sleep_reg
0x080281fc D clk_xo_reg
0x08028200 D clk_common
0x0802820e D gpio_reg
0x08028238 D mpp_reg
0x08028264 D rgb_reg
0x0802826e D lpg_reg
0x0802829a D vib_reg
0x080282a4 D fg_batt_reg
0x080282ea D fg_memif_reg
0x08028322 D fg_adc_usr_reg
0x08028370 D fg_reg
0x0802837c D pbs_client_reg
0x08028398 D smbchg_chgr_reg
0x080283e0 D smbchg_bat_if_reg
0x0802842c D smbchg_usb_chgpth_reg
0x08028470 D smbchg_dc_chgpth_reg
0x080284a8 D smbchg_misc_reg
0x080284ec D smbchg_reg
0x08028500 D coincell_reg
0x0802850c D typec_reg
0x0802851c D led_array
0x08028528 D rgb_configs
0x08028540 D led_info
0x0802854c D smbchg_specific_data
0x08028594 D chg_range_data
0x0802868c D fg_sram_data
0x080286e0 D mpp_specific
0x080286e4 D vib_specific
0x080286e8 D sbl_specific_data
0x080286ea D pm_pbs_info_data_a
0x08028700 D pm_pbs_info_data_b
0x08028718 D pm_pbs_info_data
0x08028720 D pm_sbl_seq
0x08029ef0 D pm_pbs_seq
0x0802a6f0 D pmi8940_led_array
0x0802a6fc D pmi8940_rgb_configs
0x0802a714 D pmi8940_led_info
0x0802a720 D pmi8940_smbchg_specific_data
0x0802a768 D pmi8940_chg_range_data
0x0802a860 D pmi8940_fg_sram_data
0x0802a8b4 D pmi8940_mpp_specific
0x0802a8b8 D pmi8940_vib_specific
0x0802a8bc D pmi8940_sbl_specific_data
0x0802a8be D pmi8940_pm_pbs_info_data_a
0x0802a8d4 D pmi8940_pm_pbs_info_data_b
0x0802a8ec D pmi8940_pm_pbs_info_data
0x0802a8f4 D pmi8940_pm_sbl_seq
0x0802c13c D pmi8940_pm_pbs_seq
0x0802c93c D pmi8950_led_array
0x0802c948 D pmi8950_rgb_configs
0x0802c960 D pmi8950_led_info
0x0802c96c D pmi8950_smbchg_specific_data
0x0802c9b4 D pmi8950_chg_range_data
0x0802caac D pmi8950_fg_sram_data
0x0802cb00 D pmi8950_mpp_specific
0x0802cb04 D pmi8950_vib_specific
0x0802cb08 D pmi8950_sbl_specific_data
0x0802cb0a D pmi8950_pm_pbs_info_data_a
0x0802cb20 D pmi8950_pm_pbs_info_data_b
0x0802cb38 D pmi8950_pm_pbs_info_data
0x0802cb40 D pmi8950_pm_sbl_seq
0x0802e3c4 D pmi8950_pm_pbs_seq
0x0802ec0a D hdlc_usb_config_obex
0x0802ec2a D hdlc_usb_config_obex_only
0x0802ed88 D sw_config
0x0802ed98 D sw_device
0x0802ee44 D sw_strings
0x0802eeb8 D uart_driver_props
0x0802eebc D static_uart_context
0x0802ef08 D gVAdcDrvCtxt
0x0802f1a0 D TLMM_DriverCtxt
0x0802f240 D uart_log_struct
0x0802f448 D g_bIsPM8950v1_0
0x0802f458 D amPartMap
0x0802f590 D chipIdMap
0x0802f6d8 D pgLowPowerConfigs
0x0802f6e0 D gnTotalGPIO
0x0802f6e4 D hNonDalProps
0x0802f6f0 D pgtState
0x0802f6fc D boot_err_log_ptr
0x0802f700 D DDR_PHY_INIT_CDC_DELAY
0x0802f704 D ddr_func_tbl
