<driver name="NULL">
   <global_def>
   </global_def>
   <device id="/dev/icbcfg/boot">
     <props name="icbcfg_info" type=DALPROP_ATTR_TYPE_STRUCT_PTR>
        icbcfg_info
     </props> 
   </device>   
</driver>
