;=========================================================================
;
;*
;  This file contains the implementation for HoneyBadger RPM to boot
;
;@par EXTERNALIZED FUNCTIONS
;  (none)
;
;@par INITIALIZATION AND SEQUENCING REQUIREMENTS
;  (none)
;
;Copyright (C) 2014 QUALCOMM Technologies Incorporated.
;All Rights Reserved. QUALCOMM Proprietary and Confidential.
;
;*
;=========================================================================
;                             Edit History
;$Header: 
;$Date: 2015/06/30 $
;
; when       who       what, where, why
; --------   ---       ---------------------------------------------------
;
;=========================================================================
                IMPORT  ||Image$$CODE_RAM_SAVE$$Base||
;-------------------------------------------------------------------------
;                           DATA
;-------------------------------------------------------------------------
                AREA    RPM_ENTRY, DATA, READONLY
__Vectors                               ; Minimal Vector Table entries at 0x0 for boot
                DCD     ||Image$$CODE_RAM_SAVE$$Base||
                                        ; Initial Main SP
                DCD     Reset_Handler   ; Reset Handler
               ;DCD     NMI_Handler       ?
               ;DCD     HardFault_Handler ?
;-------------------------------------------------------------------------
;                           FUNCTION DEFINITIONS
;-------------------------------------------------------------------------
                AREA    |.text|, CODE, READONLY
Reset_Handler
                IMPORT  __main
                LDR     R0, =__main
                BX      R0
                END
