adsp_pls_add_lookup
remote_handle_close
remote_handle_invoke
remote_handle_open
adsp_addref_mmap
adsp_release_mmap
adsp_amdb_add_capi_exp
adsp_amdb_add_appi_exp
adsp_amdb_remove_capi_exp
adsp_amdb_remove_appi_exp
adsp_amdb_remove_all_capi_exp
adsp_amdb_remove_all_appi_exp
adsp_amdb_print_all_capi_exp
adsp_amdb_print_all_appi_exp
adsp_amdb_add_capi_ex_exp
adsp_amdb_add_capi_v2_exp
adsp_amdb_remove_capi_v2_exp
adsp_amdb_remove_capi_ex_exp
adsp_amdb_remove_all_capi_v2_exp
adsp_amdb_print_all_capi_v2_exp
Adm_FastrpcSetParam
Adm_FastrpcGetParam
HAP_debug_runtime
std_memscpy
std_memsmove
SigVerify_HaveTestRoot
adsp_power_boost_on
adsp_power_boost_off
HAP_power_request
HAP_power_request_abs
HAP_power_get_max_speed
HAP_power_set
HAP_power_get
HAP_HVX_power_request
HAP_HVX_power_release
HAP_pls_add
HAP_pls_add_lookup
HAP_pls_lookup
HAP_get_chip_family_id
HAP_cx_free
HAP_cx_malloc
HAP_perf_get_time_us
HAP_perf_get_pcycles
HAP_debug
HAP_debug_v2
HAP_setFARFRuntimeLoggingParams
apps_mem_request_map
apps_mem_request_unmap
apps_mem_request_map64
apps_mem_request_unmap64
HAP_mem_set_grow_size
HAP_mem_get_stats
HAP_clear_registers
HAP_set_userpd_mode
HAP_get_userpd_mode
