<driver name="NULL">
 <device id="/statichashes/fastrpc_shell_0">
  <props name="num_segments" type=DALPROP_ATTR_TYPE_UINT32>4</props>
  <props name="hash" type=DALPROP_ATTR_TYPE_BYTE_SEQ>0x4b, 0xdb, 0x3c, 0x87, 0xb1, 0xb0, 0x71, 0x35, 0x60, 0x80, 0x47, 0xb6, 0x8a, 0xa7, 0x6b, 0x51, 0xef, 0x7f, 0xff, 0x10, 0xc0, 0xec, 0x96, 0xac, 0xff, 0x2c, 0xb8, 0x7, 0x45, 0x1a, 0xf7, 0x4c, 0xad, 0xdf, 0xbd, 0x1b, 0x7d, 0xc9, 0x73, 0xc9, 0x1e, 0xff, 0xb7, 0x21, 0xd4, 0xf6, 0xc1, 0x2b, 0xd0, 0x9c, 0x96, 0x97, 0x57, 0x69, 0xd1, 0x9, 0xd8, 0x7a, 0x98, 0x87, 0xba, 0x2, 0x64, 0x38, 0x7a, 0x39, 0xa6, 0xc7, 0xe8, 0xb5, 0xad, 0x9, 0x2b, 0x35, 0xa, 0xf0, 0x89, 0x7b, 0x39, 0x7b, 0xa4, 0xa0, 0x98, 0x8, 0x32, 0xeb, 0xd5, 0x86, 0x39, 0x2d, 0xd6, 0x2, 0x18, 0xdf, 0x1d, 0x53, 0x5f, 0x5, 0x2, 0x7c, 0x2f, 0xd4, 0x2a, 0xbb, 0x58, 0xe2, 0x5e, 0xf2, 0x27, 0x5d, 0x76, 0x9d, 0xea, 0xf4, 0x74, 0xa, 0xad, 0xbf, 0x74, 0xbe, 0x2b, 0x8b, 0x83, 0x96, 0x44, 0x9, 0x7a, 0x91, end</props>
 </device>
</driver>
