<driver name="NULL">
 <device id="/statichashes/libsysmon_skel.so">
  <props name="num_segments" type=DALPROP_ATTR_TYPE_UINT32>3</props>
  <props name="hash" type=DALPROP_ATTR_TYPE_BYTE_SEQ>0xd7, 0xf8, 0x5f, 0x2, 0xd6, 0xcd, 0xa, 0x69, 0x86, 0x24, 0xb2, 0x7c, 0xef, 0x22, 0x47, 0x76, 0x6, 0x13, 0x46, 0xc6, 0x16, 0x87, 0x16, 0x47, 0xf9, 0x38, 0xa2, 0x31, 0x64, 0xef, 0x80, 0x3d, 0x79, 0x5b, 0x6e, 0x36, 0x61, 0x99, 0x30, 0xb4, 0xc1, 0x7f, 0xeb, 0x53, 0xc6, 0x6, 0x40, 0x2a, 0x93, 0xc5, 0xd6, 0xc2, 0x63, 0x41, 0x2e, 0x17, 0x41, 0x6e, 0xaa, 0xd5, 0x49, 0x4, 0xd3, 0xc3, 0xe4, 0x3c, 0x8e, 0x44, 0x73, 0x59, 0x1a, 0x29, 0xc6, 0x51, 0xf5, 0xfa, 0xac, 0xf3, 0xac, 0x3a, 0x2a, 0x1e, 0xb2, 0x65, 0x7, 0xdb, 0x50, 0xd4, 0x77, 0x7b, 0xf, 0xd7, 0xd2, 0x71, 0xc7, 0x45, end</props>
 </device>
</driver>
