typedef enum
{
  ERR_INJECT_ERR_FATAL,
  ERR_INJECT_WDOG_TIMEOUT,
  ERR_INJECT_NULLPTR,
  ERR_INJECT_DIV0,
  ERR_INJECT_DYNAMIC_ERR_FATAL,
  SIZEOF_ERR_INJECT_CRASH_TYPE
} err_inject_crash_type;
void err_inject_crash_init(void);
<driver name="NULL">
   <device id="tms_eic">
    <!--
    Enable automatic crashing.
      0x00 = disable
      0x01 = enable)
    Note: QXDM crash injection is independent of this configuration
    -->
    <props name="eic_crash_enable" type=DALPROP_ATTR_TYPE_UINT32>
      0x00
    </props>
    <!--
    Type of crash to execute.
      ERR_INJECT_ERR_FATAL
      ERR_INJECT_WDOG_TIMEOUT
      ERR_INJECT_NULLPTR
      ERR_INJECT_DIV0
    Note: above list may not accurately reflect all options
          see err_inject_crash.h for full list
    -->
    <props name="eic_crash_type" type=DALPROP_ATTR_TYPE_UINT32>
      ERR_INJECT_ERR_FATAL
    </props>
    <!--
    Delay to wait before initiating the crash
    Values below ERR_INJECT_CRASH_DELAY_DEFAULT will be serviced as default
    -->
    <props name="eic_crash_delay" type=DALPROP_ATTR_TYPE_UINT32>
      90
    </props>
  </device>
</driver>
