<driver name="NULL">
 <device id="/statichashes/EtsiAmrWbPlusDecModule.so.1">
  <props name="num_segments" type=DALPROP_ATTR_TYPE_UINT32>3</props>
  <props name="hash" type=DALPROP_ATTR_TYPE_BYTE_SEQ>0x64, 0x13, 0xa5, 0xcc, 0x1c, 0x10, 0x25, 0x36, 0x51, 0xc7, 0xa1, 0x2c, 0xc8, 0xa0, 0x8b, 0xb9, 0xff, 0x8c, 0x62, 0x1b, 0xd9, 0xe6, 0x47, 0x21, 0x36, 0xd0, 0x2c, 0x33, 0x86, 0x37, 0x33, 0x45, 0xfb, 0x38, 0x1f, 0xd3, 0xd0, 0x13, 0xd7, 0x65, 0x16, 0x2, 0xc2, 0xb9, 0x2e, 0xe5, 0x14, 0xf4, 0x6b, 0xeb, 0xd7, 0x43, 0x81, 0xfc, 0x10, 0xf, 0xf9, 0xe4, 0xdb, 0x1d, 0xe6, 0x3e, 0x72, 0x3e, 0xbe, 0xdc, 0x10, 0x69, 0xcb, 0x2d, 0x70, 0x29, 0xe8, 0x31, 0xd3, 0x73, 0xb9, 0x6b, 0x60, 0x16, 0x3a, 0xbf, 0xe, 0x71, 0x93, 0xb0, 0x81, 0x7c, 0xd7, 0x30, 0x29, 0x61, 0x42, 0xa4, 0xbd, 0x63, end</props>
 </device>
</driver>
