<driver name="NULL">
 <device id="/statichashes/mmecns_module.so.1">
  <props name="num_segments" type=DALPROP_ATTR_TYPE_UINT32>6</props>
  <props name="hash" type=DALPROP_ATTR_TYPE_BYTE_SEQ>0xb5, 0xe0, 0x19, 0x47, 0x6c, 0xb9, 0xa9, 0x3b, 0x4d, 0x2a, 0xd6, 0xe2, 0x1a, 0x9e, 0x41, 0x34, 0xf2, 0x5c, 0xc0, 0x8b, 0x11, 0xc0, 0x4a, 0x7f, 0x4a, 0xf3, 0xf6, 0x7f, 0x84, 0x54, 0x64, 0xa8, 0x9f, 0x22, 0x64, 0x11, 0x54, 0x4, 0xe9, 0x1c, 0xc5, 0xa, 0xf7, 0xf1, 0x4e, 0x2f, 0x75, 0xa, 0xba, 0x51, 0x23, 0xb0, 0xde, 0xbd, 0x3c, 0x5f, 0x38, 0x56, 0xba, 0x80, 0x94, 0x99, 0x29, 0x18, 0x6f, 0xc7, 0x1d, 0xf8, 0x9a, 0xb4, 0x8b, 0x69, 0x3b, 0x84, 0x43, 0x75, 0x76, 0x72, 0x45, 0x10, 0x5c, 0x67, 0x3e, 0xd9, 0xde, 0xf9, 0x90, 0x17, 0x63, 0x71, 0x27, 0xe, 0x25, 0xf6, 0xcb, 0x61, 0x50, 0xa8, 0xb0, 0xd9, 0x69, 0x99, 0x95, 0x6c, 0xdc, 0x0, 0x74, 0x46, 0xb9, 0x66, 0xa2, 0xb6, 0x81, 0xf5, 0x48, 0xbf, 0x58, 0xa1, 0xef, 0x5b, 0x87, 0x82, 0xae, 0x40, 0xba, 0x60, 0x67, 0x18, 0xc2, 0xe5, 0xa0, 0xc, 0x95, 0x87, 0x1, 0x1f, 0xdc, 0xae, 0x24, 0x85, 0x9, 0xd8, 0xb0, 0x16, 0x45, 0xea, 0xe3, 0x43, 0xa0, 0x5, 0xaf, 0xb1, 0xed, 0x8f, 0x7a, 0xdd, 0x63, 0x16, 0x93, 0xbb, 0xe3, 0xb0, 0xc4, 0x42, 0x98, 0xfc, 0x1c, 0x14, 0x9a, 0xfb, 0xf4, 0xc8, 0x99, 0x6f, 0xb9, 0x24, 0x27, 0xae, 0x41, 0xe4, 0x64, 0x9b, 0x93, 0x4c, 0xa4, 0x95, 0x99, 0x1b, 0x78, 0x52, 0xb8, 0x55, end</props>
 </device>
</driver>
