<driver name="NULL">
 <device id="/statichashes/WmaStdDecoderModule.so.1">
  <props name="num_segments" type=DALPROP_ATTR_TYPE_UINT32>3</props>
  <props name="hash" type=DALPROP_ATTR_TYPE_BYTE_SEQ>0x8d, 0xa0, 0x85, 0xe8, 0xdc, 0x49, 0x63, 0xb4, 0xb2, 0xc6, 0xbb, 0xd9, 0x91, 0x7, 0xd8, 0x7f, 0xe, 0x18, 0xb1, 0x56, 0x48, 0xc1, 0xd6, 0x45, 0x15, 0x94, 0x7, 0x8b, 0x3b, 0xc9, 0x58, 0xae, 0x86, 0xb8, 0xe0, 0x79, 0xb7, 0x1a, 0x8c, 0xd, 0x9b, 0x23, 0xb4, 0x19, 0x13, 0x8e, 0xbf, 0xc5, 0x4f, 0x1a, 0x7c, 0xbc, 0xd4, 0x17, 0x20, 0xdf, 0x66, 0x1e, 0x6f, 0xde, 0x10, 0xcb, 0xb9, 0x1b, 0x5, 0x16, 0xa9, 0xe0, 0x5e, 0x57, 0xf2, 0x1c, 0xfc, 0x23, 0x92, 0x29, 0x79, 0x58, 0xc5, 0xb, 0x12, 0x76, 0xa5, 0x9e, 0x10, 0x94, 0x5e, 0xb6, 0xc9, 0x77, 0x4c, 0x17, 0x40, 0xc8, 0x33, 0x76, end</props>
 </device>
</driver>
