<driver name="NULL">
   <global_def>
   </global_def>
   <device id="/dev/ABTimeout">
     <props name="ABT_Propdata" type=DALPROP_ATTR_TYPE_STRUCT_PTR>
        ABT_propdata
     </props>
   </device>
</driver>
