<driver name="NULL">
 <device id="/statichashes/ApeDecoderModule.so.1">
  <props name="num_segments" type=DALPROP_ATTR_TYPE_UINT32>3</props>
  <props name="hash" type=DALPROP_ATTR_TYPE_BYTE_SEQ>0x92, 0x59, 0x77, 0x1c, 0xe0, 0xf4, 0x96, 0x76, 0xee, 0xc5, 0x3, 0x30, 0x0, 0xc4, 0x4b, 0xec, 0xe1, 0x8f, 0xef, 0x1e, 0xcb, 0x61, 0x1e, 0xc4, 0x61, 0xb9, 0x35, 0x46, 0x57, 0xdd, 0xe2, 0x9b, 0xf8, 0x64, 0x45, 0x36, 0xd4, 0x2e, 0x47, 0xec, 0x35, 0x25, 0xe7, 0x1, 0xfd, 0x3f, 0x2d, 0x15, 0x6c, 0x92, 0x49, 0xae, 0x7a, 0x99, 0xee, 0xd2, 0x41, 0x91, 0xdc, 0x47, 0x65, 0x22, 0x80, 0x8f, 0xf5, 0x97, 0x2c, 0xdf, 0x6a, 0x18, 0xc1, 0x2b, 0x8e, 0x18, 0x89, 0xad, 0x85, 0xe8, 0x78, 0xf7, 0x9e, 0x71, 0x39, 0x6d, 0x4, 0xf7, 0x2a, 0x40, 0x22, 0x99, 0x93, 0xe5, 0xe1, 0x2c, 0x53, 0x50, end</props>
 </device>
</driver>
