<driver name="NULL">
 <device id="/statichashes/DolbySurroundModule.so.1">
  <props name="num_segments" type=DALPROP_ATTR_TYPE_UINT32>3</props>
  <props name="hash" type=DALPROP_ATTR_TYPE_BYTE_SEQ>0xae, 0x82, 0x33, 0xe5, 0x17, 0xd0, 0xd2, 0xb2, 0x81, 0x8b, 0xce, 0x7b, 0x93, 0xad, 0xf0, 0x7c, 0xe3, 0xce, 0x41, 0xee, 0xe1, 0xfd, 0x7c, 0xdf, 0xcb, 0x1e, 0x1a, 0xda, 0x8b, 0xfc, 0x22, 0x10, 0x13, 0xe5, 0xae, 0xfa, 0x53, 0xa2, 0x6b, 0xbd, 0x74, 0xce, 0xe6, 0x66, 0x84, 0xa6, 0x7e, 0x5e, 0xf6, 0x34, 0x23, 0x2d, 0x61, 0x30, 0x18, 0x9a, 0xac, 0x91, 0xd0, 0x9f, 0xba, 0xc5, 0x91, 0xc6, 0x79, 0xfb, 0x7d, 0x6b, 0x8d, 0xed, 0x79, 0x11, 0xf3, 0x4, 0x95, 0x72, 0x58, 0xb3, 0x11, 0x60, 0xf7, 0xdf, 0x3, 0x97, 0x52, 0x5b, 0xca, 0xcf, 0xdf, 0xc1, 0x66, 0xb8, 0x4, 0x1d, 0xde, 0xd5, end</props>
 </device>
</driver>
