<driver name="NULL">
 <device id="/statichashes/DTS_HPX_MODULE.so.1">
  <props name="num_segments" type=DALPROP_ATTR_TYPE_UINT32>3</props>
  <props name="hash" type=DALPROP_ATTR_TYPE_BYTE_SEQ>0xad, 0x1e, 0x38, 0x19, 0x11, 0x8e, 0x82, 0x57, 0xf5, 0xb6, 0xdd, 0x72, 0xa5, 0xb8, 0xf7, 0xf1, 0x98, 0x8a, 0x8c, 0x9b, 0xc9, 0x27, 0xae, 0x2, 0x36, 0xc9, 0x7c, 0x14, 0xcd, 0x63, 0x2f, 0x3f, 0xd3, 0xd0, 0x22, 0x89, 0x4b, 0xbd, 0x95, 0x84, 0xcd, 0xfb, 0x67, 0x83, 0xb8, 0xd6, 0x5c, 0x56, 0x2e, 0x79, 0x5f, 0xcb, 0xef, 0x69, 0xd1, 0x4f, 0xed, 0xd0, 0xae, 0x7b, 0xbb, 0x98, 0x7b, 0xc6, 0xad, 0x3, 0x41, 0x4f, 0x52, 0x57, 0xc, 0x1d, 0xeb, 0xc, 0x70, 0xae, 0xcd, 0x2f, 0x27, 0x11, 0xd9, 0xde, 0x45, 0xe2, 0x6, 0x92, 0xbb, 0x9c, 0x92, 0x1, 0x47, 0x4, 0x98, 0xd6, 0xf7, 0x46, end</props>
 </device>
</driver>
