<driver name="NULL">
 <device id="/statichashes/EtsiAmrWbPlusDecModule.so.1">
  <props name="num_segments" type=DALPROP_ATTR_TYPE_UINT32>3</props>
  <props name="hash" type=DALPROP_ATTR_TYPE_BYTE_SEQ>0x90, 0x46, 0xd2, 0xe3, 0x9e, 0x90, 0x1c, 0x83, 0x74, 0xe6, 0xee, 0x8f, 0x39, 0xe4, 0x70, 0xc0, 0x85, 0x77, 0x14, 0xc6, 0x72, 0xf5, 0xa, 0x2d, 0x6a, 0xbf, 0xd0, 0xfe, 0xd0, 0x18, 0xfc, 0x3e, 0xfb, 0x38, 0x1f, 0xd3, 0xd0, 0x13, 0xd7, 0x65, 0x16, 0x2, 0xc2, 0xb9, 0x2e, 0xe5, 0x14, 0xf4, 0x6b, 0xeb, 0xd7, 0x43, 0x81, 0xfc, 0x10, 0xf, 0xf9, 0xe4, 0xdb, 0x1d, 0xe6, 0x3e, 0x72, 0x3e, 0xbe, 0xdc, 0x10, 0x69, 0xcb, 0x2d, 0x70, 0x29, 0xe8, 0x31, 0xd3, 0x73, 0xb9, 0x6b, 0x60, 0x16, 0x3a, 0xbf, 0xe, 0x71, 0x93, 0xb0, 0x81, 0x7c, 0xd7, 0x30, 0x29, 0x61, 0x42, 0xa4, 0xbd, 0x63, end</props>
 </device>
</driver>
