<driver name="NULL">
 <device id="/statichashes/EtsiEaacPlusEncAndCmnModule.so.1">
  <props name="num_segments" type=DALPROP_ATTR_TYPE_UINT32>3</props>
  <props name="hash" type=DALPROP_ATTR_TYPE_BYTE_SEQ>0xfb, 0xdb, 0xb7, 0xd5, 0x88, 0xad, 0xe7, 0x83, 0x79, 0xc5, 0x26, 0xec, 0xcd, 0x98, 0x3c, 0x87, 0x3e, 0xd1, 0xb4, 0x6, 0xf8, 0xbf, 0xe1, 0x46, 0xb0, 0x28, 0xaa, 0x0, 0x25, 0xc4, 0xe5, 0xe2, 0xef, 0xf6, 0x86, 0x2, 0x77, 0xcf, 0x38, 0x29, 0xa1, 0x7a, 0xf9, 0xce, 0x0, 0xdb, 0xa3, 0xdf, 0x6c, 0x4e, 0xf, 0x19, 0xde, 0x50, 0x64, 0x1b, 0x28, 0xff, 0x12, 0x8a, 0x8, 0x70, 0x4c, 0xcd, 0xf5, 0x2, 0xbd, 0xd, 0x17, 0x2b, 0x0, 0x7f, 0xe, 0x2e, 0x74, 0x6b, 0x82, 0x1b, 0xdb, 0xb5, 0x53, 0xdd, 0x9f, 0x23, 0x88, 0x6b, 0xb2, 0x43, 0xc5, 0xd0, 0x5d, 0x30, 0x21, 0xbe, 0xfc, 0xd6, end</props>
 </device>
</driver>
