<driver name="NULL">
 <device id="/statichashes/fastrpc_shell_0">
  <props name="num_segments" type=DALPROP_ATTR_TYPE_UINT32>8</props>
  <props name="hash" type=DALPROP_ATTR_TYPE_BYTE_SEQ>0x76, 0xd6, 0xc4, 0xf9, 0xa8, 0x2c, 0x29, 0x81, 0xf7, 0x6a, 0xb6, 0x45, 0xfa, 0xc2, 0xc5, 0x4b, 0xe8, 0x1d, 0x7, 0x28, 0x8f, 0x97, 0x43, 0xbc, 0x95, 0x80, 0xf3, 0x41, 0xf3, 0xc, 0x7e, 0xe5, 0xea, 0x7c, 0x8b, 0xab, 0xe7, 0xcc, 0x92, 0x94, 0x3d, 0x48, 0xd7, 0xe1, 0x62, 0xc1, 0x2d, 0x90, 0xdf, 0x94, 0x40, 0x4f, 0x9c, 0x60, 0xf2, 0x71, 0xf8, 0xed, 0x1b, 0xda, 0x95, 0x47, 0xd8, 0x50, 0x8, 0xff, 0x35, 0xa2, 0x39, 0x91, 0xd, 0x97, 0x26, 0xf9, 0xc6, 0x74, 0xbb, 0x79, 0x13, 0xb1, 0x9e, 0x68, 0xa2, 0x89, 0x72, 0x9d, 0x2c, 0x5c, 0xdf, 0x25, 0xc4, 0x8d, 0x81, 0xf7, 0x63, 0xbc, 0xf9, 0x1f, 0x3, 0xa0, 0x8e, 0x94, 0x35, 0xc2, 0xf6, 0x44, 0xd4, 0x9, 0x23, 0x81, 0xa7, 0xfa, 0x36, 0x9f, 0x3, 0x3e, 0x59, 0x68, 0x80, 0x7e, 0x99, 0x3d, 0x11, 0x88, 0x5d, 0x3a, 0x3d, 0x31, 0x51, 0x3f, 0xa6, 0xde, 0xf1, 0x81, 0x9, 0x95, 0xd8, 0x14, 0xfc, 0xac, 0x4f, 0x1e, 0x3f, 0xb9, 0x2f, 0x6c, 0xb4, 0x4, 0x4, 0xab, 0x72, 0x1d, 0xb3, 0xae, 0xe9, 0xf3, 0x17, 0xdf, 0xa, 0xcf, 0x86, 0xc8, 0x5b, 0xe4, 0x19, 0xec, 0x8b, 0x19, 0xae, 0x37, 0xc2, 0xd6, 0x8b, 0xe6, 0xc4, 0x5b, 0xab, 0xc7, 0x30, 0x40, 0x54, 0xdf, 0x47, 0xe4, 0xaa, 0xb6, 0x68, 0x9, 0x49, 0xbc, 0x4f, 0x1a, 0x37, 0x25, 0x2e, 0xfa, 0x1d, 0x2, 0x36, 0x26, 0xda, 0xe5, 0xca, 0x45, 0x56, 0x4f, 0xa8, 0x87, 0xe, 0xaa, 0xff, 0x19, 0x31, 0xe0, 0xb6, 0x7a, 0xdc, 0x5a, 0x56, 0xb3, 0x6, 0x3d, 0x29, 0x8b, 0xe3, 0xb0, 0xc4, 0x42, 0x98, 0xfc, 0x1c, 0x14, 0x9a, 0xfb, 0xf4, 0xc8, 0x99, 0x6f, 0xb9, 0x24, 0x27, 0xae, 0x41, 0xe4, 0x64, 0x9b, 0x93, 0x4c, 0xa4, 0x95, 0x99, 0x1b, 0x78, 0x52, 0xb8, 0x55, end</props>
 </device>
</driver>
