<driver name="NULL">
 <device id="/statichashes/FlacDecoderModule.so.1">
  <props name="num_segments" type=DALPROP_ATTR_TYPE_UINT32>3</props>
  <props name="hash" type=DALPROP_ATTR_TYPE_BYTE_SEQ>0x25, 0x3, 0xa7, 0xa7, 0x61, 0xe2, 0xff, 0x80, 0x36, 0x82, 0xd8, 0x45, 0x90, 0xa7, 0x19, 0xf3, 0x6f, 0xdb, 0x52, 0xd4, 0x77, 0x6, 0x8a, 0x37, 0x35, 0x4b, 0x9e, 0x38, 0x55, 0xac, 0xd0, 0x67, 0x1a, 0xf3, 0x6c, 0x21, 0xcf, 0xef, 0xc4, 0x30, 0x95, 0xda, 0x60, 0xdf, 0x43, 0x45, 0xb6, 0xeb, 0xf7, 0xa, 0x79, 0x37, 0x14, 0xf5, 0x7f, 0xb1, 0x33, 0x2a, 0xd8, 0x7, 0x68, 0x6, 0xff, 0xd5, 0x9, 0xf1, 0x2f, 0x3f, 0x6b, 0x11, 0xfe, 0xa7, 0x87, 0x6, 0x93, 0x89, 0xb5, 0x13, 0xc1, 0xe6, 0x6, 0x58, 0x7b, 0x37, 0x98, 0x83, 0x43, 0xfa, 0xe, 0xc0, 0x61, 0xc1, 0x3f, 0x3d, 0x2d, 0x72, end</props>
 </device>
</driver>
