<driver name="NULL">
 <device id="/statichashes/HeaacDecoderModule.so.1">
  <props name="num_segments" type=DALPROP_ATTR_TYPE_UINT32>3</props>
  <props name="hash" type=DALPROP_ATTR_TYPE_BYTE_SEQ>0xca, 0x35, 0x1e, 0xe0, 0x96, 0xbb, 0xb4, 0x4b, 0xaf, 0xcf, 0x59, 0x4b, 0xd3, 0xf2, 0x6c, 0xf5, 0xb5, 0x58, 0x5b, 0xe0, 0x53, 0x40, 0xe4, 0xaa, 0x32, 0x7c, 0xa6, 0x7a, 0x90, 0x5c, 0x6, 0x12, 0x3f, 0x36, 0xfd, 0xe, 0x61, 0xe8, 0x8e, 0xbb, 0xeb, 0x51, 0xec, 0xbc, 0x13, 0xf1, 0x3b, 0xcc, 0x50, 0xc4, 0x8f, 0xf5, 0x9f, 0x32, 0x95, 0xa1, 0x3b, 0x6f, 0xb8, 0x3c, 0x25, 0xab, 0x53, 0x18, 0x42, 0xe, 0x89, 0x82, 0x88, 0x22, 0x82, 0x78, 0x22, 0xed, 0xb7, 0xbd, 0xb, 0x62, 0x55, 0x21, 0x18, 0x26, 0x5a, 0x10, 0x4b, 0x13, 0xa9, 0x22, 0xc6, 0x9e, 0xde, 0x5b, 0xd6, 0x76, 0xd8, 0xfd, end</props>
 </device>
</driver>
