<driver name="NULL">
 <device id="/statichashes/libsysmon_skel.so">
  <props name="num_segments" type=DALPROP_ATTR_TYPE_UINT32>6</props>
  <props name="hash" type=DALPROP_ATTR_TYPE_BYTE_SEQ>0x93, 0x2a, 0x8a, 0x28, 0x95, 0x23, 0xc, 0xd3, 0xce, 0xa6, 0x15, 0xbe, 0x2a, 0xe9, 0xc8, 0x40, 0x5c, 0x4c, 0x97, 0xa9, 0xb1, 0x69, 0x18, 0xef, 0x55, 0xd2, 0x40, 0x80, 0xd7, 0x8c, 0x2b, 0x94, 0xaa, 0xbc, 0x96, 0x55, 0x67, 0xcd, 0xde, 0xc, 0x5f, 0xc5, 0xf7, 0x6e, 0xac, 0x5f, 0xd6, 0x8a, 0xae, 0xdc, 0x13, 0xca, 0xac, 0x4c, 0xa2, 0x6d, 0x65, 0x49, 0x29, 0xd2, 0x8d, 0xaa, 0xb8, 0x70, 0x28, 0x4a, 0xe6, 0x78, 0xd2, 0x6b, 0x50, 0x47, 0xd3, 0x12, 0x4b, 0x6a, 0xd8, 0x3, 0x43, 0x1f, 0xf0, 0xbb, 0x45, 0x7b, 0x46, 0x34, 0x44, 0x41, 0xd6, 0x86, 0x3d, 0xeb, 0x52, 0x72, 0xe, 0xad, 0xd3, 0xce, 0x28, 0x1b, 0xa4, 0x9d, 0x96, 0x68, 0xfa, 0x2f, 0xfc, 0x23, 0x4b, 0xe2, 0xa8, 0x6a, 0x83, 0xca, 0x32, 0x32, 0x6d, 0x6e, 0xca, 0x69, 0x88, 0xbc, 0x32, 0x78, 0x4a, 0x96, 0x69, 0x58, 0x9e, 0x2c, 0x51, 0xcf, 0x84, 0xb2, 0x74, 0x76, 0x3c, 0x94, 0xb0, 0x8c, 0x14, 0x3e, 0x0, 0x2b, 0x6c, 0x6f, 0x9b, 0xf1, 0xdd, 0x2, 0xf4, 0x75, 0xec, 0xac, 0xc1, 0x70, 0x1d, 0x2a, 0x81, 0xa7, 0xe3, 0xb0, 0xc4, 0x42, 0x98, 0xfc, 0x1c, 0x14, 0x9a, 0xfb, 0xf4, 0xc8, 0x99, 0x6f, 0xb9, 0x24, 0x27, 0xae, 0x41, 0xe4, 0x64, 0x9b, 0x93, 0x4c, 0xa4, 0x95, 0x99, 0x1b, 0x78, 0x52, 0xb8, 0x55, end</props>
 </device>
</driver>
