<driver name="NULL">
 <device id="/statichashes/WmaStdDecoderModule.so.1">
  <props name="num_segments" type=DALPROP_ATTR_TYPE_UINT32>3</props>
  <props name="hash" type=DALPROP_ATTR_TYPE_BYTE_SEQ>0xb4, 0x93, 0xac, 0xc1, 0x9f, 0xef, 0x5d, 0xb, 0x8b, 0x9c, 0xe2, 0xc0, 0xfe, 0x86, 0x9d, 0x23, 0x21, 0xb5, 0x52, 0x74, 0x2f, 0x9a, 0x88, 0x96, 0x6c, 0xb1, 0x8a, 0x55, 0x90, 0xde, 0xfb, 0xee, 0x86, 0xb8, 0xe0, 0x79, 0xb7, 0x1a, 0x8c, 0xd, 0x9b, 0x23, 0xb4, 0x19, 0x13, 0x8e, 0xbf, 0xc5, 0x4f, 0x1a, 0x7c, 0xbc, 0xd4, 0x17, 0x20, 0xdf, 0x66, 0x1e, 0x6f, 0xde, 0x10, 0xcb, 0xb9, 0x1b, 0x5, 0x16, 0xa9, 0xe0, 0x5e, 0x57, 0xf2, 0x1c, 0xfc, 0x23, 0x92, 0x29, 0x79, 0x58, 0xc5, 0xb, 0x12, 0x76, 0xa5, 0x9e, 0x10, 0x94, 0x5e, 0xb6, 0xc9, 0x77, 0x4c, 0x17, 0x40, 0xc8, 0x33, 0x76, end</props>
 </device>
</driver>
