<driver name="NULL">
  <device id="QTsens">
    <props name="TSENS_BOOT_BSP" type=DALPROP_ATTR_TYPE_STRUCT_PTR>
      TsensBootBsp
    </props>
    <props name="TSENS_BOOT_BSP_8917" type=DALPROP_ATTR_TYPE_STRUCT_PTR>
      TsensBootBsp_8917
    </props>
  </device>
</driver>
