<driver name=NULL>
<device id= "/boot/pmi8937" >
<props id=101 type=DALPROP_ATTR_TYPE_UINT32>
2
</props>
<props id=102 type=DALPROP_ATTR_TYPE_UINT32 >
6 
</props>
<props id=104 type=DALPROP_ATTR_TYPE_UINT32 >
23 
</props>
<props id=108 type=DALPROP_ATTR_TYPE_UINT32 >
1
</props>
<props id=110 type=DALPROP_ATTR_TYPE_UINT32 >
8 
</props>
<props id=112 type=DALPROP_ATTR_TYPE_UINT32 >
4 
</props>
<props id=111 type=DALPROP_ATTR_TYPE_UINT32 >
2
</props>
<props id=113 type=DALPROP_ATTR_TYPE_UINT32 >
4
</props>
<props id=119 type=DALPROP_ATTR_TYPE_UINT32 >
1 
</props>
<props id=134 type=DALPROP_ATTR_TYPE_UINT32 >
1
</props>
<props id=123 type=DALPROP_ATTR_TYPE_UINT32 >
9
</props>
<props id=118 type=DALPROP_ATTR_TYPE_UINT32 >
0 
</props>
<props id=122 type=DALPROP_ATTR_TYPE_UINT32 >
8 
</props>
<props id=35 type=DALPROP_ATTR_TYPE_STRUCT_PTR>
mpp_specific
</props>
<props id=114 type=DALPROP_ATTR_TYPE_UINT32 >
1 
</props>
<props id=115 type=DALPROP_ATTR_TYPE_UINT32 >
1
</props>
<props id=118 type=DALPROP_ATTR_TYPE_UINT32 >
0 
</props>
<props id=136 type=DALPROP_ATTR_TYPE_UINT32 >
1
</props>
<props id=132 type=DALPROP_ATTR_TYPE_UINT32 >
1
</props>
<props id=131 type=DALPROP_ATTR_TYPE_UINT32>
1
</props>
<props id=130 type=DALPROP_ATTR_TYPE_UINT32>
1
</props>
<props id=32 type=DALPROP_ATTR_TYPE_STRUCT_PTR>
vib_specific
</props>
<props id=133 type=DALPROP_ATTR_TYPE_UINT32>
1
</props>
<props id=34 type=DALPROP_ATTR_TYPE_STRUCT_PTR>
smps_phase_lut_a 
</props>
<props id=36 type=DALPROP_ATTR_TYPE_STRUCT_PTR>
pm_sbl_seq 
</props>
<props id=37 type=DALPROP_ATTR_TYPE_STRUCT_PTR>
pm_pbs_seq 
</props>
<props id=156 type=DALPROP_ATTR_TYPE_STRUCT_PTR >
pm_periph_bitmap
</props>
<props id=135 type=DALPROP_ATTR_TYPE_STRUCT_PTR >
pm_pbs_info_data
</props>
<props id=55 type=DALPROP_ATTR_TYPE_STRUCT_PTR>
led_array
</props>
<props id=56 type=DALPROP_ATTR_TYPE_STRUCT_PTR>
default_led
</props>
<props id=57 type=DALPROP_ATTR_TYPE_STRUCT_PTR>
rgb_configs
</props>
<props id=58 type=DALPROP_ATTR_TYPE_STRUCT_PTR>
led_info
</props>
<props id=129 type=DALPROP_ATTR_TYPE_STRUCT_PTR>
chg_range_data
</props>
<props id=151 type=DALPROP_ATTR_TYPE_STRUCT_PTR>
smbchg_specific_data
</props>
<props id=152 type=DALPROP_ATTR_TYPE_STRUCT_PTR>
fg_sram_data
</props>
<props id=154 type=DALPROP_ATTR_TYPE_UINT32 >
1
</props>
<props id=63 type=DALPROP_ATTR_TYPE_STRUCT_PTR>
sbl_specific_data
</props>
</device>
</driver>
