<!--
  This XML file contains target specific information for MPM
  driver for targets using device config feature.
  Copyright (c) 2013-2014 QUALCOMM Technologies Incorporated.
  All Rights Reserved.
  Qualcomm Confidential and Proprietary
-->
typedef unsigned long int uint32;
typedef unsigned short uint16;
typedef unsigned char uint8;
typedef signed long int int32;
typedef signed short int16;
typedef signed char int8;
typedef unsigned long long uint64;
typedef long long int64;
typedef unsigned char byte;
typedef uint32 DALBOOL;
typedef uint32 DALDEVICEID;
typedef uint32 DalPowerCmd;
typedef uint32 DalPowerDomain;
typedef uint32 DalSysReq;
typedef uint32 DALHandle;
typedef int DALResult;
typedef void * DALEnvHandle;
typedef void * DALSYSEventHandle;
typedef uint32 DALMemAddr;
typedef uint32 DALSYSMemAddr;
typedef uint64 DALSYSPhyAddr;
typedef uint32 DALInterfaceVersion;
typedef unsigned char * DALDDIParamPtr;
typedef struct DALEventObject DALEventObject;
struct DALEventObject
{
    uint32 obj[8];
};
typedef DALEventObject * DALEventHandle;
typedef struct _DALMemObject
{
   uint32 memAttributes;
   uint32 sysObjInfo[2];
   uint32 dwLen;
   uint32 ownerVirtAddr;
   uint32 virtAddr;
   uint32 physAddr;
}
DALMemObject;
typedef struct _DALDDIMemBufDesc
{
   uint32 dwOffset;
   uint32 dwLen;
   uint32 dwUser;
}
DALDDIMemBufDesc;
typedef struct _DALDDIMemDescList
{
   uint32 dwFlags;
   uint32 dwNumBufs;
   DALDDIMemBufDesc bufList[1];
}
DALDDIMemDescList;
typedef struct DALSysMemDescBuf DALSysMemDescBuf;
struct DALSysMemDescBuf
{
   DALSYSMemAddr VirtualAddr;
   DALSYSMemAddr PhysicalAddr;
   uint32 size;
   uint32 user;
};
typedef struct { uint32 dwObjInfo; DALSYSMemAddr thisVirtualAddr; DALSYSMemAddr PhysicalAddr; DALSYSMemAddr VirtualAddr; uint32 hOwnerProc; uint32 dwCurBufIdx; uint32 dwNumDescBufs; DALSysMemDescBuf BufInfo[1];} DALSysMemDescList;
typedef struct DalDeviceInfo DalDeviceInfo;
struct DalDeviceInfo
{
   uint32 sizeOfActual;
   uint32 Version;
   char Name[32];
};
typedef struct DalDeviceStatus DalDeviceStatus;
struct DalDeviceStatus
{
   uint32 sizeOfActual;
   uint32 Status;
};
typedef struct DalDeviceHandle DalDeviceHandle;
typedef struct DalDevice DalDevice;
struct DalDevice
{
   DALResult (*Attach)(const char*,DALDEVICEID,DalDeviceHandle **);
   uint32 (*Detach)(DalDeviceHandle *);
   DALResult (*Init)(DalDeviceHandle *);
   DALResult (*DeInit)(DalDeviceHandle *);
   DALResult (*Open)(DalDeviceHandle *, uint32);
   DALResult (*Close)(DalDeviceHandle *);
   DALResult (*Info)(DalDeviceHandle *, DalDeviceInfo *, uint32);
   DALResult (*PowerEvent)(DalDeviceHandle *, DalPowerCmd, DalPowerDomain);
   DALResult (*SysRequest)(DalDeviceHandle *, DalSysReq, const void *, uint32,
                           void *,uint32, uint32*);
};
typedef struct DalInterface DalInterface;
struct DalInterface
{
   struct DalDevice DalDevice;
};
struct DalDeviceHandle
{
   uint32 dwDalHandleId;
   const DalInterface *pVtbl;
   void *pClientCtxt;
   uint32 dwVtblLen;
};
typedef struct DalDeviceHandle * DALDEVICEHANDLE;
typedef struct DalRemoteHandle DalRemoteHandle;
typedef struct DalRemote DalRemote;
struct DalRemote
{
   struct DalDevice DalDevice;
   DALResult (* FCN_0) ( uint32 ddi_idx, DalDeviceHandle *h, uint32 u1 );
   DALResult (* FCN_1) ( uint32 ddi_idx, DalDeviceHandle *h, uint32 u1, uint32 u2 );
   DALResult (* FCN_2) ( uint32 ddi_idx, DalDeviceHandle *h, uint32 u1, uint32* p_u2 );
   DALResult (* FCN_3) ( uint32 ddi_idx, DalDeviceHandle *h, uint32 u1, uint32 u2, uint32 u3 );
   DALResult (* FCN_4) ( uint32 ddi_idx, DalDeviceHandle *h, uint32 u1, uint32 u2, uint32* p_u3 );
   DALResult (* FCN_5) ( uint32 ddi_idx, DalDeviceHandle *h, void * ibuf, uint32 ilen);
   DALResult (* FCN_6) ( uint32 ddi_idx, DalDeviceHandle *h, uint32 u1, void * ibuf, uint32 ilen);
   DALResult (* FCN_7) ( uint32 ddi_idx, DalDeviceHandle *h, void * ibuf, uint32 ilen, void * obuf, uint32 olen, uint32 *oalen);
   DALResult (* FCN_8) ( uint32 ddi_idx, DalDeviceHandle *h, void * ibuf, uint32 ilen, void * obuf, uint32 olen);
   DALResult (* FCN_9) ( uint32 ddi_idx, DalDeviceHandle *h, void * obuf, uint32 olen );
   DALResult (* FCN_10)( uint32 ddi_idx, DalDeviceHandle *h, uint32 u1, void * ibuf, uint32 ilen, void * obuf, uint32 olen, uint32 * oalen);
   DALResult (* FCN_11) ( uint32 ddi_idx, DalDeviceHandle *h, uint32 u1, void * obuf, uint32 olen);
   DALResult (* FCN_12) ( uint32 ddi_idx, DalDeviceHandle *h, uint32 u1, void * obuf, uint32 olen, uint32 *oalen);
   DALResult (* FCN_13) ( uint32 ddi_idx, DalDeviceHandle *h, void * ibuf, uint32 ilen, void * ibuf2, uint32 ilen2, void * obuf, uint32 olen);
   DALResult (* FCN_14) ( uint32 ddi_idx, DalDeviceHandle *h, void * ibuf, uint32 ilen, void * obuf1, uint32 olen, void * obuf2, uint32 olen2, uint32 * oalen);
   DALResult (* FCN_15) ( uint32 ddi_idx, DalDeviceHandle *h, void * ibuf, uint32 ilen, void * ibuf2, uint32 ilen2, void * obuf2, uint32 olen2, uint32 *oalen, void * obuf, uint32 olen );
};
struct DalRemoteHandle
{
   uint32 dwDalHandleId;
   const DalRemote *pVtbl;
   void *pClientCtxt;
};
static __inline uint32
DalDevice_Detach(DalDeviceHandle *_h)
{
   (_h = (DalDeviceHandle *)(((DALHandle)_h) & ~0x00000001));
   return _h->pVtbl->DalDevice.Detach(_h);
}
static __inline DALResult
DalDevice_Init(DalDeviceHandle *_h)
{
   (_h = (DalDeviceHandle *)(((DALHandle)_h) & ~0x00000001));
   return _h->pVtbl->DalDevice.Init(_h);
}
static __inline DALResult
DalDevice_DeInit(DalDeviceHandle *_h)
{
   (_h = (DalDeviceHandle *)(((DALHandle)_h) & ~0x00000001));
   return _h->pVtbl->DalDevice.DeInit(_h);
}
static __inline DALResult
DalDevice_PowerEvent(DalDeviceHandle *_h, DalPowerCmd PowerCmd,
                     DalPowerDomain PowerDomain)
{
   (_h = (DalDeviceHandle *)(((DALHandle)_h) & ~0x00000001));
   return _h->pVtbl->DalDevice.PowerEvent(_h,PowerCmd,PowerDomain);
}
static __inline DALResult
DalDevice_Open(DalDeviceHandle *_h, uint32 mode)
{
   (_h = (DalDeviceHandle *)(((DALHandle)_h) & ~0x00000001));
   return _h->pVtbl->DalDevice.Open(_h,mode);
}
static __inline DALResult
DalDevice_Close(DalDeviceHandle *_h)
{
   (_h = (DalDeviceHandle *)(((DALHandle)_h) & ~0x00000001));
   return _h->pVtbl->DalDevice.Close(_h);
}
static __inline DALResult
DalDevice_Info(DalDeviceHandle *_h, DalDeviceInfo* info, uint32 infoSize)
{
   (_h = (DalDeviceHandle *)(((DALHandle)_h) & ~0x00000001));
   return _h->pVtbl->DalDevice.Info(_h,info,infoSize);
}
static __inline DALResult
DalDevice_SysRequest(DalDeviceHandle *_h, DalSysReq ReqIdx,
                     const unsigned char* SrcBuf, int SrcBufLen,
                     unsigned char* DestBuf, uint32 DestBufLen, uint32* DestBufLenReq)
{
   (_h = (DalDeviceHandle *)(((DALHandle)_h) & ~0x00000001));
   return _h->pVtbl->DalDevice.SysRequest(_h,ReqIdx,SrcBuf,SrcBufLen,
                                          DestBuf,DestBufLen,DestBufLenReq);
}
DALResult
DAL_DeviceAttach(DALDEVICEID DeviceId,
                 DalDeviceHandle **phDevice);
DALResult
DAL_DeviceAttachLocal(const char *pszArg,DALDEVICEID DeviceId,
                      DalDeviceHandle **phDevice);
DALResult
DAL_DeviceAttachEx(const char *pszArg, DALDEVICEID DeviceId,
               DALInterfaceVersion ClientVersion,DalDeviceHandle **phDevice);
DALResult
DAL_StringDeviceAttachEx(const char *pszArg,
                   const char *pszDevName,
                   DALInterfaceVersion ClientVersion,
                   DalDeviceHandle **phDalDevice);
DALResult
DAL_DeviceAttachRemote(const char *pszArg,
                   DALDEVICEID DevId,
                   DALInterfaceVersion ClientVersion,
                   DalDeviceHandle **phDALDevice);
DALResult
DAL_DeviceDetach(DalDeviceHandle *hDevice);
DALResult
DAL_StringDeviceAttach(const char *pszDevName,DalDeviceHandle **phDalDevice);
typedef uint32 DALInterruptID;
typedef void * DALISRCtx;
typedef void * (*DALISR)(DALISRCtx);
typedef void * DALIRQCtx;
typedef void * (*DALIRQ)(DALIRQCtx);
typedef enum
{
  DALINTCNTLR_NO_POWER_COLLAPSE,
  DALINTCNTLR_POWER_COLLAPSE,
  PLACEHOLDER_InterruptControllerSleepType = 0x7fffffff
} InterruptControllerSleepType;
typedef struct DalInterruptController DalInterruptController;
struct DalInterruptController
{
   struct DalDevice DalDevice;
   DALResult (*RegisterISR)(DalDeviceHandle * _h, DALInterruptID intrID,
                           const DALISR isr, const DALISRCtx ctx, uint32 bEnable);
   DALResult (*RegisterIST)(DalDeviceHandle * _h, DALInterruptID intrID,
                           const DALISR isr, const DALISRCtx ctx, uint32 bEnable,char* pISTName);
   DALResult (*RegisterEvent)(DalDeviceHandle * _h, DALInterruptID intrID,
                             const DALSYSEventHandle hEvent, uint32 bEnable);
   DALResult (*Unregister)(DalDeviceHandle * _h, DALInterruptID intrID);
   DALResult (*InterruptDone)(DalDeviceHandle * _h, DALInterruptID intrID);
   DALResult (*InterruptEnable)(DalDeviceHandle * _h, DALInterruptID intrID);
   DALResult (*InterruptDisable)(DalDeviceHandle * _h, DALInterruptID intrID);
   DALResult (*InterruptTrigger)(DalDeviceHandle * _h, DALInterruptID intrID);
   DALResult (*InterruptClear)(DalDeviceHandle * _h, DALInterruptID intrID);
   DALResult (*InterruptStatus)(DalDeviceHandle * _h, DALInterruptID intrID);
   DALResult (*RegisterIRQHandler)(DalDeviceHandle * _h, DALInterruptID intrID,
                           const DALIRQ irq, const DALIRQCtx ctx, uint32 bEnable);
  DALResult (*SetInterruptTrigger)(DalDeviceHandle * _h, DALInterruptID intrID, uint32 nTrigger);
  DALResult (*IsInterruptPending)(DalDeviceHandle * _h, DALInterruptID intrID,void* bState,uint32 size);
  DALResult (*IsInterruptEnabled)(DalDeviceHandle * _h, DALInterruptID intrID,void* bState,uint32 size);
  DALResult (*MapWakeupInterrupt)(DalDeviceHandle * _h, DALInterruptID intrID,uint32 nWakeupIntID);
  DALResult (*IsAnyInterruptPending)(DalDeviceHandle * _h, uint32* bState,uint32 size);
  DALResult (*Sleep)(DalDeviceHandle * _h, InterruptControllerSleepType sleep);
  DALResult (*Wakeup)(DalDeviceHandle * _h, InterruptControllerSleepType sleep);
  DALResult (*GetInterruptTrigger)(DalDeviceHandle * _h, DALInterruptID intrID,uint32* eTrigger, uint32 size);
  DALResult (*GetInterruptID)(DalDeviceHandle * _h, const char *szIntrName, uint32* pnIntrID, uint32 size);
  DALResult (*LogState)(DalDeviceHandle * _h, void *pULog);
};
typedef struct DalInterruptControllerHandle DalInterruptControllerHandle;
struct DalInterruptControllerHandle
{
   uint32 dwDalHandleId;
   const DalInterruptController * pVtbl;
   void * pClientCtxt;
};
static __inline DALResult
DalInterruptController_RegisterISR(DalDeviceHandle * _h, DALInterruptID intrID,
                           const DALISR isr, const DALISRCtx ctx, uint32 IntrFlags)
{
  if(_h != 0)
  {
    return ((DalInterruptControllerHandle *)_h)->pVtbl->RegisterISR( _h, intrID,
                                                                   isr, ctx, IntrFlags);
  }
  else
  {
    return -1;
  }
}
static __inline DALResult
DalInterruptController_RegisterIST(DalDeviceHandle * _h, DALInterruptID intrID,
                           const DALISR isr, const DALISRCtx ctx, uint32 IntrFlags, char* pISTName)
{
  if(_h != 0)
  {
    return ((DalInterruptControllerHandle *)_h)->pVtbl->RegisterIST( _h, intrID,
                                                                   isr, ctx, IntrFlags,pISTName);
  }
  else
  {
    return -1;
  }
}
static __inline DALResult
DalInterruptController_RegisterEvent(DalDeviceHandle * _h, DALInterruptID intrID,
                            const DALSYSEventHandle hEvent, uint32 IntrFlags)
{
  if(_h != 0)
  {
    return ((DalInterruptControllerHandle *)_h)->pVtbl->RegisterEvent( _h, intrID,
                                                                        hEvent, IntrFlags);
  }
  else
  {
    return -1;
  }
}
static __inline DALResult
DalInterruptController_Unregister(DalDeviceHandle * _h, DALInterruptID intrID)
{
  if(_h != 0)
  {
    return ((DalInterruptControllerHandle *)_h)->pVtbl->Unregister( _h, intrID);
  }
  else
  {
    return -1;
  }
}
static __inline DALResult
DalInterruptController_InterruptDone(DalDeviceHandle * _h, DALInterruptID intrID)
{
  if(_h != 0)
  {
    return ((DalInterruptControllerHandle *)_h)->pVtbl->InterruptDone( _h, intrID);
  }
  else
  {
    return -1;
  }
}
static __inline DALResult
DalInterruptController_InterruptEnable(DalDeviceHandle * _h, DALInterruptID intrID)
{
  if(_h != 0)
  {
    return ((DalInterruptControllerHandle *)_h)->pVtbl->InterruptEnable( _h, intrID);
  }
  else
  {
    return -1;
  }
}
static __inline DALResult
DalInterruptController_InterruptDisable(DalDeviceHandle * _h, DALInterruptID intrID)
{
  if(_h != 0)
  {
    return ((DalInterruptControllerHandle *)_h)->pVtbl->InterruptDisable( _h, intrID);
  }
  else
  {
    return -1;
  }
}
static __inline DALResult
DalInterruptController_InterruptTrigger(DalDeviceHandle * _h, DALInterruptID intrID)
{
  if(_h != 0)
  {
    return ((DalInterruptControllerHandle *)_h)->pVtbl->InterruptTrigger( _h, intrID);
  }
  else
  {
    return -1;
  }
}
static __inline DALResult
DalInterruptController_InterruptClear(DalDeviceHandle * _h, DALInterruptID intrID)
{
  if(_h != 0)
  {
    return ((DalInterruptControllerHandle *)_h)->pVtbl->InterruptClear( _h, intrID);
  }
  else
  {
    return -1;
  }
}
static __inline DALResult
DalInterruptController_InterruptStatus
(
  DalDeviceHandle * _h,
  DALInterruptID intrID
)
{
  if(_h != 0)
  {
    return ((DalInterruptControllerHandle *)_h)->pVtbl->InterruptStatus( _h, intrID);
  }
  else
  {
    return -1;
  }
}
static __inline DALResult
DalInterruptController_RegisterIRQHandler(DalDeviceHandle * _h, DALInterruptID intrID,const DALIRQ irq, const DALIRQCtx ctx, uint32 bEnable)
{
  if(_h != 0)
  {
    return ((DalInterruptControllerHandle *)_h)->pVtbl->RegisterIRQHandler( _h, intrID,
                                                                   irq, ctx, bEnable);
  }
  else
  {
    return -1;
  }
}
static __inline DALResult
DalInterruptController_SetTrigger(DalDeviceHandle * _h, DALInterruptID intrID,uint32 nTrigger)
{
  if(_h != 0)
  {
    return ((DalInterruptControllerHandle *)_h)->pVtbl->SetInterruptTrigger( _h,
            intrID, nTrigger);
  }
  else
  {
    return -1;
  }
}
static __inline DALResult
DalInterruptController_IsInterruptPending(DalDeviceHandle * _h, DALInterruptID intrID,uint32* bState)
{
  if(_h != 0)
  {
    return ((DalInterruptControllerHandle *)_h)->pVtbl->IsInterruptPending( _h,
            intrID, (void*)bState,1);
  }
  else
  {
    return -1;
  }
}
static __inline DALResult
DalInterruptController_IsInterruptEnabled(DalDeviceHandle * _h, DALInterruptID intrID,uint32* bState)
{
  if(_h != 0)
  {
    return ((DalInterruptControllerHandle *)_h)->pVtbl->IsInterruptEnabled( _h,
           intrID, (void*)bState,1);
  }
  else
  {
    return -1;
  }
}
static __inline DALResult
DalInterruptController_MapWakeupInterrupt(DalDeviceHandle * _h, DALInterruptID intrID, uint32 WakeupIntID)
{
  if(_h != 0)
  {
    return ((DalInterruptControllerHandle *)_h)->pVtbl->MapWakeupInterrupt( _h,
           intrID, WakeupIntID);
  }
  else
  {
    return -1;
  }
}
static __inline DALResult
DalInterruptController_IsAnyInterruptPending(DalDeviceHandle * _h, uint32* bState)
{
  if(_h != 0)
  {
    return ((DalInterruptControllerHandle *)_h)->pVtbl->IsAnyInterruptPending( _h,
           (uint32*)bState,1);
  }
  else
  {
    return -1;
  }
}
static __inline DALResult
DalInterruptController_Sleep(DalDeviceHandle * _h,InterruptControllerSleepType sleep)
{
  if(_h != 0)
  {
    return ((DalInterruptControllerHandle *)_h)->pVtbl->Sleep( _h, sleep);
  }
  else
  {
    return -1;
  }
}
static __inline DALResult
DalInterruptController_Wakeup(DalDeviceHandle * _h, InterruptControllerSleepType sleep)
{
  if(_h != 0)
  {
    return ((DalInterruptControllerHandle *)_h)->pVtbl->Wakeup( _h, sleep);
  }
  else
  {
    return -1;
  }
}
static __inline DALResult
DalInterruptController_GetInterruptTrigger(DalDeviceHandle * _h, DALInterruptID intrID,uint32* eTrigger)
{
  if(_h != 0)
  {
    return ((DalInterruptControllerHandle *)_h)->pVtbl->GetInterruptTrigger( _h,
             intrID,eTrigger,1);
  }
  else
  {
    return -1;
  }
}
static __inline DALResult
DalInterruptController_GetInterruptID(DalDeviceHandle * _h, const char * szIntrName,DALInterruptID* pnIntrID)
{
  if(_h != 0)
  {
    return ((DalInterruptControllerHandle *)_h)->pVtbl->GetInterruptID( _h, szIntrName, pnIntrID,1);
  }
  else
  {
    return -1;
  }
}
static __inline DALResult
DalInterruptController_LogState(DalDeviceHandle * _h, void *pULog)
{
   return ((DalInterruptControllerHandle *)_h)->pVtbl->LogState( _h, pULog);
}
<!--
 * The following physical address for the
 * processor as defined by the RPM. The start address is
 * defined to be at the wakeup_time - not enable request.
 * (see rpm_proc\core\power\mpm\src\vmpm_*.c)
-->
<driver name="NULL">
  <device id="/dev/core/power/mpm">
    <props name="vmpm_pinNumMappingTable" type=DALPROP_ATTR_TYPE_STRUCT_PTR>
      devcfg_MpmInterruptPinNum_Mapping
    </props>
    <props name="vmpm_procRegionStartPA" type=DALPROP_ATTR_TYPE_UINT32>
      0x0006A1B8
    </props>
  </device>
</driver>
